==========================
Graph: #nodes: 4009, #edges: 10101
min/max/avg degree: 2 / 1181 / 5.03916
BFS cache capacity: 20
BFSInfo type: 0
Algorithm version: 2
Compute hub labeling... load time: 0.00115991 seconds
indexing time: 0.019242 seconds
bit-parallel label size: 50
average normal label size: 1.14093
done	[Time: 23 | 23]
Initialize far apart pairs... done	[Time: 79 | 102]
Start search... 
new lower bound: 3	[Time: 0 | 102]
new lower bound: 4	[Time: 0 | 102]
new lower bound: 5	[Time: 402 | 505]
end of search	[Time: 727 | 1232]
Final time	[Time: 0 | 1232]
Considered FAP:	24493
Evaluated Intervals:	18113
Evaluated slices:	19335
Average size of slices:	9.75831
Time for computation of far apart pairs in computeBorassi: NO DATA
Time for computation of hyperbolicity in computeBorassi: NO DATA
Time for computation of far apart pairs in computeBorassiHubLabeling: NO DATA
Time for computation of hyperbolicity in computeBorassiHubLabeling: NO DATA
Initialization of v2 algorithm: NO DATA
HasNext call of v2 loop to get next far pair: NO DATA
Initial part of v2 main loop: NO DATA
Time for acceptable and valuable computation in v2 main loop: NO DATA
Lower bound update of v2 main loop: NO DATA
COMPLETE TIME FOR BORASSI_HUBLAB: : NO DATA
COMPLETE TIME FOR BORASSI: : NO DATA
COMPLETE TIME FOR OUR APPROACH: : NO DATA
Counts BFS calls in compute_v2: 0

The leanness of the graph is 5
	Command being timed: "timeout 6h ./../build/leanness ./../graphs/as20000102.bcc.txt -a 2 -i 2 -s 2"
	User time (seconds): 1.21
	System time (seconds): 0.02
	Percent of CPU this job got: 99%
	Elapsed (wall clock) time (h:mm:ss or m:ss): 0:01.24
	Average shared text size (kbytes): 0
	Average unshared data size (kbytes): 0
	Average stack size (kbytes): 0
	Average total size (kbytes): 0
	Maximum resident set size (kbytes): 42420
	Average resident set size (kbytes): 0
	Major (requiring I/O) page faults: 0
	Minor (reclaiming a frame) page faults: 10076
	Voluntary context switches: 4
	Involuntary context switches: 3
	Swaps: 0
	File system inputs: 0
	File system outputs: 0
	Socket messages sent: 0
	Socket messages received: 0
	Signals delivered: 0
	Page size (bytes): 4096
	Exit status: 0
