==========================
Graph: #nodes: 2944, #edges: 10444
min/max/avg degree: 2 / 309 / 7.09511
BFS cache capacity: 20
BFSInfo type: 0
Algorithm version: 1
Compute distance matrix... done	[Time: 283 | 283]
Build list of active pairs sorted by distances... done	[Time: 277 | 561]
Start search... 
new lower bound: 2	[Time: 0 | 561]
new lower bound: 3	[Time: 0 | 561]
new lower bound: 4	[Time: 0 | 561]
new lower bound: 5	[Time: 0 | 561]
new lower bound: 6	[Time: 16 | 578]
end of search	[Time: 916 | 1494]
Final time	[Time: 0 | 1494]
Considered FAP:	111219
Evaluated Intervals:	111219
Evaluated slices:	30415
Average size of slices:	3.9974
Time for computation of far apart pairs in computeBorassi: NO DATA
Time for computation of hyperbolicity in computeBorassi: NO DATA
Time for computation of far apart pairs in computeBorassiHubLabeling: NO DATA
Time for computation of hyperbolicity in computeBorassiHubLabeling: NO DATA
Initialization of v2 algorithm: NO DATA
HasNext call of v2 loop to get next far pair: NO DATA
Initial part of v2 main loop: NO DATA
Time for acceptable and valuable computation in v2 main loop: NO DATA
Lower bound update of v2 main loop: NO DATA
COMPLETE TIME FOR BORASSI_HUBLAB: : NO DATA
COMPLETE TIME FOR BORASSI: : NO DATA
COMPLETE TIME FOR OUR APPROACH: : NO DATA
Counts BFS calls in compute_v2: 0

The leanness of the graph is 6
	Command being timed: "timeout 6h ./../build/leanness ./../graphs/BIOGRID-SYSTEM-Biochemical_Activity-3.4.145.bcc.edgelist -a 1 -i 1 -s 2"
	User time (seconds): 1.44
	System time (seconds): 0.06
	Percent of CPU this job got: 99%
	Elapsed (wall clock) time (h:mm:ss or m:ss): 0:01.52
	Average shared text size (kbytes): 0
	Average unshared data size (kbytes): 0
	Average stack size (kbytes): 0
	Average total size (kbytes): 0
	Maximum resident set size (kbytes): 126424
	Average resident set size (kbytes): 0
	Major (requiring I/O) page faults: 0
	Minor (reclaiming a frame) page faults: 39450
	Voluntary context switches: 3
	Involuntary context switches: 2
	Swaps: 0
	File system inputs: 0
	File system outputs: 0
	Socket messages sent: 0
	Socket messages received: 0
	Signals delivered: 0
	Page size (bytes): 4096
	Exit status: 0
