==========================
Graph: #nodes: 1521, #edges: 4143
min/max/avg degree: 2 / 57 / 5.44773
BFS cache capacity: 20
BFSInfo type: 0
Algorithm version: 1
Compute distance matrix... done	[Time: 76 | 76]
Build list of active pairs sorted by distances... done	[Time: 26 | 102]
Start search... 
new lower bound: 6	[Time: 0 | 102]
new lower bound: 7	[Time: 0 | 103]
new lower bound: 8	[Time: 94 | 198]
end of search	[Time: 16 | 214]
Final time	[Time: 0 | 214]
Considered FAP:	58627
Evaluated Intervals:	3264
Evaluated slices:	5178
Average size of slices:	3.98938
Time for computation of far apart pairs in computeBorassi: NO DATA
Time for computation of hyperbolicity in computeBorassi: NO DATA
Time for computation of far apart pairs in computeBorassiHubLabeling: NO DATA
Time for computation of hyperbolicity in computeBorassiHubLabeling: NO DATA
Initialization of v2 algorithm: NO DATA
HasNext call of v2 loop to get next far pair: NO DATA
Initial part of v2 main loop: NO DATA
Time for acceptable and valuable computation in v2 main loop: NO DATA
Lower bound update of v2 main loop: NO DATA
COMPLETE TIME FOR BORASSI_HUBLAB: : NO DATA
COMPLETE TIME FOR BORASSI: : NO DATA
COMPLETE TIME FOR OUR APPROACH: : NO DATA
Counts BFS calls in compute_v2: 0

The leanness of the graph is 8
	Command being timed: "timeout 6h ./../build/leanness ./../graphs/BIOGRID-SYSTEM-Dosage_Rescue-3.4.145.bcc.edgelist -a 1 -i 2 -s 2"
	User time (seconds): 0.20
	System time (seconds): 0.02
	Percent of CPU this job got: 99%
	Elapsed (wall clock) time (h:mm:ss or m:ss): 0:00.22
	Average shared text size (kbytes): 0
	Average unshared data size (kbytes): 0
	Average stack size (kbytes): 0
	Average total size (kbytes): 0
	Maximum resident set size (kbytes): 36248
	Average resident set size (kbytes): 0
	Major (requiring I/O) page faults: 0
	Minor (reclaiming a frame) page faults: 9936
	Voluntary context switches: 3
	Involuntary context switches: 0
	Swaps: 0
	File system inputs: 0
	File system outputs: 0
	Socket messages sent: 0
	Socket messages received: 0
	Signals delivered: 0
	Page size (bytes): 4096
	Exit status: 0
