==========================
Graph: #nodes: 17234, #edges: 84595
min/max/avg degree: 2 / 272 / 9.81722
BFS cache capacity: 20
BFSInfo type: 0
Algorithm version: 1
Compute distance matrix... done	[Time: 11170 | 11170]
Build list of active pairs sorted by distances... done	[Time: 11403 | 22574]
Start search... 
new lower bound: 4	[Time: 0 | 22574]
new lower bound: 5	[Time: 0 | 22574]
new lower bound: 6	[Time: 0 | 22574]
new lower bound: 7	[Time: 17 | 22592]
end of search	[Time: 18536 | 41128]
Final time	[Time: 0 | 41128]
Considered FAP:	902223
Evaluated Intervals:	516825
Evaluated slices:	521067
Average size of slices:	13.7518
Time for computation of far apart pairs in computeBorassi: NO DATA
Time for computation of hyperbolicity in computeBorassi: NO DATA
Time for computation of far apart pairs in computeBorassiHubLabeling: NO DATA
Time for computation of hyperbolicity in computeBorassiHubLabeling: NO DATA
Initialization of v2 algorithm: NO DATA
HasNext call of v2 loop to get next far pair: NO DATA
Initial part of v2 main loop: NO DATA
Time for acceptable and valuable computation in v2 main loop: NO DATA
Lower bound update of v2 main loop: NO DATA
COMPLETE TIME FOR BORASSI_HUBLAB: : NO DATA
COMPLETE TIME FOR BORASSI: : NO DATA
COMPLETE TIME FOR OUR APPROACH: : NO DATA
Counts BFS calls in compute_v2: 0

The leanness of the graph is 7
	Command being timed: "timeout 6h ./../build/leanness ./../graphs/ca-CondMat.bcc.edgelist -a 1 -i 2 -s 2"
	User time (seconds): 38.24
	System time (seconds): 2.96
	Percent of CPU this job got: 99%
	Elapsed (wall clock) time (h:mm:ss or m:ss): 0:41.35
	Average shared text size (kbytes): 0
	Average unshared data size (kbytes): 0
	Average stack size (kbytes): 0
	Average total size (kbytes): 0
	Maximum resident set size (kbytes): 3900556
	Average resident set size (kbytes): 0
	Major (requiring I/O) page faults: 0
	Minor (reclaiming a frame) page faults: 1312836
	Voluntary context switches: 3
	Involuntary context switches: 151
	Swaps: 0
	File system inputs: 0
	File system outputs: 24
	Socket messages sent: 0
	Socket messages received: 0
	Signals delivered: 0
	Page size (bytes): 4096
	Exit status: 0
