==========================
Graph: #nodes: 9025, #edges: 114046
min/max/avg degree: 2 / 491 / 25.2734
BFS cache capacity: 20
BFSInfo type: 0
Algorithm version: 1
Compute distance matrix... done	[Time: 3891 | 3891]
Build list of active pairs sorted by distances... done	[Time: 2550 | 6441]
Start search... 
new lower bound: 4	[Time: 0 | 6441]
new lower bound: 5	[Time: 0 | 6441]
new lower bound: 6	[Time: 0 | 6441]
end of search	[Time: 13740 | 20182]
Final time	[Time: 0 | 20182]
Considered FAP:	576613
Evaluated Intervals:	337639
Evaluated slices:	342170
Average size of slices:	16.366
Time for computation of far apart pairs in computeBorassi: NO DATA
Time for computation of hyperbolicity in computeBorassi: NO DATA
Time for computation of far apart pairs in computeBorassiHubLabeling: NO DATA
Time for computation of hyperbolicity in computeBorassiHubLabeling: NO DATA
Initialization of v2 algorithm: NO DATA
HasNext call of v2 loop to get next far pair: NO DATA
Initial part of v2 main loop: NO DATA
Time for acceptable and valuable computation in v2 main loop: NO DATA
Lower bound update of v2 main loop: NO DATA
COMPLETE TIME FOR BORASSI_HUBLAB: : NO DATA
COMPLETE TIME FOR BORASSI: : NO DATA
COMPLETE TIME FOR OUR APPROACH: : NO DATA
Counts BFS calls in compute_v2: 0

The leanness of the graph is 6
	Command being timed: "timeout 6h ./../build/leanness ./../graphs/ca-HepPh.bcc.edgelist -a 1 -i 2 -s 2"
	User time (seconds): 19.41
	System time (seconds): 0.81
	Percent of CPU this job got: 99%
	Elapsed (wall clock) time (h:mm:ss or m:ss): 0:20.30
	Average shared text size (kbytes): 0
	Average unshared data size (kbytes): 0
	Average stack size (kbytes): 0
	Average total size (kbytes): 0
	Maximum resident set size (kbytes): 1049892
	Average resident set size (kbytes): 0
	Major (requiring I/O) page faults: 0
	Minor (reclaiming a frame) page faults: 347602
	Voluntary context switches: 3
	Involuntary context switches: 55
	Swaps: 0
	File system inputs: 0
	File system outputs: 16
	Socket messages sent: 0
	Socket messages received: 0
	Signals delivered: 0
	Page size (bytes): 4096
	Exit status: 0
