==========================
Graph: #nodes: 10424, #edges: 27061
min/max/avg degree: 2 / 1952 / 5.19206
BFS cache capacity: 20
BFSInfo type: 0
Algorithm version: 1
Compute distance matrix... done	[Time: 2622 | 2622]
Build list of active pairs sorted by distances... done	[Time: 3730 | 6352]
Start search... 
new lower bound: 1	[Time: 0 | 6352]
new lower bound: 2	[Time: 0 | 6352]
new lower bound: 3	[Time: 0 | 6352]
new lower bound: 4	[Time: 0 | 6352]
new lower bound: 5	[Time: 1159 | 7512]
end of search	[Time: 4930 | 12442]
Final time	[Time: 0 | 12442]
Considered FAP:	253466
Evaluated Intervals:	253466
Evaluated slices:	261646
Average size of slices:	8.3389
Time for computation of far apart pairs in computeBorassi: NO DATA
Time for computation of hyperbolicity in computeBorassi: NO DATA
Time for computation of far apart pairs in computeBorassiHubLabeling: NO DATA
Time for computation of hyperbolicity in computeBorassiHubLabeling: NO DATA
Initialization of v2 algorithm: NO DATA
HasNext call of v2 loop to get next far pair: NO DATA
Initial part of v2 main loop: NO DATA
Time for acceptable and valuable computation in v2 main loop: NO DATA
Lower bound update of v2 main loop: NO DATA
COMPLETE TIME FOR BORASSI_HUBLAB: : NO DATA
COMPLETE TIME FOR BORASSI: : NO DATA
COMPLETE TIME FOR OUR APPROACH: : NO DATA
Counts BFS calls in compute_v2: 0

The leanness of the graph is 5
	Command being timed: "timeout 6h ./../build/leanness ./../graphs/CAIDA_as_20040105.bcc.edgelist -a 1 -i 1 -s 1"
	User time (seconds): 11.52
	System time (seconds): 0.96
	Percent of CPU this job got: 99%
	Elapsed (wall clock) time (h:mm:ss or m:ss): 0:12.53
	Average shared text size (kbytes): 0
	Average unshared data size (kbytes): 0
	Average stack size (kbytes): 0
	Average total size (kbytes): 0
	Maximum resident set size (kbytes): 1512900
	Average resident set size (kbytes): 0
	Major (requiring I/O) page faults: 0
	Minor (reclaiming a frame) page faults: 492645
	Voluntary context switches: 5
	Involuntary context switches: 29
	Swaps: 0
	File system inputs: 496
	File system outputs: 16
	Socket messages sent: 0
	Socket messages received: 0
	Signals delivered: 0
	Page size (bytes): 4096
	Exit status: 0
