==========================
Graph: #nodes: 10424, #edges: 27061
min/max/avg degree: 2 / 1952 / 5.19206
BFS cache capacity: 20
BFSInfo type: 0
Algorithm version: 2
Compute hub labeling... load time: 0.00234699 seconds
indexing time: 0.0534098 seconds
bit-parallel label size: 50
average normal label size: 1.37692
done	[Time: 62 | 62]
Initialize far apart pairs... done	[Time: 989 | 1051]
Start search... 
new lower bound: 2	[Time: 0 | 1051]
new lower bound: 3	[Time: 0 | 1051]
new lower bound: 4	[Time: 0 | 1052]
new lower bound: 5	[Time: 5706 | 6758]
end of search	[Time: 7934 | 14692]
Final time	[Time: 0 | 14692]
Considered FAP:	253254
Evaluated Intervals:	183078
Evaluated slices:	195023
Average size of slices:	9.34397
Time for computation of far apart pairs in computeBorassi: NO DATA
Time for computation of hyperbolicity in computeBorassi: NO DATA
Time for computation of far apart pairs in computeBorassiHubLabeling: NO DATA
Time for computation of hyperbolicity in computeBorassiHubLabeling: NO DATA
Initialization of v2 algorithm: NO DATA
HasNext call of v2 loop to get next far pair: NO DATA
Initial part of v2 main loop: NO DATA
Time for acceptable and valuable computation in v2 main loop: NO DATA
Lower bound update of v2 main loop: NO DATA
COMPLETE TIME FOR BORASSI_HUBLAB: : NO DATA
COMPLETE TIME FOR BORASSI: : NO DATA
COMPLETE TIME FOR OUR APPROACH: : NO DATA
Counts BFS calls in compute_v2: 0

The leanness of the graph is 5
	Command being timed: "timeout 6h ./../build/leanness ./../graphs/CAIDA_as_20040105.bcc.edgelist -a 2 -i 2 -s 2"
	User time (seconds): 14.52
	System time (seconds): 0.17
	Percent of CPU this job got: 99%
	Elapsed (wall clock) time (h:mm:ss or m:ss): 0:14.74
	Average shared text size (kbytes): 0
	Average unshared data size (kbytes): 0
	Average stack size (kbytes): 0
	Average total size (kbytes): 0
	Maximum resident set size (kbytes): 354256
	Average resident set size (kbytes): 0
	Major (requiring I/O) page faults: 0
	Minor (reclaiming a frame) page faults: 88463
	Voluntary context switches: 3
	Involuntary context switches: 48
	Swaps: 0
	File system inputs: 0
	File system outputs: 24
	Socket messages sent: 0
	Socket messages received: 0
	Signals delivered: 0
	Page size (bytes): 4096
	Exit status: 0
