==========================
Graph: #nodes: 25614, #edges: 109180
min/max/avg degree: 2 / 2968 / 8.52503
BFS cache capacity: 20
BFSInfo type: 0
Algorithm version: 1
Compute distance matrix... done	[Time: 19260 | 19260]
Build list of active pairs sorted by distances... done	[Time: 26080 | 45340]
Start search... 
new lower bound: 3	[Time: 0 | 45340]
new lower bound: 4	[Time: 6 | 45347]
end of search	[Time: 1239625 | 1284972]
Final time	[Time: 0 | 1284972]
Considered FAP:	18564370
Evaluated Intervals:	12580910
Evaluated slices:	12748612
Average size of slices:	18.8874
Time for computation of far apart pairs in computeBorassi: NO DATA
Time for computation of hyperbolicity in computeBorassi: NO DATA
Time for computation of far apart pairs in computeBorassiHubLabeling: NO DATA
Time for computation of hyperbolicity in computeBorassiHubLabeling: NO DATA
Initialization of v2 algorithm: NO DATA
HasNext call of v2 loop to get next far pair: NO DATA
Initial part of v2 main loop: NO DATA
Time for acceptable and valuable computation in v2 main loop: NO DATA
Lower bound update of v2 main loop: NO DATA
COMPLETE TIME FOR BORASSI_HUBLAB: : NO DATA
COMPLETE TIME FOR BORASSI: : NO DATA
COMPLETE TIME FOR OUR APPROACH: : NO DATA
Counts BFS calls in compute_v2: 0

The leanness of the graph is 4
	Command being timed: "timeout 6h ./../build/leanness ./../graphs/CAIDA_as_20120101.bcc.edgelist -a 1 -i 2 -s 2"
	User time (seconds): 1252.35
	System time (seconds): 28.68
	Percent of CPU this job got: 99%
	Elapsed (wall clock) time (h:mm:ss or m:ss): 21:25.39
	Average shared text size (kbytes): 0
	Average unshared data size (kbytes): 0
	Average stack size (kbytes): 0
	Average total size (kbytes): 0
	Maximum resident set size (kbytes): 9009536
	Average resident set size (kbytes): 0
	Major (requiring I/O) page faults: 0
	Minor (reclaiming a frame) page faults: 2990118
	Voluntary context switches: 4
	Involuntary context switches: 2825
	Swaps: 0
	File system inputs: 0
	File system outputs: 24
	Socket messages sent: 0
	Socket messages received: 0
	Signals delivered: 0
	Page size (bytes): 4096
	Exit status: 0
