==========================
Graph: #nodes: 140610, #edges: 572873
min/max/avg degree: 2 / 237 / 8.1484
BFS cache capacity: 20
BFSInfo type: 0
Algorithm version: 1
Compute distance matrix... timeout: the monitored command dumped core
Command terminated by signal 11
	Command being timed: "timeout 6h ./../build/leanness ./../graphs/dblp-2010.bcc.txt -a 1 -i 1 -s 2"
	User time (seconds): 91.26
	System time (seconds): 11.37
	Percent of CPU this job got: 95%
	Elapsed (wall clock) time (h:mm:ss or m:ss): 1:47.15
	Average shared text size (kbytes): 0
	Average unshared data size (kbytes): 0
	Average stack size (kbytes): 0
	Average total size (kbytes): 0
	Maximum resident set size (kbytes): 20263764
	Average resident set size (kbytes): 0
	Major (requiring I/O) page faults: 0
	Minor (reclaiming a frame) page faults: 5070560
	Voluntary context switches: 9
	Involuntary context switches: 214
	Swaps: 0
	File system inputs: 0
	File system outputs: 8
	Socket messages sent: 0
	Socket messages received: 0
	Signals delivered: 0
	Page size (bytes): 4096
	Exit status: 0
