==========================
Graph: #nodes: 3698, #edges: 85963
min/max/avg degree: 2 / 1034 / 46.4916
BFS cache capacity: 20
BFSInfo type: 0
Algorithm version: 1
Compute distance matrix... done	[Time: 726 | 726]
Build list of active pairs sorted by distances... done	[Time: 307 | 1034]
Start search... 
new lower bound: 2	[Time: 0 | 1034]
new lower bound: 3	[Time: 0 | 1034]
end of search	[Time: 28588 | 29623]
Final time	[Time: 0 | 29623]
Considered FAP:	3514763
Evaluated Intervals:	3514763
Evaluated slices:	4460403
Average size of slices:	2.39122
Time for computation of far apart pairs in computeBorassi: NO DATA
Time for computation of hyperbolicity in computeBorassi: NO DATA
Time for computation of far apart pairs in computeBorassiHubLabeling: NO DATA
Time for computation of hyperbolicity in computeBorassiHubLabeling: NO DATA
Initialization of v2 algorithm: NO DATA
HasNext call of v2 loop to get next far pair: NO DATA
Initial part of v2 main loop: NO DATA
Time for acceptable and valuable computation in v2 main loop: NO DATA
Lower bound update of v2 main loop: NO DATA
COMPLETE TIME FOR BORASSI_HUBLAB: : NO DATA
COMPLETE TIME FOR BORASSI: : NO DATA
COMPLETE TIME FOR OUR APPROACH: : NO DATA
Counts BFS calls in compute_v2: 0

The leanness of the graph is 3
	Command being timed: "timeout 6h ./../build/leanness ./../graphs/facebook_combined.bcc.txt -a 1 -i 1 -s 1"
	User time (seconds): 29.46
	System time (seconds): 0.13
	Percent of CPU this job got: 99%
	Elapsed (wall clock) time (h:mm:ss or m:ss): 0:29.69
	Average shared text size (kbytes): 0
	Average unshared data size (kbytes): 0
	Average stack size (kbytes): 0
	Average total size (kbytes): 0
	Maximum resident set size (kbytes): 194660
	Average resident set size (kbytes): 0
	Major (requiring I/O) page faults: 0
	Minor (reclaiming a frame) page faults: 59682
	Voluntary context switches: 4
	Involuntary context switches: 77
	Swaps: 0
	File system inputs: 1584
	File system outputs: 8
	Socket messages sent: 0
	Socket messages received: 0
	Signals delivered: 0
	Page size (bytes): 4096
	Exit status: 0
