==========================
Graph: #nodes: 749520, #edges: 2895228
min/max/avg degree: 2 / 8 / 7.72555
BFS cache capacity: 20
BFSInfo type: 0
Algorithm version: 1
Compute distance matrix... timeout: the monitored command dumped core
Command terminated by signal 11
	Command being timed: "timeout 6h ./../build/leanness ./../graphs/froz-w.bcc.txt -a 1 -i 2 -s 2"
	User time (seconds): 82.34
	System time (seconds): 13.08
	Percent of CPU this job got: 95%
	Elapsed (wall clock) time (h:mm:ss or m:ss): 1:40.35
	Average shared text size (kbytes): 0
	Average unshared data size (kbytes): 0
	Average stack size (kbytes): 0
	Average total size (kbytes): 0
	Maximum resident set size (kbytes): 26903056
	Average resident set size (kbytes): 0
	Major (requiring I/O) page faults: 0
	Minor (reclaiming a frame) page faults: 6750143
	Voluntary context switches: 17
	Involuntary context switches: 219
	Swaps: 0
	File system inputs: 0
	File system outputs: 8
	Socket messages sent: 0
	Socket messages received: 0
	Signals delivered: 0
	Page size (bytes): 4096
	Exit status: 0
