==========================
Graph: #nodes: 33812, #edges: 119127
min/max/avg degree: 2 / 84 / 7.04643
BFS cache capacity: 20
BFSInfo type: 0
Algorithm version: 1
Compute distance matrix... done	[Time: 42686 | 42686]
Build list of active pairs sorted by distances... done	[Time: 49734 | 92420]
Start search... 
new lower bound: 2	[Time: 0 | 92421]
new lower bound: 4	[Time: 0 | 92421]
new lower bound: 6	[Time: 0 | 92421]
new lower bound: 7	[Time: 0 | 92422]
end of search	[Time: 10249 | 102671]
Final time	[Time: 0 | 102671]
Considered FAP:	115199
Evaluated Intervals:	115199
Evaluated slices:	115280
Average size of slices:	25.4727
Time for computation of far apart pairs in computeBorassi: NO DATA
Time for computation of hyperbolicity in computeBorassi: NO DATA
Time for computation of far apart pairs in computeBorassiHubLabeling: NO DATA
Time for computation of hyperbolicity in computeBorassiHubLabeling: NO DATA
Initialization of v2 algorithm: NO DATA
HasNext call of v2 loop to get next far pair: NO DATA
Initial part of v2 main loop: NO DATA
Time for acceptable and valuable computation in v2 main loop: NO DATA
Lower bound update of v2 main loop: NO DATA
COMPLETE TIME FOR BORASSI_HUBLAB: : NO DATA
COMPLETE TIME FOR BORASSI: : NO DATA
COMPLETE TIME FOR OUR APPROACH: : NO DATA
Counts BFS calls in compute_v2: 0

The leanness of the graph is 7
	Command being timed: "timeout 6h ./../build/leanness ./../graphs/gnutella31-d.bcc.txt -a 1 -i 1 -s 1"
	User time (seconds): 92.76
	System time (seconds): 10.27
	Percent of CPU this job got: 99%
	Elapsed (wall clock) time (h:mm:ss or m:ss): 1:43.38
	Average shared text size (kbytes): 0
	Average unshared data size (kbytes): 0
	Average stack size (kbytes): 0
	Average total size (kbytes): 0
	Maximum resident set size (kbytes): 14629440
	Average resident set size (kbytes): 0
	Major (requiring I/O) page faults: 0
	Minor (reclaiming a frame) page faults: 5033356
	Voluntary context switches: 4
	Involuntary context switches: 362
	Swaps: 0
	File system inputs: 2568
	File system outputs: 24
	Socket messages sent: 0
	Socket messages received: 0
	Signals delivered: 0
	Page size (bytes): 4096
	Exit status: 0
