==========================
Graph: #nodes: 90211, #edges: 162152
min/max/avg degree: 2 / 4 / 3.59495
BFS cache capacity: 20
BFSInfo type: 0
Algorithm version: 3
Start search... 
new lower bound: 2	[Time: 8 | 8]
new lower bound: 4	[Time: 6 | 15]
new lower bound: 6	[Time: 5 | 20]
new lower bound: 8	[Time: 6 | 27]
new lower bound: 10	[Time: 6 | 33]
new lower bound: 12	[Time: 40 | 73]
new lower bound: 14	[Time: 10 | 83]
new lower bound: 16	[Time: 13 | 97]
new lower bound: 18	[Time: 15 | 112]
new lower bound: 20	[Time: 16 | 129]
new lower bound: 22	[Time: 18 | 147]
new lower bound: 24	[Time: 20 | 167]
new lower bound: 26	[Time: 23 | 191]
new lower bound: 28	[Time: 45 | 236]
new lower bound: 30	[Time: 25 | 261]
new lower bound: 32	[Time: 27 | 289]
new lower bound: 34	[Time: 30 | 319]
new lower bound: 36	[Time: 28 | 348]
new lower bound: 38	[Time: 30 | 378]
new lower bound: 40	[Time: 47 | 426]
new lower bound: 42	[Time: 37 | 463]
new lower bound: 44	[Time: 48 | 512]
new lower bound: 46	[Time: 47 | 559]
new lower bound: 48	[Time: 35 | 595]
new lower bound: 50	[Time: 20 | 615]
new lower bound: 52	[Time: 74 | 689]
new lower bound: 54	[Time: 37 | 726]
new lower bound: 56	[Time: 108 | 835]
new lower bound: 58	[Time: 0 | 835]
new lower bound: 60	[Time: 76 | 911]
new lower bound: 62	[Time: 58 | 970]
new lower bound: 64	[Time: 38 | 1009]
new lower bound: 66	[Time: 15 | 1024]
new lower bound: 68	[Time: 33 | 1058]
new lower bound: 70	[Time: 78 | 1136]
new lower bound: 72	[Time: 32 | 1168]
new lower bound: 74	[Time: 53 | 1222]
new lower bound: 76	[Time: 32 | 1254]
new lower bound: 78	[Time: 27 | 1281]
new lower bound: 80	[Time: 41 | 1322]
new lower bound: 82	[Time: 12 | 1334]
new lower bound: 84	[Time: 30 | 1365]
new lower bound: 86	[Time: 73 | 1439]
new lower bound: 90	[Time: 61 | 1500]
new lower bound: 94	[Time: 71 | 1572]
new lower bound: 96	[Time: 47 | 1620]
new lower bound: 98	[Time: 34 | 1654]
new lower bound: 100	[Time: 41 | 1695]
new lower bound: 102	[Time: 22 | 1718]
new lower bound: 104	[Time: 35 | 1754]
new lower bound: 108	[Time: 56 | 1810]
new lower bound: 110	[Time: 49 | 1860]
new lower bound: 112	[Time: 79 | 1939]
new lower bound: 114	[Time: 34 | 1974]
new lower bound: 116	[Time: 53 | 2027]
new lower bound: 118	[Time: 6 | 2034]
new lower bound: 120	[Time: 32 | 2066]
new lower bound: 122	[Time: 20 | 2087]
new lower bound: 124	[Time: 113 | 2200]
new lower bound: 126	[Time: 0 | 2200]
new lower bound: 128	[Time: 5 | 2205]
new lower bound: 130	[Time: 44 | 2250]
new lower bound: 132	[Time: 44 | 2295]
new lower bound: 134	[Time: 0 | 2295]
new lower bound: 136	[Time: 67 | 2362]
new lower bound: 138	[Time: 44 | 2407]
new lower bound: 140	[Time: 55 | 2462]
new lower bound: 142	[Time: 32 | 2495]
new lower bound: 144	[Time: 5 | 2500]
new lower bound: 146	[Time: 144 | 2644]
new lower bound: 148	[Time: 25 | 2670]
new lower bound: 150	[Time: 0 | 2670]
new lower bound: 152	[Time: 0 | 2670]
new lower bound: 156	[Time: 187 | 2857]
new lower bound: 158	[Time: 15 | 2873]
new lower bound: 162	[Time: 24 | 2897]
new lower bound: 166	[Time: 149 | 3046]
new lower bound: 168	[Time: 0 | 3046]
new lower bound: 170	[Time: 0 | 3046]
new lower bound: 172	[Time: 76 | 3123]
new lower bound: 174	[Time: 0 | 3123]
new lower bound: 178	[Time: 39 | 3162]
new lower bound: 180	[Time: 39 | 3202]
new lower bound: 182	[Time: 48 | 3251]
new lower bound: 184	[Time: 57 | 3308]
new lower bound: 186	[Time: 0 | 3308]
new lower bound: 188	[Time: 100 | 3408]
new lower bound: 190	[Time: 0 | 3408]
new lower bound: 192	[Time: 152 | 3561]
new lower bound: 194	[Time: 43 | 3605]
new lower bound: 196	[Time: 20 | 3626]
new lower bound: 198	[Time: 0 | 3626]
new lower bound: 200	[Time: 27 | 3653]
new lower bound: 202	[Time: 97 | 3751]
new lower bound: 206	[Time: 27 | 3778]
new lower bound: 208	[Time: 0 | 3778]
new lower bound: 212	[Time: 228 | 4007]
new lower bound: 214	[Time: 43 | 4051]
new lower bound: 218	[Time: 83 | 4135]
new lower bound: 220	[Time: 15 | 4151]
new lower bound: 222	[Time: 164 | 4315]
new lower bound: 226	[Time: 0 | 4315]
new lower bound: 228	[Time: 54 | 4370]
new lower bound: 230	[Time: 17 | 4387]
new lower bound: 232	[Time: 15 | 4403]
new lower bound: 234	[Time: 80 | 4484]
new lower bound: 236	[Time: 19 | 4503]
new lower bound: 238	[Time: 8 | 4511]
new lower bound: 240	[Time: 34 | 4546]
new lower bound: 242	[Time: 57 | 4604]
new lower bound: 244	[Time: 39 | 4644]
new lower bound: 246	[Time: 0 | 4644]
new lower bound: 250	[Time: 85 | 4729]
new lower bound: 252	[Time: 146 | 4876]
new lower bound: 254	[Time: 0 | 4876]
new lower bound: 256	[Time: 0 | 4876]
new lower bound: 258	[Time: 91 | 4967]
new lower bound: 260	[Time: 0 | 4967]
new lower bound: 262	[Time: 27 | 4995]
new lower bound: 264	[Time: 50 | 5046]
new lower bound: 266	[Time: 0 | 5046]
new lower bound: 270	[Time: 101 | 5147]
new lower bound: 272	[Time: 0 | 5147]
new lower bound: 274	[Time: 130 | 5278]
new lower bound: 276	[Time: 0 | 5278]
new lower bound: 280	[Time: 0 | 5278]
new lower bound: 282	[Time: 34 | 5313]
new lower bound: 284	[Time: 25 | 5338]
new lower bound: 286	[Time: 33 | 5371]
new lower bound: 288	[Time: 27 | 5399]
new lower bound: 290	[Time: 98 | 5498]
new lower bound: 292	[Time: 1 | 5499]
new lower bound: 294	[Time: 82 | 5582]
new lower bound: 296	[Time: 0 | 5582]
new lower bound: 300	[Time: 61 | 5643]
new lower bound: 304	[Time: 40 | 5684]
new lower bound: 306	[Time: 121 | 5806]
new lower bound: 308	[Time: 51 | 5857]
new lower bound: 310	[Time: 180 | 6038]
new lower bound: 312	[Time: 22 | 6061]
new lower bound: 318	[Time: 0 | 6061]
new lower bound: 322	[Time: 174 | 6235]
new lower bound: 324	[Time: 0 | 6235]
new lower bound: 326	[Time: 69 | 6304]
new lower bound: 330	[Time: 78 | 6383]
new lower bound: 332	[Time: 0 | 6383]
new lower bound: 336	[Time: 91 | 6474]
new lower bound: 338	[Time: 101 | 6575]
new lower bound: 340	[Time: 0 | 6575]
new lower bound: 342	[Time: 153 | 6728]
new lower bound: 348	[Time: 0 | 6728]
new lower bound: 350	[Time: 70 | 6799]
new lower bound: 352	[Time: 3 | 6802]
new lower bound: 354	[Time: 75 | 6878]
new lower bound: 356	[Time: 24 | 6902]
new lower bound: 358	[Time: 54 | 6957]
new lower bound: 362	[Time: 165 | 7122]
new lower bound: 364	[Time: 7 | 7129]
new lower bound: 366	[Time: 0 | 7129]
new lower bound: 368	[Time: 144 | 7273]
new lower bound: 372	[Time: 53 | 7327]
new lower bound: 374	[Time: 54 | 7382]
new lower bound: 376	[Time: 24 | 7406]
new lower bound: 380	[Time: 79 | 7486]
new lower bound: 384	[Time: 48 | 7535]
new lower bound: 386	[Time: 0 | 7535]
new lower bound: 388	[Time: 183 | 7718]
new lower bound: 390	[Time: 35 | 7754]
new lower bound: 392	[Time: 120 | 7875]
new lower bound: 396	[Time: 0 | 7875]
new lower bound: 398	[Time: 151 | 8026]
new lower bound: 402	[Time: 65 | 8092]
new lower bound: 404	[Time: 47 | 8139]
new lower bound: 406	[Time: 0 | 8139]
new lower bound: 408	[Time: 83 | 8223]
new lower bound: 410	[Time: 29 | 8252]
new lower bound: 412	[Time: 0 | 8252]
new lower bound: 416	[Time: 164 | 8417]
new lower bound: 418	[Time: 128 | 8546]
new lower bound: 420	[Time: 0 | 8546]
new lower bound: 422	[Time: 0 | 8546]
new lower bound: 424	[Time: 34 | 8580]
new lower bound: 426	[Time: 0 | 8580]
new lower bound: 428	[Time: 168 | 8749]
new lower bound: 436	[Time: 110 | 8859]
new lower bound: 440	[Time: 71 | 8931]
new lower bound: 444	[Time: 65 | 8996]
new lower bound: 446	[Time: 33 | 9030]
new lower bound: 448	[Time: 96 | 9127]
new lower bound: 452	[Time: 0 | 9127]
new lower bound: 454	[Time: 75 | 9203]
new lower bound: 456	[Time: 0 | 9203]
new lower bound: 460	[Time: 282 | 9486]
new lower bound: 462	[Time: 0 | 9486]
new lower bound: 464	[Time: 0 | 9486]
new lower bound: 466	[Time: 263 | 9749]
new lower bound: 470	[Time: 0 | 9750]
new lower bound: 472	[Time: 13040 | 22790]
new lower bound: 474	[Time: 17846 | 40637]
end of search	[Time: 422622 | 463259]
Time for computation of far apart pairs in computeBorassi: NO DATA
Time for computation of hyperbolicity in computeBorassi: NO DATA
Time for computation of far apart pairs in computeBorassiHubLabeling: NO DATA
Time for computation of hyperbolicity in computeBorassiHubLabeling: NO DATA
Initialization of v2 algorithm: NO DATA
HasNext call of v2 loop to get next far pair: NO DATA
Initial part of v2 main loop: NO DATA
Time for acceptable and valuable computation in v2 main loop: NO DATA
Lower bound update of v2 main loop: NO DATA
COMPLETE TIME FOR BORASSI_HUBLAB: : NO DATA
COMPLETE TIME FOR BORASSI: : NO DATA
COMPLETE TIME FOR OUR APPROACH: : NO DATA
Counts BFS calls in compute_v2: 0

The leanness of the graph is 474
	Command being timed: "timeout 6h ./../build/leanness ./../graphs/grid300-10.bcc.txt -a 3 -t 100 -k 20"
	User time (seconds): 461.91
	System time (seconds): 0.00
	Percent of CPU this job got: 99%
	Elapsed (wall clock) time (h:mm:ss or m:ss): 7:43.34
	Average shared text size (kbytes): 0
	Average unshared data size (kbytes): 0
	Average stack size (kbytes): 0
	Average total size (kbytes): 0
	Maximum resident set size (kbytes): 11588
	Average resident set size (kbytes): 0
	Major (requiring I/O) page faults: 0
	Minor (reclaiming a frame) page faults: 3600
	Voluntary context switches: 3
	Involuntary context switches: 1190
	Swaps: 0
	File system inputs: 0
	File system outputs: 48
	Socket messages sent: 0
	Socket messages received: 0
	Signals delivered: 0
	Page size (bytes): 4096
	Exit status: 0
