==========================
Graph: #nodes: 51528, #edges: 473218
min/max/avg degree: 2 / 2376 / 18.3674
BFS cache capacity: 20
BFSInfo type: 0
Algorithm version: 1
Compute distance matrix... done	[Time: 129762 | 129762]
Build list of active pairs sorted by distances... done	[Time: 128321 | 258084]
Start search... 
new lower bound: 4	[Time: 0 | 258084]
new lower bound: 5	[Time: 410 | 258494]
end of search	[Time: 250818 | 509313]
Final time	[Time: 0 | 509313]
Considered FAP:	2124249
Evaluated Intervals:	1557471
Evaluated slices:	1566546
Average size of slices:	55.009
Time for computation of far apart pairs in computeBorassi: NO DATA
Time for computation of hyperbolicity in computeBorassi: NO DATA
Time for computation of far apart pairs in computeBorassiHubLabeling: NO DATA
Time for computation of hyperbolicity in computeBorassiHubLabeling: NO DATA
Initialization of v2 algorithm: NO DATA
HasNext call of v2 loop to get next far pair: NO DATA
Initial part of v2 main loop: NO DATA
Time for acceptable and valuable computation in v2 main loop: NO DATA
Lower bound update of v2 main loop: NO DATA
COMPLETE TIME FOR BORASSI_HUBLAB: : NO DATA
COMPLETE TIME FOR BORASSI: : NO DATA
COMPLETE TIME FOR OUR APPROACH: : NO DATA
Counts BFS calls in compute_v2: 0

The leanness of the graph is 5
	Command being timed: "timeout 6h ./../build/leanness ./../graphs/slashdot0902-d.bcc.txt -a 1 -i 2 -s 2"
	User time (seconds): 479.83
	System time (seconds): 29.29
	Percent of CPU this job got: 99%
	Elapsed (wall clock) time (h:mm:ss or m:ss): 8:30.95
	Average shared text size (kbytes): 0
	Average unshared data size (kbytes): 0
	Average stack size (kbytes): 0
	Average total size (kbytes): 0
	Maximum resident set size (kbytes): 37014992
	Average resident set size (kbytes): 0
	Major (requiring I/O) page faults: 0
	Minor (reclaiming a frame) page faults: 13008451
	Voluntary context switches: 3
	Involuntary context switches: 2294
	Swaps: 0
	File system inputs: 0
	File system outputs: 24
	Socket messages sent: 0
	Socket messages received: 0
	Signals delivered: 0
	Page size (bytes): 4096
	Exit status: 0
