==========================
Graph: #nodes: 51528, #edges: 473218
min/max/avg degree: 2 / 2376 / 18.3674
BFS cache capacity: 20
BFSInfo type: 0
Algorithm version: 2
Compute hub labeling... load time: 0.0210571 seconds
indexing time: 1.75669 seconds
bit-parallel label size: 50
average normal label size: 21.5727
done	[Time: 1819 | 1819]
Initialize far apart pairs... done	[Time: 34053 | 35872]
Start search... 
new lower bound: 3	[Time: 2 | 35874]
new lower bound: 4	[Time: 0 | 35875]
new lower bound: 5	[Time: 8574 | 44449]
end of search	[Time: 1122891 | 1167340]
Final time	[Time: 0 | 1167340]
Considered FAP:	2123331
Evaluated Intervals:	1557743
Evaluated slices:	1568446
Average size of slices:	54.9176
Time for computation of far apart pairs in computeBorassi: NO DATA
Time for computation of hyperbolicity in computeBorassi: NO DATA
Time for computation of far apart pairs in computeBorassiHubLabeling: NO DATA
Time for computation of hyperbolicity in computeBorassiHubLabeling: NO DATA
Initialization of v2 algorithm: NO DATA
HasNext call of v2 loop to get next far pair: NO DATA
Initial part of v2 main loop: NO DATA
Time for acceptable and valuable computation in v2 main loop: NO DATA
Lower bound update of v2 main loop: NO DATA
COMPLETE TIME FOR BORASSI_HUBLAB: : NO DATA
COMPLETE TIME FOR BORASSI: : NO DATA
COMPLETE TIME FOR OUR APPROACH: : NO DATA
Counts BFS calls in compute_v2: 0

The leanness of the graph is 5
	Command being timed: "timeout 6h ./../build/leanness ./../graphs/slashdot0902-d.bcc.txt -a 2 -i 2 -s 2"
	User time (seconds): 1154.77
	System time (seconds): 9.76
	Percent of CPU this job got: 99%
	Elapsed (wall clock) time (h:mm:ss or m:ss): 19:27.86
	Average shared text size (kbytes): 0
	Average unshared data size (kbytes): 0
	Average stack size (kbytes): 0
	Average total size (kbytes): 0
	Maximum resident set size (kbytes): 6974360
	Average resident set size (kbytes): 0
	Major (requiring I/O) page faults: 0
	Minor (reclaiming a frame) page faults: 1752120
	Voluntary context switches: 3
	Involuntary context switches: 5611
	Swaps: 0
	File system inputs: 0
	File system outputs: 24
	Socket messages sent: 0
	Socket messages received: 0
	Signals delivered: 0
	Page size (bytes): 4096
	Exit status: 0
