==========================
Graph: #nodes: 34040, #edges: 54835
min/max/avg degree: 2 / 4 / 3.2218
BFS cache capacity: 20
BFSInfo type: 0
Algorithm version: 2
Compute hub labeling... load time: 0.00401497 seconds
indexing time: 0.922638 seconds
bit-parallel label size: 50
average normal label size: 68.8585
done	[Time: 950 | 950]
Initialize far apart pairs... done	[Time: 95 | 1046]
Start search... 
new lower bound: 276	[Time: 4 | 1050]
end of search	[Time: 37002 | 38052]
Final time	[Time: 0 | 38052]
Considered FAP:	8520
Evaluated Intervals:	6514
Evaluated slices:	6693
Average size of slices:	10.6794
Time for computation of far apart pairs in computeBorassi: NO DATA
Time for computation of hyperbolicity in computeBorassi: NO DATA
Time for computation of far apart pairs in computeBorassiHubLabeling: NO DATA
Time for computation of hyperbolicity in computeBorassiHubLabeling: NO DATA
Initialization of v2 algorithm: NO DATA
HasNext call of v2 loop to get next far pair: NO DATA
Initial part of v2 main loop: NO DATA
Time for acceptable and valuable computation in v2 main loop: NO DATA
Lower bound update of v2 main loop: NO DATA
COMPLETE TIME FOR BORASSI_HUBLAB: : NO DATA
COMPLETE TIME FOR BORASSI: : NO DATA
COMPLETE TIME FOR OUR APPROACH: : NO DATA
Counts BFS calls in compute_v2: 0

The leanness of the graph is 276
	Command being timed: "timeout 6h ./../build/leanness ./../graphs/z-alue7065.bcc.txt -a 2 -i 2 -s 2"
	User time (seconds): 37.66
	System time (seconds): 0.33
	Percent of CPU this job got: 99%
	Elapsed (wall clock) time (h:mm:ss or m:ss): 0:38.13
	Average shared text size (kbytes): 0
	Average unshared data size (kbytes): 0
	Average stack size (kbytes): 0
	Average total size (kbytes): 0
	Maximum resident set size (kbytes): 533592
	Average resident set size (kbytes): 0
	Major (requiring I/O) page faults: 0
	Minor (reclaiming a frame) page faults: 133701
	Voluntary context switches: 3
	Involuntary context switches: 117
	Swaps: 0
	File system inputs: 0
	File system outputs: 8
	Socket messages sent: 0
	Socket messages received: 0
	Signals delivered: 0
	Page size (bytes): 4096
	Exit status: 0
