==========================
Graph: #nodes: 2944, #edges: 10444
min/max/avg degree: 2 / 309 / 7.09511
BFS cache capacity: 20
BFSInfo type: 0
Algorithm version: 3
Start search... 
new lower bound: 2	[Time: 0 | 0]	(0, 0, 0)
new lower bound: 3	[Time: 0 | 0]	(0, 0, 0)
new lower bound: 4	[Time: 1 | 2]	(0, 0, 0)
new lower bound: 5	[Time: 0 | 2]	(0, 0, 0)
end of search	[Time: 33 | 35]
Time for computation of far apart pairs in computeBorassi: NO DATA
Time for computation of hyperbolicity in computeBorassi: NO DATA
Time for computation of far apart pairs in computeBorassiHubLabeling: NO DATA
Time for computation of hyperbolicity in computeBorassiHubLabeling: NO DATA
Initialization of v2 algorithm: NO DATA
HasNext call of v2 loop to get next far pair: NO DATA
Initial part of v2 main loop: NO DATA
Time for acceptable and valuable computation in v2 main loop: NO DATA
Lower bound update of v2 main loop: NO DATA
COMPLETE TIME FOR BORASSI_HUBLAB: : NO DATA
COMPLETE TIME FOR BORASSI: : NO DATA
COMPLETE TIME FOR OUR APPROACH: : NO DATA
Counts BFS calls in compute_v2: 0

The leanness of the graph is 5
	Command being timed: "timeout 1h ./../build/leanness ./../graphs/BIOGRID-SYSTEM-Biochemical_Activity-3.4.145.bcc.edgelist -a 3 -t 15 -k 15"
	User time (seconds): 0.03
	System time (seconds): 0.00
	Percent of CPU this job got: 97%
	Elapsed (wall clock) time (h:mm:ss or m:ss): 0:00.03
	Average shared text size (kbytes): 0
	Average unshared data size (kbytes): 0
	Average stack size (kbytes): 0
	Average total size (kbytes): 0
	Maximum resident set size (kbytes): 4348
	Average resident set size (kbytes): 0
	Major (requiring I/O) page faults: 0
	Minor (reclaiming a frame) page faults: 372
	Voluntary context switches: 3
	Involuntary context switches: 0
	Swaps: 0
	File system inputs: 0
	File system outputs: 0
	Socket messages sent: 0
	Socket messages received: 0
	Signals delivered: 0
	Page size (bytes): 4096
	Exit status: 0
