==========================
Graph: #nodes: 17793, #edges: 174210
min/max/avg degree: 2 / 1885 / 19.5819
BFS cache capacity: 20
BFSInfo type: 0
Algorithm version: 1
Interval version: 3
Slice version: 2
Threshold: 30
Compute distance matrix... done	[Time: 11045 | 11045]
Build list of active pairs sorted by distances... done	[Time: 8740 | 19786]
Start search... 
new upper bound: 12	[Time: 0 | 19786]	(0, 0, 0)
new lower bound: 2	[Time: 0 | 19786]	(1, 1, 1)
new lower bound: 3	[Time: 0 | 19786]	(1, 2, 4)
new lower bound: 4	[Time: 0 | 19786]	(1, 2, 5)
new upper bound: 11	[Time: 0 | 19787]	(16, 17, 86)
new upper bound: 10	[Time: 76 | 19864]	(2232, 2161, 9250)
new upper bound: 9	[Time: 2540 | 22404]	(79087, 72207, 211673)
new lower bound: 5	[Time: 2913 | 25318]	(183231, 161240, 420540)
new upper bound: 8	[Time: 11263 | 36581]	(660331, 525211, 878503)
new upper bound: 7	[Time: 30213 | 66795]	(2661296, 1831885, 2190101)
new lower bound: 6	[Time: 844 | 67639]	(2716030, 1868687, 2227205)
end of search	[Time: 77378 | 145018]
Considered FAP:	7139868
Evaluated Intervals:	3806163
Evaluated slices:	4164682
Min / Avg / Max size of slices:	2 / 14.3444 / 381
Time for computation of far apart pairs in computeBorassi: NO DATA
Time for computation of hyperbolicity in computeBorassi: NO DATA
Time for computation of far apart pairs in computeBorassiHubLabeling: NO DATA
Time for computation of hyperbolicity in computeBorassiHubLabeling: NO DATA
Initialization of v2 algorithm: NO DATA
HasNext call of v2 loop to get next far pair: NO DATA
Initial part of v2 main loop: NO DATA
Time for acceptable and valuable computation in v2 main loop: NO DATA
Lower bound update of v2 main loop: NO DATA
COMPLETE TIME FOR BORASSI_HUBLAB: : NO DATA
COMPLETE TIME FOR BORASSI: : NO DATA
COMPLETE TIME FOR OUR APPROACH: : NO DATA
Counts BFS calls in compute_v2: 0

The leanness of the graph is 6
	Command being timed: "timeout 1h ./../build/leanness ./../graphs/BIOGRID-SYSTEM-Affinity_Capture-MS-3.4.145.bcc.edgelist -a 1 -i 3 -s 2"
	User time (seconds): 143.78
	System time (seconds): 1.20
	Percent of CPU this job got: 99%
	Elapsed (wall clock) time (h:mm:ss or m:ss): 2:25.17
	Average shared text size (kbytes): 0
	Average unshared data size (kbytes): 0
	Average stack size (kbytes): 0
	Average total size (kbytes): 0
	Maximum resident set size (kbytes): 4026052
	Average resident set size (kbytes): 0
	Major (requiring I/O) page faults: 0
	Minor (reclaiming a frame) page faults: 1374215
	Voluntary context switches: 3
	Involuntary context switches: 339
	Swaps: 0
	File system inputs: 0
	File system outputs: 48
	Socket messages sent: 0
	Socket messages received: 0
	Signals delivered: 0
	Page size (bytes): 4096
	Exit status: 0
