==========================
Graph: #nodes: 17793, #edges: 174210
min/max/avg degree: 2 / 1885 / 19.5819
BFS cache capacity: 20
BFSInfo type: 0
Algorithm version: 2
Hub version: 1
Interval version: 3
Slice version: 2
Threshold: 30
Compute hub labeling... load time: 0.0058341 seconds
indexing time: 0.288818 seconds
bit-parallel label size: 50
average normal label size: 15.113
done	[Time: 302 | 302]
Initialize far apart pairs... done	[Time: 13 | 316]
Start search... 
new upper bound: 12	[Time: 5 | 322]	(1, 0, 0)
new lower bound: 3	[Time: 0 | 322]	(1, 1, 1)
new lower bound: 4	[Time: 4 | 326]	(2, 4, 9)
new upper bound: 11	[Time: 10 | 336]	(17, 18, 87)
new upper bound: 10	[Time: 1494 | 1831]	(2233, 2162, 9251)
new upper bound: 9	[Time: 13459 | 15290]	(79088, 72208, 211674)
new lower bound: 5	[Time: 8498 | 23789]	(151616, 133320, 351538)
new upper bound: 8	[Time: 26668 | 50457]	(660332, 523014, 844993)
new upper bound: 7	[Time: 57677 | 108134]	(2661297, 1829688, 2156591)
new lower bound: 6	[Time: 240270 | 348405]	(4837074, 3009892, 3361246)
end of search	[Time: 109707 | 458112]
Considered FAP:	7139869
Evaluated Intervals:	4012625
Evaluated slices:	4363980
Min/Avg/Max size of slices:	2 / 14.0547 / 381
Time for computation of far apart pairs in computeBorassi: NO DATA
Time for computation of hyperbolicity in computeBorassi: NO DATA
Time for computation of far apart pairs in computeBorassiHubLabeling: NO DATA
Time for computation of hyperbolicity in computeBorassiHubLabeling: NO DATA
Initialization of v2 algorithm: NO DATA
HasNext call of v2 loop to get next far pair: NO DATA
Initial part of v2 main loop: NO DATA
Time for acceptable and valuable computation in v2 main loop: NO DATA
Lower bound update of v2 main loop: NO DATA
COMPLETE TIME FOR BORASSI_HUBLAB: : NO DATA
COMPLETE TIME FOR BORASSI: : NO DATA
COMPLETE TIME FOR OUR APPROACH: : NO DATA
Counts BFS calls in compute_v2: 0

The leanness of the graph is 6
	Command being timed: "timeout 1h ./../build/leanness ./../graphs/BIOGRID-SYSTEM-Affinity_Capture-MS-3.4.145.bcc.edgelist -a 2 -i 3 -s 2"
	User time (seconds): 457.38
	System time (seconds): 0.19
	Percent of CPU this job got: 99%
	Elapsed (wall clock) time (h:mm:ss or m:ss): 7:38.19
	Average shared text size (kbytes): 0
	Average unshared data size (kbytes): 0
	Average stack size (kbytes): 0
	Average total size (kbytes): 0
	Maximum resident set size (kbytes): 845576
	Average resident set size (kbytes): 0
	Major (requiring I/O) page faults: 0
	Minor (reclaiming a frame) page faults: 214218
	Voluntary context switches: 3
	Involuntary context switches: 1398
	Swaps: 0
	File system inputs: 0
	File system outputs: 48
	Socket messages sent: 0
	Socket messages received: 0
	Signals delivered: 0
	Page size (bytes): 4096
	Exit status: 0
