==========================
Graph: #nodes: 17234, #edges: 84595
min/max/avg degree: 2 / 272 / 9.81722
BFS cache capacity: 20
BFSInfo type: 0
Algorithm version: 4
Interval version: 3
Slice version: 3
Threshold: 30
Compute distance matrix... done	[Time: 8765 | 8765]
Initialize far apart pairs... done	[Time: 2177 | 10942]
Start search... 
new upper bound: 12	[Time: 0 | 10942]	(0, 0, 0)
new lower bound: 4	[Time: 0 | 10943]	(1, 1, 1)
new lower bound: 5	[Time: 0 | 10943]	(1, 1, 2)
new upper bound: 11	[Time: 11 | 10954]	(2, 2, 14)
new lower bound: 6	[Time: 2 | 10957]	(5, 5, 29)
new upper bound: 10	[Time: 43 | 11000]	(87, 87, 308)
new lower bound: 7	[Time: 135 | 11135]	(152, 149, 437)
new upper bound: 9	[Time: 1243 | 12379]	(3273, 2789, 3235)
new upper bound: 8	[Time: 9062 | 21442]	(68975, 51063, 54149)
end of search	[Time: 17904 | 39347]
Considered FAP:	899359
Evaluated Intervals:	516378
Evaluated slices:	519464
Min / Avg / Max size of slices:	2 / 13.7658 / 123
Time for computation of far apart pairs in computeBorassi: NO DATA
Time for computation of hyperbolicity in computeBorassi: NO DATA
Time for computation of far apart pairs in computeBorassiHubLabeling: NO DATA
Time for computation of hyperbolicity in computeBorassiHubLabeling: NO DATA
Initialization of v2 algorithm: NO DATA
HasNext call of v2 loop to get next far pair: NO DATA
Initial part of v2 main loop: NO DATA
Time for acceptable and valuable computation in v2 main loop: NO DATA
Lower bound update of v2 main loop: NO DATA
COMPLETE TIME FOR BORASSI_HUBLAB: : NO DATA
COMPLETE TIME FOR BORASSI: : NO DATA
COMPLETE TIME FOR OUR APPROACH: : NO DATA
Counts BFS calls in compute_v2: 0

The leanness of the graph is 7
	Command being timed: "timeout 1h ./../build/leanness ./../graphs/ca-CondMat.bcc.edgelist -a 4 -i 3 -s 3"
	User time (seconds): 38.70
	System time (seconds): 0.71
	Percent of CPU this job got: 99%
	Elapsed (wall clock) time (h:mm:ss or m:ss): 0:39.46
	Average shared text size (kbytes): 0
	Average unshared data size (kbytes): 0
	Average stack size (kbytes): 0
	Average total size (kbytes): 0
	Maximum resident set size (kbytes): 3080772
	Average resident set size (kbytes): 0
	Major (requiring I/O) page faults: 0
	Minor (reclaiming a frame) page faults: 770212
	Voluntary context switches: 3
	Involuntary context switches: 111
	Swaps: 0
	File system inputs: 0
	File system outputs: 24
	Socket messages sent: 0
	Socket messages received: 0
	Signals delivered: 0
	Page size (bytes): 4096
	Exit status: 0
