==========================
Graph: #nodes: 17234, #edges: 84595
min/max/avg degree: 2 / 272 / 9.81722
BFS cache capacity: 20
BFSInfo type: 0
Algorithm version: 1
Interval version: 1
Slice version: 1
Threshold: 17234
Compute distance matrix... done	[Time: 8700 | 8700]
Build list of active pairs sorted by distances... done	[Time: 5949 | 14649]
Start search... 
new upper bound: 12	[Time: 0 | 14649]	(0, 0, 0)
new lower bound: 1	[Time: 0 | 14649]	(1, 1, 1)
new lower bound: 3	[Time: 0 | 14649]	(1, 1, 2)
new lower bound: 5	[Time: 0 | 14649]	(1, 1, 3)
new upper bound: 11	[Time: 0 | 14649]	(2, 2, 18)
new lower bound: 6	[Time: 0 | 14649]	(3, 3, 24)
new upper bound: 10	[Time: 1 | 14651]	(87, 87, 360)
new lower bound: 7	[Time: 12 | 14663]	(655, 655, 2064)
new upper bound: 9	[Time: 54 | 14718]	(3277, 3277, 9930)
new upper bound: 8	[Time: 1365 | 16084]	(69077, 69077, 141530)
end of search	[Time: 16861 | 32945]
Considered FAP:	902223
Evaluated Intervals:	902223
Evaluated slices:	974676
Min / Avg / Max size of slices:	1 / 10.8 / 123
Time for computation of far apart pairs in computeBorassi: NO DATA
Time for computation of hyperbolicity in computeBorassi: NO DATA
Time for computation of far apart pairs in computeBorassiHubLabeling: NO DATA
Time for computation of hyperbolicity in computeBorassiHubLabeling: NO DATA
Initialization of v2 algorithm: NO DATA
HasNext call of v2 loop to get next far pair: NO DATA
Initial part of v2 main loop: NO DATA
Time for acceptable and valuable computation in v2 main loop: NO DATA
Lower bound update of v2 main loop: NO DATA
COMPLETE TIME FOR BORASSI_HUBLAB: : NO DATA
COMPLETE TIME FOR BORASSI: : NO DATA
COMPLETE TIME FOR OUR APPROACH: : NO DATA
Counts BFS calls in compute_v2: 0

The leanness of the graph is 7
	Command being timed: "timeout 1h ./../build/leanness ./../graphs/ca-CondMat.bcc.edgelist -a 1 -i 1 -s 1"
	User time (seconds): 31.84
	System time (seconds): 1.20
	Percent of CPU this job got: 99%
	Elapsed (wall clock) time (h:mm:ss or m:ss): 0:33.09
	Average shared text size (kbytes): 0
	Average unshared data size (kbytes): 0
	Average stack size (kbytes): 0
	Average total size (kbytes): 0
	Maximum resident set size (kbytes): 3900436
	Average resident set size (kbytes): 0
	Major (requiring I/O) page faults: 0
	Minor (reclaiming a frame) page faults: 1312826
	Voluntary context switches: 4
	Involuntary context switches: 78
	Swaps: 0
	File system inputs: 1768
	File system outputs: 24
	Socket messages sent: 0
	Socket messages received: 0
	Signals delivered: 0
	Page size (bytes): 4096
	Exit status: 0
