==========================
Graph: #nodes: 5898, #edges: 20983
min/max/avg degree: 2 / 63 / 7.11529
BFS cache capacity: 20
BFSInfo type: 0
Algorithm version: 1
Interval version: 3
Slice version: 3
Threshold: 30
Compute distance matrix... done	[Time: 840 | 840]
Build list of active pairs sorted by distances... done	[Time: 614 | 1454]
Start search... 
new upper bound: 11	[Time: 0 | 1454]	(0, 0, 0)
new lower bound: 5	[Time: 0 | 1454]	(1, 1, 1)
new lower bound: 6	[Time: 0 | 1454]	(1, 1, 5)
new lower bound: 7	[Time: 0 | 1455]	(24, 22, 85)
new upper bound: 10	[Time: 0 | 1455]	(72, 67, 184)
new upper bound: 9	[Time: 24 | 1480]	(2647, 2185, 2864)
new lower bound: 8	[Time: 4 | 1485]	(3584, 2838, 3576)
end of search	[Time: 170 | 1655]
Considered FAP:	41294
Evaluated Intervals:	23559
Evaluated slices:	24314
Min / Avg / Max size of slices:	2 / 10.0334 / 69
Time for computation of far apart pairs in computeBorassi: NO DATA
Time for computation of hyperbolicity in computeBorassi: NO DATA
Time for computation of far apart pairs in computeBorassiHubLabeling: NO DATA
Time for computation of hyperbolicity in computeBorassiHubLabeling: NO DATA
Initialization of v2 algorithm: NO DATA
HasNext call of v2 loop to get next far pair: NO DATA
Initial part of v2 main loop: NO DATA
Time for acceptable and valuable computation in v2 main loop: NO DATA
Lower bound update of v2 main loop: NO DATA
COMPLETE TIME FOR BORASSI_HUBLAB: : NO DATA
COMPLETE TIME FOR BORASSI: : NO DATA
COMPLETE TIME FOR OUR APPROACH: : NO DATA
Counts BFS calls in compute_v2: 0

The leanness of the graph is 8
	Command being timed: "timeout 1h ./../build/leanness ./../graphs/ca-HepTh.bcc.edgelist -a 1 -i 3 -s 3"
	User time (seconds): 1.52
	System time (seconds): 0.14
	Percent of CPU this job got: 99%
	Elapsed (wall clock) time (h:mm:ss or m:ss): 0:01.67
	Average shared text size (kbytes): 0
	Average unshared data size (kbytes): 0
	Average stack size (kbytes): 0
	Average total size (kbytes): 0
	Maximum resident set size (kbytes): 490172
	Average resident set size (kbytes): 0
	Major (requiring I/O) page faults: 0
	Minor (reclaiming a frame) page faults: 151436
	Voluntary context switches: 4
	Involuntary context switches: 4
	Swaps: 0
	File system inputs: 0
	File system outputs: 8
	Socket messages sent: 0
	Socket messages received: 0
	Signals delivered: 0
	Page size (bytes): 4096
	Exit status: 0
