==========================
Graph: #nodes: 10424, #edges: 27061
min/max/avg degree: 2 / 1952 / 5.19206
BFS cache capacity: 20
BFSInfo type: 0
Algorithm version: 1
Interval version: 3
Slice version: 3
Threshold: 30
Compute distance matrix... done	[Time: 1840 | 1840]
Build list of active pairs sorted by distances... done	[Time: 2120 | 3961]
Start search... 
new upper bound: 8	[Time: 0 | 3961]	(0, 0, 0)
new lower bound: 2	[Time: 0 | 3961]	(1, 1, 1)
new lower bound: 3	[Time: 0 | 3961]	(2, 2, 7)
new lower bound: 4	[Time: 0 | 3961]	(2, 2, 9)
new upper bound: 7	[Time: 2 | 3963]	(73, 73, 252)
new upper bound: 6	[Time: 143 | 4106]	(8099, 7721, 13966)
new lower bound: 5	[Time: 189 | 4296]	(23286, 20288, 27127)
end of search	[Time: 2656 | 6952]
Considered FAP:	253253
Evaluated Intervals:	167067
Evaluated slices:	173906
Min / Avg / Max size of slices:	2 / 9.69793 / 185
Time for computation of far apart pairs in computeBorassi: NO DATA
Time for computation of hyperbolicity in computeBorassi: NO DATA
Time for computation of far apart pairs in computeBorassiHubLabeling: NO DATA
Time for computation of hyperbolicity in computeBorassiHubLabeling: NO DATA
Initialization of v2 algorithm: NO DATA
HasNext call of v2 loop to get next far pair: NO DATA
Initial part of v2 main loop: NO DATA
Time for acceptable and valuable computation in v2 main loop: NO DATA
Lower bound update of v2 main loop: NO DATA
COMPLETE TIME FOR BORASSI_HUBLAB: : NO DATA
COMPLETE TIME FOR BORASSI: : NO DATA
COMPLETE TIME FOR OUR APPROACH: : NO DATA
Counts BFS calls in compute_v2: 0

The leanness of the graph is 5
	Command being timed: "timeout 1h ./../build/leanness ./../graphs/CAIDA_as_20040105.bcc.edgelist -a 1 -i 3 -s 3"
	User time (seconds): 6.34
	System time (seconds): 0.65
	Percent of CPU this job got: 99%
	Elapsed (wall clock) time (h:mm:ss or m:ss): 0:07.00
	Average shared text size (kbytes): 0
	Average unshared data size (kbytes): 0
	Average stack size (kbytes): 0
	Average total size (kbytes): 0
	Maximum resident set size (kbytes): 2235388
	Average resident set size (kbytes): 0
	Major (requiring I/O) page faults: 0
	Minor (reclaiming a frame) page faults: 758400
	Voluntary context switches: 3
	Involuntary context switches: 21
	Swaps: 0
	File system inputs: 0
	File system outputs: 8
	Socket messages sent: 0
	Socket messages received: 0
	Signals delivered: 0
	Page size (bytes): 4096
	Exit status: 0
