==========================
Graph: #nodes: 4009, #edges: 10101
min/max/avg degree: 2 / 1181 / 5.03916
BFS cache capacity: 20
BFSInfo type: 0
Algorithm version: 1
Interval version: 1
Slice version: 1
Threshold: 4009
Compute distance matrix... done	[Time: 246 | 246]
Build list of active pairs sorted by distances... done	[Time: 284 | 530]
Start search... 
new upper bound: 8	[Time: 0 | 530]	(0, 0, 0)
new lower bound: 2	[Time: 0 | 530]	(1, 1, 1)
new lower bound: 4	[Time: 0 | 530]	(1, 1, 2)
new upper bound: 7	[Time: 0 | 530]	(3, 3, 13)
new upper bound: 6	[Time: 2 | 533]	(475, 475, 957)
new lower bound: 5	[Time: 80 | 613]	(17935, 17935, 18417)
end of search	[Time: 29 | 643]
Considered FAP:	24506
Evaluated Intervals:	24506
Evaluated slices:	24988
Min / Avg / Max size of slices:	1 / 8.97619 / 79
Time for computation of far apart pairs in computeBorassi: NO DATA
Time for computation of hyperbolicity in computeBorassi: NO DATA
Time for computation of far apart pairs in computeBorassiHubLabeling: NO DATA
Time for computation of hyperbolicity in computeBorassiHubLabeling: NO DATA
Initialization of v2 algorithm: NO DATA
HasNext call of v2 loop to get next far pair: NO DATA
Initial part of v2 main loop: NO DATA
Time for acceptable and valuable computation in v2 main loop: NO DATA
Lower bound update of v2 main loop: NO DATA
COMPLETE TIME FOR BORASSI_HUBLAB: : NO DATA
COMPLETE TIME FOR BORASSI: : NO DATA
COMPLETE TIME FOR OUR APPROACH: : NO DATA
Counts BFS calls in compute_v2: 0

The leanness of the graph is 5
	Command being timed: "timeout 1h ./../build/leanness ./../graphs/CAIDA_as_20000102.bcc.edgelist -a 1 -i 1 -s 1"
	User time (seconds): 0.58
	System time (seconds): 0.07
	Percent of CPU this job got: 99%
	Elapsed (wall clock) time (h:mm:ss or m:ss): 0:00.65
	Average shared text size (kbytes): 0
	Average unshared data size (kbytes): 0
	Average stack size (kbytes): 0
	Average total size (kbytes): 0
	Maximum resident set size (kbytes): 232912
	Average resident set size (kbytes): 0
	Major (requiring I/O) page faults: 0
	Minor (reclaiming a frame) page faults: 71483
	Voluntary context switches: 5
	Involuntary context switches: 3
	Swaps: 0
	File system inputs: 192
	File system outputs: 8
	Socket messages sent: 0
	Socket messages received: 0
	Signals delivered: 0
	Page size (bytes): 4096
	Exit status: 0
