==========================
Graph: #nodes: 29432, #edges: 143000
min/max/avg degree: 2 / 3615 / 9.71731
BFS cache capacity: 20
BFSInfo type: 0
Algorithm version: 2
Hub version: 1
Interval version: 3
Slice version: 2
Threshold: 30
Compute hub labeling... load time: 0.00463915 seconds
indexing time: 0.170978 seconds
bit-parallel label size: 50
average normal label size: 1.98967
done	[Time: 185 | 185]
Initialize far apart pairs... done	[Time: 1854 | 2039]
Start search... 
new upper bound: 9	[Time: 0 | 2039]	(1, 0, 0)
new lower bound: 3	[Time: 0 | 2039]	(1, 1, 1)
new lower bound: 4	[Time: 16 | 2056]	(8, 8, 38)
new upper bound: 8	[Time: 38 | 2094]	(15, 14, 57)
new lower bound: 5	[Time: 2329 | 4424]	(3630, 2900, 5202)
new upper bound: 7	[Time: 431 | 4855]	(7493, 5399, 7701)
new upper bound: 6	[Time: 36125 | 40980]	(141487, 80017, 82570)
end of search	[Time: 131640 | 172620]
Considered FAP:	1234351
Evaluated Intervals:	815215
Evaluated slices:	817768
Min/Avg/Max size of slices:	2 / 22.3275 / 1588
Time for computation of far apart pairs in computeBorassi: NO DATA
Time for computation of hyperbolicity in computeBorassi: NO DATA
Time for computation of far apart pairs in computeBorassiHubLabeling: NO DATA
Time for computation of hyperbolicity in computeBorassiHubLabeling: NO DATA
Initialization of v2 algorithm: NO DATA
HasNext call of v2 loop to get next far pair: NO DATA
Initial part of v2 main loop: NO DATA
Time for acceptable and valuable computation in v2 main loop: NO DATA
Lower bound update of v2 main loop: NO DATA
COMPLETE TIME FOR BORASSI_HUBLAB: : NO DATA
COMPLETE TIME FOR BORASSI: : NO DATA
COMPLETE TIME FOR OUR APPROACH: : NO DATA
Counts BFS calls in compute_v2: 0

The leanness of the graph is 5
	Command being timed: "timeout 1h ./../build/leanness ./../graphs/CAIDA_as_20131101.bcc.edgelist -a 2 -i 3 -s 2"
	User time (seconds): 171.76
	System time (seconds): 0.73
	Percent of CPU this job got: 99%
	Elapsed (wall clock) time (h:mm:ss or m:ss): 2:52.75
	Average shared text size (kbytes): 0
	Average unshared data size (kbytes): 0
	Average stack size (kbytes): 0
	Average total size (kbytes): 0
	Maximum resident set size (kbytes): 2880060
	Average resident set size (kbytes): 0
	Major (requiring I/O) page faults: 0
	Minor (reclaiming a frame) page faults: 722285
	Voluntary context switches: 3
	Involuntary context switches: 631
	Swaps: 0
	File system inputs: 0
	File system outputs: 16
	Socket messages sent: 0
	Socket messages received: 0
	Signals delivered: 0
	Page size (bytes): 4096
	Exit status: 0
