==========================
Graph: #nodes: 4009, #edges: 10101
min/max/avg degree: 2 / 1181 / 5.03916
BFS cache capacity: 20
BFSInfo type: 0
Algorithm version: 4
Interval version: 3
Slice version: 3
Threshold: 30
Compute distance matrix... done	[Time: 241 | 241]
Initialize far apart pairs... done	[Time: 56 | 297]
Start search... 
new upper bound: 8	[Time: 0 | 297]	(0, 0, 0)
new lower bound: 3	[Time: 0 | 297]	(1, 1, 1)
new lower bound: 4	[Time: 0 | 297]	(2, 2, 7)
new upper bound: 7	[Time: 0 | 298]	(3, 3, 14)
new upper bound: 6	[Time: 40 | 338]	(475, 454, 1034)
new lower bound: 5	[Time: 220 | 558]	(7057, 6078, 7063)
end of search	[Time: 330 | 889]
Considered FAP:	24492
Evaluated Intervals:	18013
Evaluated slices:	18998
Min / Avg / Max size of slices:	2 / 9.81435 / 79
Time for computation of far apart pairs in computeBorassi: NO DATA
Time for computation of hyperbolicity in computeBorassi: NO DATA
Time for computation of far apart pairs in computeBorassiHubLabeling: NO DATA
Time for computation of hyperbolicity in computeBorassiHubLabeling: NO DATA
Initialization of v2 algorithm: NO DATA
HasNext call of v2 loop to get next far pair: NO DATA
Initial part of v2 main loop: NO DATA
Time for acceptable and valuable computation in v2 main loop: NO DATA
Lower bound update of v2 main loop: NO DATA
COMPLETE TIME FOR BORASSI_HUBLAB: : NO DATA
COMPLETE TIME FOR BORASSI: : NO DATA
COMPLETE TIME FOR OUR APPROACH: : NO DATA
Counts BFS calls in compute_v2: 0

The leanness of the graph is 5
	Command being timed: "timeout 1h ./../build/leanness ./../graphs/CAIDA_as_20000102.bcc.edgelist -a 4 -i 3 -s 3"
	User time (seconds): 0.85
	System time (seconds): 0.04
	Percent of CPU this job got: 99%
	Elapsed (wall clock) time (h:mm:ss or m:ss): 0:00.89
	Average shared text size (kbytes): 0
	Average unshared data size (kbytes): 0
	Average stack size (kbytes): 0
	Average total size (kbytes): 0
	Maximum resident set size (kbytes): 162520
	Average resident set size (kbytes): 0
	Major (requiring I/O) page faults: 0
	Minor (reclaiming a frame) page faults: 39976
	Voluntary context switches: 3
	Involuntary context switches: 5
	Swaps: 0
	File system inputs: 0
	File system outputs: 0
	Socket messages sent: 0
	Socket messages received: 0
	Signals delivered: 0
	Page size (bytes): 4096
	Exit status: 0
