==========================
Graph: #nodes: 27454, #edges: 124672
min/max/avg degree: 2 / 3245 / 9.08225
BFS cache capacity: 20
BFSInfo type: 0
Algorithm version: 1
Interval version: 1
Slice version: 1
Threshold: 27454
Compute distance matrix... done	[Time: 16628 | 16628]
Build list of active pairs sorted by distances... done	[Time: 16774 | 33402]
Start search... 
new upper bound: 10	[Time: 0 | 33402]	(0, 0, 0)
new lower bound: 2	[Time: 0 | 33402]	(1, 1, 1)
new lower bound: 3	[Time: 0 | 33402]	(1, 1, 2)
new lower bound: 5	[Time: 0 | 33402]	(1, 1, 3)
new upper bound: 9	[Time: 0 | 33402]	(3, 3, 19)
new upper bound: 8	[Time: 16 | 33419]	(469, 469, 1883)
new upper bound: 7	[Time: 425 | 33844]	(14392, 14392, 43652)
new upper bound: 6	[Time: 3607 | 37452]	(140923, 140923, 296714)
end of search	[Time: 33157 | 70610]
Considered FAP:	1182110
Evaluated Intervals:	1182110
Evaluated slices:	1337901
Min / Avg / Max size of slices:	1 / 14.9827 / 1027
Time for computation of far apart pairs in computeBorassi: NO DATA
Time for computation of hyperbolicity in computeBorassi: NO DATA
Time for computation of far apart pairs in computeBorassiHubLabeling: NO DATA
Time for computation of hyperbolicity in computeBorassiHubLabeling: NO DATA
Initialization of v2 algorithm: NO DATA
HasNext call of v2 loop to get next far pair: NO DATA
Initial part of v2 main loop: NO DATA
Time for acceptable and valuable computation in v2 main loop: NO DATA
Lower bound update of v2 main loop: NO DATA
COMPLETE TIME FOR BORASSI_HUBLAB: : NO DATA
COMPLETE TIME FOR BORASSI: : NO DATA
COMPLETE TIME FOR OUR APPROACH: : NO DATA
Counts BFS calls in compute_v2: 0

The leanness of the graph is 5
	Command being timed: "timeout 1h ./../build/leanness ./../graphs/CAIDA_as_20130101.bcc.edgelist -a 1 -i 1 -s 1"
	User time (seconds): 67.65
	System time (seconds): 3.19
	Percent of CPU this job got: 99%
	Elapsed (wall clock) time (h:mm:ss or m:ss): 1:10.94
	Average shared text size (kbytes): 0
	Average unshared data size (kbytes): 0
	Average stack size (kbytes): 0
	Average total size (kbytes): 0
	Maximum resident set size (kbytes): 10372792
	Average resident set size (kbytes): 0
	Major (requiring I/O) page faults: 0
	Minor (reclaiming a frame) page faults: 3561565
	Voluntary context switches: 4
	Involuntary context switches: 183
	Swaps: 0
	File system inputs: 2592
	File system outputs: 24
	Socket messages sent: 0
	Socket messages received: 0
	Signals delivered: 0
	Page size (bytes): 4096
	Exit status: 0
