==========================
Graph: #nodes: 140610, #edges: 572873
min/max/avg degree: 2 / 237 / 8.1484
BFS cache capacity: 20
BFSInfo type: 0
Algorithm version: 2
Hub version: 1
Interval version: 3
Slice version: 2
Threshold: 30
Compute hub labeling... load time: 0.025481 seconds
indexing time: 13.8992 seconds
bit-parallel label size: 50
average normal label size: 166.938
done	[Time: 13999 | 13999]
Initialize far apart pairs... done	[Time: 167215 | 181215]
Start search... 
new upper bound: 17	[Time: 10 | 181225]	(1, 0, 0)
new lower bound: 6	[Time: 0 | 181225]	(1, 1, 1)
new lower bound: 7	[Time: 0 | 181226]	(1, 1, 2)
new upper bound: 16	[Time: 393 | 181619]	(127, 126, 714)
new lower bound: 8	[Time: 59 | 181679]	(133, 133, 753)
new upper bound: 15	[Time: 1821 | 183501]	(1409, 1200, 4443)
new lower bound: 9	[Time: 4883 | 188384]	(3392, 2750, 8862)
new lower bound: 10	[Time: 6939 | 195324]	(12840, 10087, 23029)
new upper bound: 14	[Time: 124 | 195449]	(13362, 10470, 23499)
new upper bound: 13	[Time: 69038 | 264487]	(116531, 80365, 94309)
new lower bound: 11	[Time: 245127 | 509615]	(394271, 226619, 241668)
new upper bound: 12	[Time: 111448 | 621063]	(891251, 449211, 464266)
end of search	[Time: 975109 | 1596173]
Considered FAP:	5418648
Evaluated Intervals:	1998858
Evaluated slices:	2013913
Min/Avg/Max size of slices:	2 / 10.009 / 130
Time for computation of far apart pairs in computeBorassi: NO DATA
Time for computation of hyperbolicity in computeBorassi: NO DATA
Time for computation of far apart pairs in computeBorassiHubLabeling: NO DATA
Time for computation of hyperbolicity in computeBorassiHubLabeling: NO DATA
Initialization of v2 algorithm: NO DATA
HasNext call of v2 loop to get next far pair: NO DATA
Initial part of v2 main loop: NO DATA
Time for acceptable and valuable computation in v2 main loop: NO DATA
Lower bound update of v2 main loop: NO DATA
COMPLETE TIME FOR BORASSI_HUBLAB: : NO DATA
COMPLETE TIME FOR BORASSI: : NO DATA
COMPLETE TIME FOR OUR APPROACH: : NO DATA
Counts BFS calls in compute_v2: 0

The leanness of the graph is 11
	Command being timed: "timeout 1h ./../build/leanness ./../graphs/dblp-2010.bcc.txt -a 2 -i 3 -s 2"
	User time (seconds): 1585.83
	System time (seconds): 9.38
	Percent of CPU this job got: 99%
	Elapsed (wall clock) time (h:mm:ss or m:ss): 26:37.57
	Average shared text size (kbytes): 0
	Average unshared data size (kbytes): 0
	Average stack size (kbytes): 0
	Average total size (kbytes): 0
	Maximum resident set size (kbytes): 42965668
	Average resident set size (kbytes): 0
	Major (requiring I/O) page faults: 0
	Minor (reclaiming a frame) page faults: 10752755
	Voluntary context switches: 3
	Involuntary context switches: 7003
	Swaps: 0
	File system inputs: 0
	File system outputs: 64
	Socket messages sent: 0
	Socket messages received: 0
	Signals delivered: 0
	Page size (bytes): 4096
	Exit status: 0
