==========================
Graph: #nodes: 3698, #edges: 85963
min/max/avg degree: 2 / 1034 / 46.4916
BFS cache capacity: 20
BFSInfo type: 0
Algorithm version: 4
Interval version: 3
Slice version: 3
Threshold: 30
Compute distance matrix... done	[Time: 454 | 454]
Initialize far apart pairs... done	[Time: 262 | 717]
Start search... 
new upper bound: 6	[Time: 0 | 717]	(0, 0, 0)
new lower bound: 3	[Time: 0 | 717]	(1, 2, 2)
new upper bound: 5	[Time: 550 | 1268]	(9550, 9551, 14094)
new upper bound: 4	[Time: 3507 | 4775]	(936088, 284226, 351223)
end of search	[Time: 9794 | 14569]
Considered FAP:	3514753
Evaluated Intervals:	803871
Evaluated slices:	870868
Min / Avg / Max size of slices:	1 / 4.29756 / 42
Time for computation of far apart pairs in computeBorassi: NO DATA
Time for computation of hyperbolicity in computeBorassi: NO DATA
Time for computation of far apart pairs in computeBorassiHubLabeling: NO DATA
Time for computation of hyperbolicity in computeBorassiHubLabeling: NO DATA
Initialization of v2 algorithm: NO DATA
HasNext call of v2 loop to get next far pair: NO DATA
Initial part of v2 main loop: NO DATA
Time for acceptable and valuable computation in v2 main loop: NO DATA
Lower bound update of v2 main loop: NO DATA
COMPLETE TIME FOR BORASSI_HUBLAB: : NO DATA
COMPLETE TIME FOR BORASSI: : NO DATA
COMPLETE TIME FOR OUR APPROACH: : NO DATA
Counts BFS calls in compute_v2: 0

The leanness of the graph is 3
	Command being timed: "timeout 1h ./../build/leanness ./../graphs/facebook_combined.bcc.txt -a 4 -i 3 -s 3"
	User time (seconds): 14.51
	System time (seconds): 0.06
	Percent of CPU this job got: 99%
	Elapsed (wall clock) time (h:mm:ss or m:ss): 0:14.60
	Average shared text size (kbytes): 0
	Average unshared data size (kbytes): 0
	Average stack size (kbytes): 0
	Average total size (kbytes): 0
	Maximum resident set size (kbytes): 222572
	Average resident set size (kbytes): 0
	Major (requiring I/O) page faults: 0
	Minor (reclaiming a frame) page faults: 55689
	Voluntary context switches: 3
	Involuntary context switches: 55
	Swaps: 0
	File system inputs: 0
	File system outputs: 8
	Socket messages sent: 0
	Socket messages received: 0
	Signals delivered: 0
	Page size (bytes): 4096
	Exit status: 0
