==========================
Graph: #nodes: 33812, #edges: 119127
min/max/avg degree: 2 / 84 / 7.04643
BFS cache capacity: 20
BFSInfo type: 0
Algorithm version: 1
Interval version: 3
Slice version: 2
Threshold: 30
Compute distance matrix... done	[Time: 32027 | 32027]
Build list of active pairs sorted by distances... done	[Time: 28364 | 60392]
Start search... 
new upper bound: 9	[Time: 0 | 60392]	(0, 0, 0)
new lower bound: 6	[Time: 0 | 60392]	(1, 1, 1)
new lower bound: 7	[Time: 0 | 60392]	(10, 10, 37)
new upper bound: 8	[Time: 1 | 60394]	(75, 75, 151)
end of search	[Time: 1403 | 61798]
Considered FAP:	115199
Evaluated Intervals:	107594
Evaluated slices:	107670
Min / Avg / Max size of slices:	2 / 26.4662 / 143
Time for computation of far apart pairs in computeBorassi: NO DATA
Time for computation of hyperbolicity in computeBorassi: NO DATA
Time for computation of far apart pairs in computeBorassiHubLabeling: NO DATA
Time for computation of hyperbolicity in computeBorassiHubLabeling: NO DATA
Initialization of v2 algorithm: NO DATA
HasNext call of v2 loop to get next far pair: NO DATA
Initial part of v2 main loop: NO DATA
Time for acceptable and valuable computation in v2 main loop: NO DATA
Lower bound update of v2 main loop: NO DATA
COMPLETE TIME FOR BORASSI_HUBLAB: : NO DATA
COMPLETE TIME FOR BORASSI: : NO DATA
COMPLETE TIME FOR OUR APPROACH: : NO DATA
Counts BFS calls in compute_v2: 0

The leanness of the graph is 7
	Command being timed: "timeout 1h ./../build/leanness ./../graphs/gnutella31-d.bcc.txt -a 1 -i 3 -s 2"
	User time (seconds): 58.12
	System time (seconds): 3.96
	Percent of CPU this job got: 99%
	Elapsed (wall clock) time (h:mm:ss or m:ss): 1:02.17
	Average shared text size (kbytes): 0
	Average unshared data size (kbytes): 0
	Average stack size (kbytes): 0
	Average total size (kbytes): 0
	Maximum resident set size (kbytes): 14482768
	Average resident set size (kbytes): 0
	Major (requiring I/O) page faults: 0
	Minor (reclaiming a frame) page faults: 4623434
	Voluntary context switches: 3
	Involuntary context switches: 194
	Swaps: 0
	File system inputs: 0
	File system outputs: 16
	Socket messages sent: 0
	Socket messages received: 0
	Signals delivered: 0
	Page size (bytes): 4096
	Exit status: 0
