==========================
Graph: #nodes: 250041, #edges: 449831
min/max/avg degree: 2 / 4 / 3.59806
BFS cache capacity: 20
BFSInfo type: 0
Algorithm version: 1
Interval version: 3
Slice version: 3
Threshold: 30
Compute distance matrix... timeout: the monitored command dumped core
Command terminated by signal 11
	Command being timed: "timeout 1h ./../build/leanness ./../graphs/grid500-10.bcc.txt -a 1 -i 3 -s 3"
	User time (seconds): 33.28
	System time (seconds): 5.44
	Percent of CPU this job got: 87%
	Elapsed (wall clock) time (h:mm:ss or m:ss): 0:44.32
	Average shared text size (kbytes): 0
	Average unshared data size (kbytes): 0
	Average stack size (kbytes): 0
	Average total size (kbytes): 0
	Maximum resident set size (kbytes): 18694844
	Average resident set size (kbytes): 0
	Major (requiring I/O) page faults: 0
	Minor (reclaiming a frame) page faults: 4676607
	Voluntary context switches: 10
	Involuntary context switches: 97
	Swaps: 0
	File system inputs: 0
	File system outputs: 8
	Socket messages sent: 0
	Socket messages received: 0
	Signals delivered: 0
	Page size (bytes): 4096
	Exit status: 0
