==========================
Graph: #nodes: 90211, #edges: 162152
min/max/avg degree: 2 / 4 / 3.59495
BFS cache capacity: 20
BFSInfo type: 0
Algorithm version: 3
Start search... 
new lower bound: 2	[Time: 5 | 5]	(0, 0, 0)
new lower bound: 4	[Time: 4 | 10]	(0, 0, 0)
new lower bound: 6	[Time: 3 | 13]	(0, 0, 0)
new lower bound: 8	[Time: 4 | 17]	(0, 0, 0)
new lower bound: 10	[Time: 4 | 22]	(0, 0, 0)
new lower bound: 12	[Time: 27 | 49]	(0, 0, 0)
new lower bound: 14	[Time: 6 | 56]	(0, 0, 0)
new lower bound: 16	[Time: 9 | 65]	(0, 0, 0)
new lower bound: 18	[Time: 10 | 75]	(0, 0, 0)
new lower bound: 20	[Time: 11 | 86]	(0, 0, 0)
new lower bound: 22	[Time: 12 | 99]	(0, 0, 0)
new lower bound: 24	[Time: 13 | 113]	(0, 0, 0)
new lower bound: 26	[Time: 15 | 129]	(0, 0, 0)
new lower bound: 28	[Time: 30 | 160]	(0, 0, 0)
new lower bound: 30	[Time: 19 | 179]	(0, 0, 0)
new lower bound: 32	[Time: 24 | 204]	(0, 0, 0)
new lower bound: 34	[Time: 12 | 216]	(0, 0, 0)
new lower bound: 36	[Time: 17 | 233]	(0, 0, 0)
new lower bound: 38	[Time: 12 | 246]	(0, 0, 0)
new lower bound: 40	[Time: 29 | 276]	(0, 0, 0)
new lower bound: 42	[Time: 11 | 288]	(0, 0, 0)
new lower bound: 44	[Time: 20 | 308]	(0, 0, 0)
new lower bound: 46	[Time: 42 | 351]	(0, 0, 0)
new lower bound: 48	[Time: 9 | 360]	(0, 0, 0)
new lower bound: 50	[Time: 8 | 369]	(0, 0, 0)
new lower bound: 52	[Time: 39 | 408]	(0, 0, 0)
new lower bound: 54	[Time: 11 | 419]	(0, 0, 0)
new lower bound: 56	[Time: 36 | 456]	(0, 0, 0)
new lower bound: 58	[Time: 46 | 502]	(0, 0, 0)
new lower bound: 60	[Time: 5 | 508]	(0, 0, 0)
new lower bound: 64	[Time: 62 | 570]	(0, 0, 0)
new lower bound: 66	[Time: 6 | 577]	(0, 0, 0)
new lower bound: 68	[Time: 24 | 602]	(0, 0, 0)
new lower bound: 70	[Time: 49 | 652]	(0, 0, 0)
new lower bound: 72	[Time: 5 | 658]	(0, 0, 0)
new lower bound: 74	[Time: 5 | 663]	(0, 0, 0)
new lower bound: 76	[Time: 47 | 711]	(0, 0, 0)
new lower bound: 78	[Time: 0 | 711]	(0, 0, 0)
new lower bound: 80	[Time: 25 | 736]	(0, 0, 0)
new lower bound: 82	[Time: 20 | 757]	(0, 0, 0)
new lower bound: 84	[Time: 18 | 776]	(0, 0, 0)
new lower bound: 86	[Time: 13 | 790]	(0, 0, 0)
new lower bound: 88	[Time: 41 | 831]	(0, 0, 0)
new lower bound: 90	[Time: 17 | 849]	(0, 0, 0)
new lower bound: 92	[Time: 0 | 849]	(0, 0, 0)
new lower bound: 96	[Time: 40 | 889]	(0, 0, 0)
new lower bound: 98	[Time: 4 | 894]	(0, 0, 0)
new lower bound: 100	[Time: 25 | 919]	(0, 0, 0)
new lower bound: 102	[Time: 17 | 937]	(0, 0, 0)
new lower bound: 104	[Time: 17 | 954]	(0, 0, 0)
new lower bound: 106	[Time: 15 | 969]	(0, 0, 0)
new lower bound: 108	[Time: 19 | 989]	(0, 0, 0)
new lower bound: 114	[Time: 71 | 1060]	(0, 0, 0)
new lower bound: 116	[Time: 19 | 1080]	(0, 0, 0)
new lower bound: 118	[Time: 19 | 1100]	(0, 0, 0)
new lower bound: 120	[Time: 9 | 1110]	(0, 0, 0)
new lower bound: 122	[Time: 28 | 1138]	(0, 0, 0)
new lower bound: 124	[Time: 2 | 1141]	(0, 0, 0)
new lower bound: 126	[Time: 50 | 1191]	(0, 0, 0)
new lower bound: 130	[Time: 13 | 1204]	(0, 0, 0)
new lower bound: 132	[Time: 28 | 1233]	(0, 0, 0)
new lower bound: 134	[Time: 7 | 1240]	(0, 0, 0)
new lower bound: 136	[Time: 31 | 1271]	(0, 0, 0)
new lower bound: 138	[Time: 32 | 1304]	(0, 0, 0)
new lower bound: 144	[Time: 31 | 1335]	(0, 0, 0)
new lower bound: 146	[Time: 65 | 1401]	(0, 0, 0)
new lower bound: 148	[Time: 2 | 1404]	(0, 0, 0)
new lower bound: 150	[Time: 14 | 1418]	(0, 0, 0)
new lower bound: 152	[Time: 33 | 1451]	(0, 0, 0)
new lower bound: 154	[Time: 44 | 1496]	(0, 0, 0)
new lower bound: 156	[Time: 33 | 1529]	(0, 0, 0)
new lower bound: 158	[Time: 11 | 1541]	(0, 0, 0)
new lower bound: 160	[Time: 0 | 1541]	(0, 0, 0)
new lower bound: 162	[Time: 0 | 1541]	(0, 0, 0)
new lower bound: 164	[Time: 9 | 1550]	(0, 0, 0)
new lower bound: 166	[Time: 42 | 1593]	(0, 0, 0)
new lower bound: 168	[Time: 2 | 1595]	(0, 0, 0)
new lower bound: 170	[Time: 6 | 1601]	(0, 0, 0)
new lower bound: 172	[Time: 38 | 1639]	(0, 0, 0)
new lower bound: 174	[Time: 0 | 1639]	(0, 0, 0)
new lower bound: 176	[Time: 15 | 1655]	(0, 0, 0)
new lower bound: 178	[Time: 22 | 1677]	(0, 0, 0)
new lower bound: 180	[Time: 11 | 1689]	(0, 0, 0)
new lower bound: 182	[Time: 77 | 1767]	(0, 0, 0)
new lower bound: 188	[Time: 45 | 1812]	(0, 0, 0)
new lower bound: 190	[Time: 57 | 1870]	(0, 0, 0)
new lower bound: 194	[Time: 28 | 1899]	(0, 0, 0)
new lower bound: 198	[Time: 28 | 1927]	(0, 0, 0)
new lower bound: 200	[Time: 30 | 1957]	(0, 0, 0)
new lower bound: 202	[Time: 23 | 1981]	(0, 0, 0)
new lower bound: 208	[Time: 32 | 2013]	(0, 0, 0)
new lower bound: 210	[Time: 80 | 2093]	(0, 0, 0)
new lower bound: 216	[Time: 65 | 2159]	(0, 0, 0)
new lower bound: 220	[Time: 32 | 2192]	(0, 0, 0)
new lower bound: 228	[Time: 116 | 2308]	(0, 0, 0)
new lower bound: 230	[Time: 56 | 2365]	(0, 0, 0)
new lower bound: 234	[Time: 7 | 2372]	(0, 0, 0)
new lower bound: 238	[Time: 0 | 2372]	(0, 0, 0)
new lower bound: 240	[Time: 48 | 2421]	(0, 0, 0)
new lower bound: 242	[Time: 23 | 2444]	(0, 0, 0)
new lower bound: 244	[Time: 0 | 2444]	(0, 0, 0)
new lower bound: 248	[Time: 30 | 2474]	(0, 0, 0)
new lower bound: 250	[Time: 0 | 2474]	(0, 0, 0)
new lower bound: 254	[Time: 78 | 2552]	(0, 0, 0)
new lower bound: 256	[Time: 0 | 2552]	(0, 0, 0)
new lower bound: 260	[Time: 54 | 2607]	(0, 0, 0)
new lower bound: 262	[Time: 0 | 2607]	(0, 0, 0)
new lower bound: 264	[Time: 35 | 2642]	(0, 0, 0)
new lower bound: 266	[Time: 0 | 2642]	(0, 0, 0)
new lower bound: 268	[Time: 40 | 2682]	(0, 0, 0)
new lower bound: 270	[Time: 14 | 2697]	(0, 0, 0)
new lower bound: 272	[Time: 48 | 2746]	(0, 0, 0)
new lower bound: 274	[Time: 3 | 2749]	(0, 0, 0)
new lower bound: 280	[Time: 16 | 2766]	(0, 0, 0)
new lower bound: 282	[Time: 14 | 2781]	(0, 0, 0)
new lower bound: 284	[Time: 23 | 2804]	(0, 0, 0)
new lower bound: 288	[Time: 53 | 2858]	(0, 0, 0)
new lower bound: 290	[Time: 0 | 2858]	(0, 0, 0)
new lower bound: 292	[Time: 20 | 2878]	(0, 0, 0)
new lower bound: 294	[Time: 61 | 2940]	(0, 0, 0)
new lower bound: 296	[Time: 0 | 2940]	(0, 0, 0)
new lower bound: 306	[Time: 129 | 3070]	(0, 0, 0)
new lower bound: 308	[Time: 0 | 3070]	(0, 0, 0)
new lower bound: 310	[Time: 54 | 3125]	(0, 0, 0)
new lower bound: 312	[Time: 7 | 3132]	(0, 0, 0)
new lower bound: 318	[Time: 61 | 3193]	(0, 0, 0)
new lower bound: 320	[Time: 106 | 3299]	(0, 0, 0)
new lower bound: 324	[Time: 0 | 3299]	(0, 0, 0)
new lower bound: 328	[Time: 3 | 3303]	(0, 0, 0)
new lower bound: 330	[Time: 120 | 3424]	(0, 0, 0)
new lower bound: 334	[Time: 0 | 3424]	(0, 0, 0)
new lower bound: 336	[Time: 0 | 3424]	(0, 0, 0)
new lower bound: 340	[Time: 25 | 3449]	(0, 0, 0)
new lower bound: 342	[Time: 58 | 3508]	(0, 0, 0)
new lower bound: 348	[Time: 81 | 3589]	(0, 0, 0)
new lower bound: 350	[Time: 0 | 3589]	(0, 0, 0)
new lower bound: 352	[Time: 0 | 3589]	(0, 0, 0)
new lower bound: 354	[Time: 41 | 3631]	(0, 0, 0)
new lower bound: 356	[Time: 0 | 3631]	(0, 0, 0)
new lower bound: 358	[Time: 39 | 3670]	(0, 0, 0)
new lower bound: 360	[Time: 120 | 3790]	(0, 0, 0)
new lower bound: 364	[Time: 2 | 3793]	(0, 0, 0)
new lower bound: 368	[Time: 0 | 3793]	(0, 0, 0)
new lower bound: 370	[Time: 90 | 3883]	(0, 0, 0)
new lower bound: 372	[Time: 0 | 3883]	(0, 0, 0)
new lower bound: 378	[Time: 15 | 3899]	(0, 0, 0)
new lower bound: 380	[Time: 75 | 3974]	(0, 0, 0)
new lower bound: 384	[Time: 0 | 3974]	(0, 0, 0)
new lower bound: 386	[Time: 89 | 4064]	(0, 0, 0)
new lower bound: 388	[Time: 19 | 4084]	(0, 0, 0)
new lower bound: 390	[Time: 39 | 4123]	(0, 0, 0)
new lower bound: 394	[Time: 43 | 4167]	(0, 0, 0)
new lower bound: 396	[Time: 70 | 4238]	(0, 0, 0)
new lower bound: 398	[Time: 0 | 4238]	(0, 0, 0)
new lower bound: 402	[Time: 53 | 4292]	(0, 0, 0)
new lower bound: 404	[Time: 0 | 4292]	(0, 0, 0)
new lower bound: 406	[Time: 73 | 4365]	(0, 0, 0)
new lower bound: 408	[Time: 11 | 4377]	(0, 0, 0)
new lower bound: 410	[Time: 0 | 4377]	(0, 0, 0)
new lower bound: 412	[Time: 49 | 4426]	(0, 0, 0)
new lower bound: 414	[Time: 77 | 4503]	(0, 0, 0)
new lower bound: 416	[Time: 0 | 4503]	(0, 0, 0)
new lower bound: 418	[Time: 38 | 4541]	(0, 0, 0)
new lower bound: 422	[Time: 0 | 4541]	(0, 0, 0)
new lower bound: 424	[Time: 0 | 4541]	(0, 0, 0)
new lower bound: 428	[Time: 28 | 4570]	(0, 0, 0)
new lower bound: 430	[Time: 20 | 4591]	(0, 0, 0)
new lower bound: 432	[Time: 15 | 4606]	(0, 0, 0)
new lower bound: 448	[Time: 198 | 4805]	(0, 0, 0)
new lower bound: 450	[Time: 15 | 4821]	(0, 0, 0)
new lower bound: 454	[Time: 46 | 4867]	(0, 0, 0)
new lower bound: 456	[Time: 17 | 4885]	(0, 0, 0)
new lower bound: 458	[Time: 37 | 4922]	(0, 0, 0)
new lower bound: 460	[Time: 25 | 4948]	(0, 0, 0)
new lower bound: 462	[Time: 56 | 5005]	(0, 0, 0)
new lower bound: 464	[Time: 32 | 5037]	(0, 0, 0)
new lower bound: 466	[Time: 0 | 5037]	(0, 0, 0)
new lower bound: 470	[Time: 106 | 5144]	(0, 0, 0)
new lower bound: 472	[Time: 6726 | 11871]	(0, 0, 0)
new lower bound: 474	[Time: 5205 | 17076]	(0, 0, 0)
end of search	[Time: 27556 | 44633]
Time for computation of far apart pairs in computeBorassi: NO DATA
Time for computation of hyperbolicity in computeBorassi: NO DATA
Time for computation of far apart pairs in computeBorassiHubLabeling: NO DATA
Time for computation of hyperbolicity in computeBorassiHubLabeling: NO DATA
Initialization of v2 algorithm: NO DATA
HasNext call of v2 loop to get next far pair: NO DATA
Initial part of v2 main loop: NO DATA
Time for acceptable and valuable computation in v2 main loop: NO DATA
Lower bound update of v2 main loop: NO DATA
COMPLETE TIME FOR BORASSI_HUBLAB: : NO DATA
COMPLETE TIME FOR BORASSI: : NO DATA
COMPLETE TIME FOR OUR APPROACH: : NO DATA
Counts BFS calls in compute_v2: 0

The leanness of the graph is 474
	Command being timed: "timeout 1h ./../build/leanness ./../graphs/grid300-10.bcc.txt -a 3 -t 15 -k 15"
	User time (seconds): 44.62
	System time (seconds): 0.00
	Percent of CPU this job got: 99%
	Elapsed (wall clock) time (h:mm:ss or m:ss): 0:44.67
	Average shared text size (kbytes): 0
	Average unshared data size (kbytes): 0
	Average stack size (kbytes): 0
	Average total size (kbytes): 0
	Maximum resident set size (kbytes): 11456
	Average resident set size (kbytes): 0
	Major (requiring I/O) page faults: 0
	Minor (reclaiming a frame) page faults: 3588
	Voluntary context switches: 3
	Involuntary context switches: 108
	Swaps: 0
	File system inputs: 0
	File system outputs: 48
	Socket messages sent: 0
	Socket messages received: 0
	Signals delivered: 0
	Page size (bytes): 4096
	Exit status: 0
