==========================
Graph: #nodes: 137519, #edges: 887929
min/max/avg degree: 2 / 14730 / 12.9135
BFS cache capacity: 20
BFSInfo type: 0
Algorithm version: 1
Interval version: 3
Slice version: 2
Threshold: 30
Compute distance matrix... timeout: the monitored command dumped core
Command terminated by signal 11
	Command being timed: "timeout 1h ./../build/leanness ./../graphs/loc-gowalla_edges.bcc.txt -a 1 -i 3 -s 2"
	User time (seconds): 48.80
	System time (seconds): 4.29
	Percent of CPU this job got: 94%
	Elapsed (wall clock) time (h:mm:ss or m:ss): 0:55.91
	Average shared text size (kbytes): 0
	Average unshared data size (kbytes): 0
	Average stack size (kbytes): 0
	Average total size (kbytes): 0
	Maximum resident set size (kbytes): 13549784
	Average resident set size (kbytes): 0
	Major (requiring I/O) page faults: 0
	Minor (reclaiming a frame) page faults: 3393935
	Voluntary context switches: 13
	Involuntary context switches: 158
	Swaps: 0
	File system inputs: 0
	File system outputs: 8
	Socket messages sent: 0
	Socket messages received: 0
	Signals delivered: 0
	Page size (bytes): 4096
	Exit status: 0
