==========================
Graph: #nodes: 51528, #edges: 473218
min/max/avg degree: 2 / 2376 / 18.3674
BFS cache capacity: 20
BFSInfo type: 0
Algorithm version: 4
Interval version: 3
Slice version: 3
Threshold: 30
Compute distance matrix... done	[Time: 97154 | 97154]
Initialize far apart pairs... done	[Time: 24795 | 121949]
Start search... 
new upper bound: 8	[Time: 0 | 121949]	(0, 0, 0)
new lower bound: 3	[Time: 0 | 121949]	(1, 1, 1)
new lower bound: 4	[Time: 0 | 121949]	(1, 1, 4)
new upper bound: 7	[Time: 332 | 122282]	(215, 209, 649)
new lower bound: 5	[Time: 4871 | 127153]	(4529, 4162, 8264)
new upper bound: 6	[Time: 21682 | 148836]	(32794, 28862, 37266)
end of search	[Time: 320446 | 469282]
Considered FAP:	2123330
Evaluated Intervals:	1557743
Evaluated slices:	1566147
Min / Avg / Max size of slices:	2 / 55.1776 / 1951
Time for computation of far apart pairs in computeBorassi: NO DATA
Time for computation of hyperbolicity in computeBorassi: NO DATA
Time for computation of far apart pairs in computeBorassiHubLabeling: NO DATA
Time for computation of hyperbolicity in computeBorassiHubLabeling: NO DATA
Initialization of v2 algorithm: NO DATA
HasNext call of v2 loop to get next far pair: NO DATA
Initial part of v2 main loop: NO DATA
Time for acceptable and valuable computation in v2 main loop: NO DATA
Lower bound update of v2 main loop: NO DATA
COMPLETE TIME FOR BORASSI_HUBLAB: : NO DATA
COMPLETE TIME FOR BORASSI: : NO DATA
COMPLETE TIME FOR OUR APPROACH: : NO DATA
Counts BFS calls in compute_v2: 0

The leanness of the graph is 5
	Command being timed: "timeout 1h ./../build/leanness ./../graphs/slashdot0902-d.bcc.txt -a 4 -i 3 -s 3"
	User time (seconds): 463.36
	System time (seconds): 6.14
	Percent of CPU this job got: 99%
	Elapsed (wall clock) time (h:mm:ss or m:ss): 7:50.21
	Average shared text size (kbytes): 0
	Average unshared data size (kbytes): 0
	Average stack size (kbytes): 0
	Average total size (kbytes): 0
	Maximum resident set size (kbytes): 27641068
	Average resident set size (kbytes): 0
	Major (requiring I/O) page faults: 0
	Minor (reclaiming a frame) page faults: 6913358
	Voluntary context switches: 3
	Involuntary context switches: 2161
	Swaps: 0
	File system inputs: 0
	File system outputs: 32
	Socket messages sent: 0
	Socket messages received: 0
	Signals delivered: 0
	Page size (bytes): 4096
	Exit status: 0
