==========================
Graph: #nodes: 691175, #edges: 941893
min/max/avg degree: 2 / 8 / 2.72548
BFS cache capacity: 20
BFSInfo type: 0
Algorithm version: 3
Start search... 
new lower bound: 2	[Time: 58 | 58]	(0, 0, 0)
new lower bound: 4	[Time: 49 | 107]	(0, 0, 0)
new lower bound: 5	[Time: 24 | 132]	(0, 0, 0)
new lower bound: 6	[Time: 285 | 417]	(0, 0, 0)
new lower bound: 8	[Time: 25 | 442]	(0, 0, 0)
new lower bound: 10	[Time: 24 | 467]	(0, 0, 0)
new lower bound: 11	[Time: 25 | 492]	(0, 0, 0)
end of search	[Time: 374769 | 375261]
Time for computation of far apart pairs in computeBorassi: NO DATA
Time for computation of hyperbolicity in computeBorassi: NO DATA
Time for computation of far apart pairs in computeBorassiHubLabeling: NO DATA
Time for computation of hyperbolicity in computeBorassiHubLabeling: NO DATA
Initialization of v2 algorithm: NO DATA
HasNext call of v2 loop to get next far pair: NO DATA
Initial part of v2 main loop: NO DATA
Time for acceptable and valuable computation in v2 main loop: NO DATA
Lower bound update of v2 main loop: NO DATA
COMPLETE TIME FOR BORASSI_HUBLAB: : NO DATA
COMPLETE TIME FOR BORASSI: : NO DATA
COMPLETE TIME FOR OUR APPROACH: : NO DATA
Counts BFS calls in compute_v2: 0

The leanness of the graph is 11
	Command being timed: "timeout 1h ./../build/leanness ./../graphs/t.FLA-w.bcc.txt -a 3 -t 15 -k 15"
	User time (seconds): 374.87
	System time (seconds): 0.02
	Percent of CPU this job got: 99%
	Elapsed (wall clock) time (h:mm:ss or m:ss): 6:15.54
	Average shared text size (kbytes): 0
	Average unshared data size (kbytes): 0
	Average stack size (kbytes): 0
	Average total size (kbytes): 0
	Maximum resident set size (kbytes): 53648
	Average resident set size (kbytes): 0
	Major (requiring I/O) page faults: 0
	Minor (reclaiming a frame) page faults: 20282
	Voluntary context switches: 3
	Involuntary context switches: 799
	Swaps: 0
	File system inputs: 0
	File system outputs: 8
	Socket messages sent: 0
	Socket messages received: 0
	Signals delivered: 0
	Page size (bytes): 4096
	Exit status: 0
