==========================
Graph: #nodes: 34040, #edges: 54835
min/max/avg degree: 2 / 4 / 3.2218
BFS cache capacity: 20
BFSInfo type: 0
Algorithm version: 3
Start search... 
new lower bound: 2	[Time: 2 | 2]	(140024913969248, 140024912473192, 2)
new lower bound: 4	[Time: 1 | 3]	(140024913969248, 140024912473192, 2)
new lower bound: 6	[Time: 1 | 5]	(140024913969248, 140024912473192, 2)
new lower bound: 8	[Time: 0 | 6]	(140024913969248, 140024912473192, 2)
new lower bound: 10	[Time: 3 | 10]	(140024913969248, 140024912473192, 2)
new lower bound: 12	[Time: 2 | 12]	(140024913969248, 140024912473192, 2)
new lower bound: 14	[Time: 2 | 15]	(140024913969248, 140024912473192, 2)
new lower bound: 16	[Time: 2 | 18]	(140024913969248, 140024912473192, 2)
new lower bound: 18	[Time: 3 | 21]	(140024913969248, 140024912473192, 2)
new lower bound: 20	[Time: 4 | 26]	(140024913969248, 140024912473192, 2)
new lower bound: 22	[Time: 4 | 30]	(140024913969248, 140024912473192, 2)
new lower bound: 24	[Time: 13 | 44]	(140024913969248, 140024912473192, 2)
new lower bound: 26	[Time: 4 | 49]	(140024913969248, 140024912473192, 2)
new lower bound: 28	[Time: 4 | 54]	(140024913969248, 140024912473192, 2)
new lower bound: 30	[Time: 17 | 71]	(140024913969248, 140024912473192, 2)
new lower bound: 32	[Time: 6 | 77]	(140024913969248, 140024912473192, 2)
new lower bound: 34	[Time: 12 | 89]	(140024913969248, 140024912473192, 2)
new lower bound: 36	[Time: 28 | 118]	(140024913969248, 140024912473192, 2)
new lower bound: 38	[Time: 4 | 123]	(140024913969248, 140024912473192, 2)
new lower bound: 40	[Time: 5 | 128]	(140024913969248, 140024912473192, 2)
new lower bound: 42	[Time: 16 | 145]	(140024913969248, 140024912473192, 2)
new lower bound: 44	[Time: 7 | 152]	(140024913969248, 140024912473192, 2)
new lower bound: 46	[Time: 3 | 156]	(140024913969248, 140024912473192, 2)
new lower bound: 48	[Time: 7 | 163]	(140024913969248, 140024912473192, 2)
new lower bound: 50	[Time: 9 | 172]	(140024913969248, 140024912473192, 2)
new lower bound: 52	[Time: 8 | 181]	(140024913969248, 140024912473192, 2)
new lower bound: 54	[Time: 12 | 194]	(140024913969248, 140024912473192, 2)
new lower bound: 56	[Time: 3 | 197]	(140024913969248, 140024912473192, 2)
new lower bound: 58	[Time: 12 | 210]	(140024913969248, 140024912473192, 2)
new lower bound: 60	[Time: 10 | 220]	(140024913969248, 140024912473192, 2)
new lower bound: 62	[Time: 1 | 222]	(140024913969248, 140024912473192, 2)
new lower bound: 64	[Time: 6 | 228]	(140024913969248, 140024912473192, 2)
new lower bound: 66	[Time: 27 | 256]	(140024913969248, 140024912473192, 2)
new lower bound: 68	[Time: 11 | 268]	(140024913969248, 140024912473192, 2)
new lower bound: 70	[Time: 2 | 270]	(140024913969248, 140024912473192, 2)
new lower bound: 72	[Time: 27 | 298]	(140024913969248, 140024912473192, 2)
new lower bound: 74	[Time: 0 | 298]	(140024913969248, 140024912473192, 2)
new lower bound: 76	[Time: 18 | 316]	(140024913969248, 140024912473192, 2)
new lower bound: 78	[Time: 4 | 320]	(140024913969248, 140024912473192, 2)
new lower bound: 80	[Time: 8 | 328]	(140024913969248, 140024912473192, 2)
new lower bound: 82	[Time: 5 | 334]	(140024913969248, 140024912473192, 2)
new lower bound: 84	[Time: 9 | 343]	(140024913969248, 140024912473192, 2)
new lower bound: 86	[Time: 2 | 345]	(140024913969248, 140024912473192, 2)
new lower bound: 88	[Time: 8 | 354]	(140024913969248, 140024912473192, 2)
new lower bound: 90	[Time: 11 | 366]	(140024913969248, 140024912473192, 2)
new lower bound: 92	[Time: 5 | 371]	(140024913969248, 140024912473192, 2)
new lower bound: 94	[Time: 13 | 385]	(140024913969248, 140024912473192, 2)
new lower bound: 96	[Time: 0 | 385]	(140024913969248, 140024912473192, 2)
new lower bound: 100	[Time: 12 | 398]	(140024913969248, 140024912473192, 2)
new lower bound: 102	[Time: 5 | 404]	(140024913969248, 140024912473192, 2)
new lower bound: 104	[Time: 23 | 428]	(140024913969248, 140024912473192, 2)
new lower bound: 106	[Time: 7 | 435]	(140024913969248, 140024912473192, 2)
new lower bound: 108	[Time: 13 | 449]	(140024913969248, 140024912473192, 2)
new lower bound: 110	[Time: 0 | 449]	(140024913969248, 140024912473192, 2)
new lower bound: 112	[Time: 9 | 458]	(140024913969248, 140024912473192, 2)
new lower bound: 114	[Time: 3 | 462]	(140024913969248, 140024912473192, 2)
new lower bound: 118	[Time: 22 | 485]	(140024913969248, 140024912473192, 2)
new lower bound: 120	[Time: 10 | 495]	(140024913969248, 140024912473192, 2)
new lower bound: 122	[Time: 0 | 496]	(140024913969248, 140024912473192, 2)
new lower bound: 126	[Time: 21 | 518]	(140024913969248, 140024912473192, 2)
new lower bound: 128	[Time: 25 | 543]	(140024913969248, 140024912473192, 2)
new lower bound: 130	[Time: 0 | 543]	(140024913969248, 140024912473192, 2)
new lower bound: 134	[Time: 4 | 548]	(140024913969248, 140024912473192, 2)
new lower bound: 136	[Time: 5 | 554]	(140024913969248, 140024912473192, 2)
new lower bound: 140	[Time: 23 | 577]	(140024913969248, 140024912473192, 2)
new lower bound: 142	[Time: 3 | 581]	(140024913969248, 140024912473192, 2)
new lower bound: 144	[Time: 8 | 589]	(140024913969248, 140024912473192, 2)
new lower bound: 148	[Time: 35 | 624]	(140024913969248, 140024912473192, 2)
new lower bound: 150	[Time: 0 | 625]	(140024913969248, 140024912473192, 2)
new lower bound: 152	[Time: 5 | 631]	(140024913969248, 140024912473192, 2)
new lower bound: 154	[Time: 31 | 662]	(140024913969248, 140024912473192, 2)
new lower bound: 156	[Time: 10 | 672]	(140024913969248, 140024912473192, 2)
new lower bound: 160	[Time: 3 | 676]	(140024913969248, 140024912473192, 2)
new lower bound: 162	[Time: 4 | 681]	(140024913969248, 140024912473192, 2)
new lower bound: 164	[Time: 37 | 718]	(140024913969248, 140024912473192, 2)
new lower bound: 168	[Time: 0 | 719]	(140024913969248, 140024912473192, 2)
new lower bound: 172	[Time: 12 | 732]	(140024913969248, 140024912473192, 2)
new lower bound: 174	[Time: 3 | 736]	(140024913969248, 140024912473192, 2)
new lower bound: 176	[Time: 15 | 751]	(140024913969248, 140024912473192, 2)
new lower bound: 178	[Time: 17 | 769]	(140024913969248, 140024912473192, 2)
new lower bound: 182	[Time: 0 | 769]	(140024913969248, 140024912473192, 2)
new lower bound: 184	[Time: 1 | 771]	(140024913969248, 140024912473192, 2)
new lower bound: 186	[Time: 13 | 784]	(140024913969248, 140024912473192, 2)
new lower bound: 188	[Time: 27 | 811]	(140024913969248, 140024912473192, 2)
new lower bound: 190	[Time: 20 | 832]	(140024913969248, 140024912473192, 2)
new lower bound: 192	[Time: 14 | 847]	(140024913969248, 140024912473192, 2)
new lower bound: 194	[Time: 6 | 854]	(140024913969248, 140024912473192, 2)
new lower bound: 198	[Time: 40 | 895]	(140024913969248, 140024912473192, 2)
new lower bound: 202	[Time: 15 | 910]	(140024913969248, 140024912473192, 2)
new lower bound: 204	[Time: 22 | 933]	(140024913969248, 140024912473192, 2)
new lower bound: 210	[Time: 15 | 948]	(140024913969248, 140024912473192, 2)
new lower bound: 212	[Time: 11 | 960]	(140024913969248, 140024912473192, 2)
new lower bound: 214	[Time: 33 | 994]	(140024913969248, 140024912473192, 2)
new lower bound: 216	[Time: 4 | 999]	(140024913969248, 140024912473192, 2)
new lower bound: 220	[Time: 30 | 1029]	(140024913969248, 140024912473192, 2)
new lower bound: 222	[Time: 10 | 1039]	(140024913969248, 140024912473192, 2)
new lower bound: 224	[Time: 3 | 1043]	(140024913969248, 140024912473192, 2)
new lower bound: 226	[Time: 16 | 1059]	(140024913969248, 140024912473192, 2)
new lower bound: 232	[Time: 34 | 1094]	(140024913969248, 140024912473192, 2)
new lower bound: 234	[Time: 0 | 1094]	(140024913969248, 140024912473192, 2)
new lower bound: 236	[Time: 4 | 1099]	(140024913969248, 140024912473192, 2)
new lower bound: 238	[Time: 15 | 1114]	(140024913969248, 140024912473192, 2)
new lower bound: 240	[Time: 0 | 1114]	(140024913969248, 140024912473192, 2)
new lower bound: 242	[Time: 0 | 1114]	(140024913969248, 140024912473192, 2)
new lower bound: 244	[Time: 12 | 1127]	(140024913969248, 140024912473192, 2)
new lower bound: 246	[Time: 21 | 1149]	(140024913969248, 140024912473192, 2)
new lower bound: 248	[Time: 0 | 1149]	(140024913969248, 140024912473192, 2)
new lower bound: 250	[Time: 14 | 1163]	(140024913969248, 140024912473192, 2)
new lower bound: 252	[Time: 0 | 1163]	(140024913969248, 140024912473192, 2)
new lower bound: 254	[Time: 0 | 1163]	(140024913969248, 140024912473192, 2)
new lower bound: 256	[Time: 15 | 1179]	(140024913969248, 140024912473192, 2)
new lower bound: 258	[Time: 13 | 1193]	(140024913969248, 140024912473192, 2)
new lower bound: 260	[Time: 16 | 1210]	(140024913969248, 140024912473192, 2)
new lower bound: 262	[Time: 12 | 1222]	(140024913969248, 140024912473192, 2)
new lower bound: 264	[Time: 2 | 1225]	(140024913969248, 140024912473192, 2)
new lower bound: 272	[Time: 15 | 1241]	(140024913969248, 140024912473192, 2)
new lower bound: 276	[Time: 16 | 1257]	(140024913969248, 140024912473192, 2)
end of search	[Time: 18063 | 19320]
Time for computation of far apart pairs in computeBorassi: NO DATA
Time for computation of hyperbolicity in computeBorassi: NO DATA
Time for computation of far apart pairs in computeBorassiHubLabeling: NO DATA
Time for computation of hyperbolicity in computeBorassiHubLabeling: NO DATA
Initialization of v2 algorithm: NO DATA
HasNext call of v2 loop to get next far pair: NO DATA
Initial part of v2 main loop: NO DATA
Time for acceptable and valuable computation in v2 main loop: NO DATA
Lower bound update of v2 main loop: NO DATA
COMPLETE TIME FOR BORASSI_HUBLAB: : NO DATA
COMPLETE TIME FOR BORASSI: : NO DATA
COMPLETE TIME FOR OUR APPROACH: : NO DATA
Counts BFS calls in compute_v2: 0

The leanness of the graph is 276
	Command being timed: "timeout 1h ./../build/leanness ./../graphs/z-alue7065.bcc.txt -a 3 -t 15 -k 15"
	User time (seconds): 19.31
	System time (seconds): 0.00
	Percent of CPU this job got: 99%
	Elapsed (wall clock) time (h:mm:ss or m:ss): 0:19.33
	Average shared text size (kbytes): 0
	Average unshared data size (kbytes): 0
	Average stack size (kbytes): 0
	Average total size (kbytes): 0
	Maximum resident set size (kbytes): 6736
	Average resident set size (kbytes): 0
	Major (requiring I/O) page faults: 0
	Minor (reclaiming a frame) page faults: 1380
	Voluntary context switches: 3
	Involuntary context switches: 69
	Swaps: 0
	File system inputs: 0
	File system outputs: 24
	Socket messages sent: 0
	Socket messages received: 0
	Signals delivered: 0
	Page size (bytes): 4096
	Exit status: 0
