Architecture:                    x86_64
CPU op-mode(s):                  32-bit, 64-bit
Byte Order:                      Little Endian
Address sizes:                   46 bits physical, 48 bits virtual
CPU(s):                          72
On-line CPU(s) list:             0-71
Thread(s) per core:              2
Core(s) per socket:              18
Socket(s):                       2
NUMA node(s):                    2
Vendor ID:                       GenuineIntel
CPU family:                      6
Model:                           85
Model name:                      Intel(R) Xeon(R) Gold 6240 CPU @ 2.60GHz
Stepping:                        7
CPU MHz:                         999.968
CPU max MHz:                     3900.0000
CPU min MHz:                     1000.0000
BogoMIPS:                        5200.00
Virtualization:                  VT-x
L1d cache:                       1.1 MiB
L1i cache:                       1.1 MiB
L2 cache:                        36 MiB
L3 cache:                        49.5 MiB
NUMA node0 CPU(s):               0-17,36-53
NUMA node1 CPU(s):               18-35,54-71
Vulnerability Itlb multihit:     KVM: Mitigation: VMX disabled
Vulnerability L1tf:              Not affected
Vulnerability Mds:               Not affected
Vulnerability Meltdown:          Not affected
Vulnerability Spec store bypass: Mitigation; Speculative Store Bypass disabled via prctl and seccomp
Vulnerability Spectre v1:        Mitigation; usercopy/swapgs barriers and __user pointer sanitization
Vulnerability Spectre v2:        Mitigation; Enhanced IBRS, IBPB conditional, RSB filling
Vulnerability Srbds:             Not affected
Vulnerability Tsx async abort:   Mitigation; TSX disabled
Flags:                           fpu vme de pse tsc msr pae mce cx8 apic sep mtrr pge mca cmov pat pse36 clflush dts acpi mmx fxsr sse sse2 ss ht tm pbe syscall nx pdpe1gb rdtscp lm constant_tsc art arch_perfmon pebs bts rep_good nopl xtopology nonstop_tsc cpuid aperfmperf pni pclmulqdq dtes64 monitor ds_cpl vmx smx est tm2 ssse3 sdbg fma cx16 xtpr pdcm pcid dca sse4_1 sse4_2 x2apic movbe popcnt tsc_deadline_timer aes xsave avx f16c rdrand lahf_lm abm 3dnowprefetch cpuid_fault epb cat_l3 cdp_l3 invpcid_single intel_ppin ssbd mba ibrs ibpb stibp ibrs_enhanced tpr_shadow vnmi flexpriority ept vpid ept_ad fsgsbase tsc_adjust bmi1 avx2 smep bmi2 erms invpcid cqm mpx rdt_a avx512f avx512dq rdseed adx smap clflushopt clwb intel_pt avx512cd avx512bw avx512vl xsaveopt xsavec xgetbv1 xsaves cqm_llc cqm_occup_llc cqm_mbm_total cqm_mbm_local dtherm ida arat pln pts hwp hwp_act_window hwp_epp hwp_pkg_req pku ospke avx512_vnni md_clear flush_l1d arch_capabilities
==========================
RANGE                                  SIZE  STATE REMOVABLE BLOCK
0x0000000000000000-0x000000007fffffff    2G online       yes     0
0x0000000100000000-0x000000307fffffff  190G online       yes  2-96

Memory block size:         2G
Total online memory:     192G
Total offline memory:      0B
==========================
Graph: #nodes: 140610, #edges: 572873
min/max/avg degree: 2 / 237 / 8.1484
BFS cache capacity: 5000
BFSInfo type: 0
Algorithm version: 3
radius = 10
mean eccentricity = 11.9914
diameter = 17
h_lb = 1 (75362, 118667, 0, 9)
h_lb = 2 (75362, 118667, 0, 264)
h_lb = 3 (75362, 118667, 0, 17522)
h_lb = 4 (75362, 118667, 89, 67408)
h_lb = 5 (75362, 118667, 1008, 8877)
h_lb = 5	h_ub = 17
best_h_lb_found = 2 h_lb = 5	h_ub = 17 for 75346 118666 135777 127185
h_lb = 5	h_ub = 16
best_h_lb_found = 3 h_lb = 5	h_ub = 16 for 75351 132017 135777 127185
best_h_lb_found = 4 h_lb = 5	h_ub = 16 for 118666 127523 127185 135775
h_lb = 5	h_ub = 15
best_h_lb_found = 5 h_lb = 5	h_ub = 15 for 75351 95577 137397 138976
best_h_lb_found = 6 h_lb = 6	h_ub = 15 for 75351 136993 134383 117350
best_h_lb_found = 7 h_lb = 7	h_ub = 15 for 118666 135775 132455 137393
h_lb = 7	h_ub = 14
best_h_lb_found = 8 h_lb = 8	h_ub = 14 for 75520 124942 75410 128913
best_h_lb_found = 9 h_lb = 9	h_ub = 14 for 57916 132463 118655 87947
best_h_lb_found = 10 h_lb = 10	h_ub = 14 for 49144 118666 57916 132463
h_lb = 10	h_ub = 13
h_lb = 10	h_ub = 12
best_h_lb_found = 11 h_lb = 11	h_ub = 12 for 106743 130789 118662 40115
FarApartIterator (algo = DHV): #BFS initial = 15290	final = 111602

Time for computation of far apart pairs in computeBorassi: NO DATA
Time for computation of hyperbolicity in computeBorassi: NO DATA
Time for computation of far apart pairs in computeBorassiHubLabeling: NO DATA
Time for computation of hyperbolicity in computeBorassiHubLabeling: NO DATA
Initialization of v2 algorithm: sum = 3.3067e+05 ms, mean = 3.3067e+05 ms
HasNext call of v2 loop to get next far pair: sum = 9.8635e+05 ms, mean = 0.18203 ms
Initial part of v2 main loop: sum = 3.0329e+06 ms, mean = 0.55972 ms
Time for acceptable and valuable computation in v2 main loop: sum = 1.2919e+06 ms, mean = 0.23842 ms
Lower bound update of v2 main loop: sum = 4.7506e+05 ms, mean = 0.087672 ms
COMPLETE TIME FOR BORASSI_HUBLAB: : NO DATA
COMPLETE TIME FOR BORASSI: : NO DATA
COMPLETE TIME FOR OUR APPROACH: : sum = 6.122e+06 ms, mean = 6.122e+06 ms
Counts BFS calls in compute_v2: 964568

The hyperbolicity of the graph is 5.5
	Command being timed: "timeout 6h .//../build/main .//../graphs/more/massive/dblp-2010.bcc.txt -a 3 -prune -c 5000"
	User time (seconds): 6078.51
	System time (seconds): 26.99
	Percent of CPU this job got: 99%
	Elapsed (wall clock) time (h:mm:ss or m:ss): 1:42:02
	Average shared text size (kbytes): 0
	Average unshared data size (kbytes): 0
	Average stack size (kbytes): 0
	Average total size (kbytes): 0
	Maximum resident set size (kbytes): 14099696
	Average resident set size (kbytes): 0
	Major (requiring I/O) page faults: 0
	Minor (reclaiming a frame) page faults: 3533001
	Voluntary context switches: 3
	Involuntary context switches: 12135
	Swaps: 0
	File system inputs: 0
	File system outputs: 64
	Socket messages sent: 0
	Socket messages received: 0
	Signals delivered: 0
	Page size (bytes): 4096
	Exit status: 0
