Architecture:                    x86_64
CPU op-mode(s):                  32-bit, 64-bit
Byte Order:                      Little Endian
Address sizes:                   46 bits physical, 48 bits virtual
CPU(s):                          72
On-line CPU(s) list:             0-71
Thread(s) per core:              2
Core(s) per socket:              18
Socket(s):                       2
NUMA node(s):                    2
Vendor ID:                       GenuineIntel
CPU family:                      6
Model:                           85
Model name:                      Intel(R) Xeon(R) Gold 6240 CPU @ 2.60GHz
Stepping:                        7
CPU MHz:                         1000.285
CPU max MHz:                     3900.0000
CPU min MHz:                     1000.0000
BogoMIPS:                        5200.00
Virtualization:                  VT-x
L1d cache:                       1.1 MiB
L1i cache:                       1.1 MiB
L2 cache:                        36 MiB
L3 cache:                        49.5 MiB
NUMA node0 CPU(s):               0-17,36-53
NUMA node1 CPU(s):               18-35,54-71
Vulnerability Itlb multihit:     KVM: Mitigation: VMX disabled
Vulnerability L1tf:              Not affected
Vulnerability Mds:               Not affected
Vulnerability Meltdown:          Not affected
Vulnerability Spec store bypass: Mitigation; Speculative Store Bypass disabled via prctl and seccomp
Vulnerability Spectre v1:        Mitigation; usercopy/swapgs barriers and __user pointer sanitization
Vulnerability Spectre v2:        Mitigation; Enhanced IBRS, IBPB conditional, RSB filling
Vulnerability Srbds:             Not affected
Vulnerability Tsx async abort:   Mitigation; TSX disabled
Flags:                           fpu vme de pse tsc msr pae mce cx8 apic sep mtrr pge mca cmov pat pse36 clflush dts acpi mmx fxsr sse sse2 ss ht tm pbe syscall nx pdpe1gb rdtscp lm constant_tsc art arch_perfmon pebs bts rep_good nopl xtopology nonstop_tsc cpuid aperfmperf pni pclmulqdq dtes64 monitor ds_cpl vmx smx est tm2 ssse3 sdbg fma cx16 xtpr pdcm pcid dca sse4_1 sse4_2 x2apic movbe popcnt tsc_deadline_timer aes xsave avx f16c rdrand lahf_lm abm 3dnowprefetch cpuid_fault epb cat_l3 cdp_l3 invpcid_single intel_ppin ssbd mba ibrs ibpb stibp ibrs_enhanced tpr_shadow vnmi flexpriority ept vpid ept_ad fsgsbase tsc_adjust bmi1 avx2 smep bmi2 erms invpcid cqm mpx rdt_a avx512f avx512dq rdseed adx smap clflushopt clwb intel_pt avx512cd avx512bw avx512vl xsaveopt xsavec xgetbv1 xsaves cqm_llc cqm_occup_llc cqm_mbm_total cqm_mbm_local dtherm ida arat pln pts hwp hwp_act_window hwp_epp hwp_pkg_req pku ospke avx512_vnni md_clear flush_l1d arch_capabilities
==========================
RANGE                                  SIZE  STATE REMOVABLE BLOCK
0x0000000000000000-0x000000007fffffff    2G online       yes     0
0x0000000100000000-0x000000307fffffff  190G online       yes  2-96

Memory block size:         2G
Total online memory:     192G
Total offline memory:      0B
==========================
Graph: #nodes: 134958, #edges: 833732
min/max/avg degree: 2 / 10721 / 12.3554
BFS cache capacity: 5000
BFSInfo type: 0
Algorithm version: 3
radius = 18
mean eccentricity = 20.9894
diameter = 36
h_lb = 1 (134901, 134935, 0, 7658)
h_lb = 2 (134901, 134935, 0, 8086)
h_lb = 3 (134901, 134935, 3, 117537)
h_lb = 3	h_ub = 36
h_lb = 3	h_ub = 27
h_lb = 3	h_ub = 26
h_lb = 3	h_ub = 25
best_h_lb_found = 1 h_lb = 3	h_ub = 25 for 117539 134935 131728 134901
h_lb = 3	h_ub = 24
best_h_lb_found = 2 h_lb = 3	h_ub = 24 for 116388 134901 130372 134935
h_lb = 3	h_ub = 23
best_h_lb_found = 3 h_lb = 3	h_ub = 23 for 134883 134913 92908 134935
h_lb = 3	h_ub = 22
h_lb = 3	h_ub = 21
h_lb = 3	h_ub = 20
h_lb = 3	h_ub = 19
h_lb = 3	h_ub = 18
h_lb = 3	h_ub = 17
h_lb = 3	h_ub = 16
best_h_lb_found = 8 h_lb = 8	h_ub = 16 for 125622 134931 134913 134880
best_h_lb_found = 10 h_lb = 10	h_ub = 16 for 125622 134931 134901 134935
best_h_lb_found = 12 h_lb = 12	h_ub = 16 for 131920 134939 134919 89316
best_h_lb_found = 14 h_lb = 14	h_ub = 16 for 131920 134939 134913 134880
best_h_lb_found = 16 h_lb = 16	h_ub = 16 for 131920 134939 134901 134935
FarApartIterator (algo = DHV): #BFS initial = 7487	final = 134958

Time for computation of far apart pairs in computeBorassi: NO DATA
Time for computation of hyperbolicity in computeBorassi: NO DATA
Time for computation of far apart pairs in computeBorassiHubLabeling: NO DATA
Time for computation of hyperbolicity in computeBorassiHubLabeling: NO DATA
Initialization of v2 algorithm: sum = 1.1834e+05 ms, mean = 1.1834e+05 ms
HasNext call of v2 loop to get next far pair: sum = 1.4756e+06 ms, mean = 7.3376 ms
Initial part of v2 main loop: sum = 4.8389e+05 ms, mean = 2.4062 ms
Time for acceptable and valuable computation in v2 main loop: sum = 1.4673e+05 ms, mean = 0.72963 ms
Lower bound update of v2 main loop: sum = 2.7263e+06 ms, mean = 13.557 ms
COMPLETE TIME FOR BORASSI_HUBLAB: : NO DATA
COMPLETE TIME FOR BORASSI: : NO DATA
COMPLETE TIME FOR OUR APPROACH: : sum = 4.9515e+06 ms, mean = 4.9515e+06 ms
Counts BFS calls in compute_v2: 101335

The hyperbolicity of the graph is 8
	Command being timed: "timeout 6h .//../build/main .//../graphs/more/massive/notreDame-d.bcc.txt -a 3 -prune -c 5000"
	User time (seconds): 4871.81
	System time (seconds): 68.01
	Percent of CPU this job got: 99%
	Elapsed (wall clock) time (h:mm:ss or m:ss): 1:22:33
	Average shared text size (kbytes): 0
	Average unshared data size (kbytes): 0
	Average stack size (kbytes): 0
	Average total size (kbytes): 0
	Maximum resident set size (kbytes): 59350728
	Average resident set size (kbytes): 0
	Major (requiring I/O) page faults: 0
	Minor (reclaiming a frame) page faults: 16979787
	Voluntary context switches: 3
	Involuntary context switches: 7140
	Swaps: 0
	File system inputs: 0
	File system outputs: 96
	Socket messages sent: 0
	Socket messages received: 0
	Signals delivered: 0
	Page size (bytes): 4096
	Exit status: 0
