==========================
Graph: #nodes: 17793, #edges: 174210
min/max/avg degree: 2 / 1885 / 19.5819
BFS cache capacity: 20
BFSInfo type: 0
Algorithm version: 1
Compute distance matrix... done	[Time: 14748 | 14748]
Build list of active pairs sorted by distances... done	[Time: 11628 | 26377]
Start search... 
new lower bound: 1	[Time: 0 | 26377]
new lower bound: 3	[Time: 0 | 26377]
new lower bound: 4	[Time: 0 | 26377]
new lower bound: 5	[Time: 5114 | 31491]
new lower bound: 6	[Time: 123582 | 155074]
end of search	[Time: 196783 | 351858]
Final time	[Time: 0 | 351858]
Considered FAP:	7675209
Evaluated Intervals:	7675209
Evaluated slices:	9316685
Average size of slices:	8.80632
Time for computation of far apart pairs in computeBorassi: NO DATA
Time for computation of hyperbolicity in computeBorassi: NO DATA
Time for computation of far apart pairs in computeBorassiHubLabeling: NO DATA
Time for computation of hyperbolicity in computeBorassiHubLabeling: NO DATA
Initialization of v2 algorithm: NO DATA
HasNext call of v2 loop to get next far pair: NO DATA
Initial part of v2 main loop: NO DATA
Time for acceptable and valuable computation in v2 main loop: NO DATA
Lower bound update of v2 main loop: NO DATA
COMPLETE TIME FOR BORASSI_HUBLAB: : NO DATA
COMPLETE TIME FOR BORASSI: : NO DATA
COMPLETE TIME FOR OUR APPROACH: : NO DATA
Counts BFS calls in compute_v2: 0

The leanness of the graph is 6
	Command being timed: "timeout 60h ./../build/leanness ./../graphs/BIOGRID-SYSTEM-Affinity_Capture-MS-3.4.145.bcc.edgelist -a 1 -i 1 -s 2"
	User time (seconds): 348.16
	System time (seconds): 3.12
	Percent of CPU this job got: 99%
	Elapsed (wall clock) time (h:mm:ss or m:ss): 5:52.12
	Average shared text size (kbytes): 0
	Average unshared data size (kbytes): 0
	Average stack size (kbytes): 0
	Average total size (kbytes): 0
	Maximum resident set size (kbytes): 4078436
	Average resident set size (kbytes): 0
	Major (requiring I/O) page faults: 0
	Minor (reclaiming a frame) page faults: 1425340
	Voluntary context switches: 3
	Involuntary context switches: 827
	Swaps: 0
	File system inputs: 0
	File system outputs: 32
	Socket messages sent: 0
	Socket messages received: 0
	Signals delivered: 0
	Page size (bytes): 4096
	Exit status: 0
