==========================
Graph: #nodes: 29432, #edges: 143000
min/max/avg degree: 2 / 3615 / 9.71731
BFS cache capacity: 20
BFSInfo type: 0
Algorithm version: 2
Compute hub labeling... load time: 0.005867 seconds
indexing time: 0.261177 seconds
bit-parallel label size: 50
average normal label size: 1.98967
done	[Time: 284 | 284]
Initialize far apart pairs... done	[Time: 2516 | 2801]
Start search... 
new lower bound: 3	[Time: 0 | 2801]
new lower bound: 4	[Time: 22 | 2824]
new lower bound: 5	[Time: 3258 | 6082]
end of search	[Time: 228925 | 235008]
Final time	[Time: 0 | 235008]
Considered FAP:	1234351
Evaluated Intervals:	815215
Evaluated slices:	817818
Average size of slices:	22.3245
Time for computation of far apart pairs in computeBorassi: NO DATA
Time for computation of hyperbolicity in computeBorassi: NO DATA
Time for computation of far apart pairs in computeBorassiHubLabeling: NO DATA
Time for computation of hyperbolicity in computeBorassiHubLabeling: NO DATA
Initialization of v2 algorithm: NO DATA
HasNext call of v2 loop to get next far pair: NO DATA
Initial part of v2 main loop: NO DATA
Time for acceptable and valuable computation in v2 main loop: NO DATA
Lower bound update of v2 main loop: NO DATA
COMPLETE TIME FOR BORASSI_HUBLAB: : NO DATA
COMPLETE TIME FOR BORASSI: : NO DATA
COMPLETE TIME FOR OUR APPROACH: : NO DATA
Counts BFS calls in compute_v2: 0

The leanness of the graph is 5
	Command being timed: "timeout 60h ./../build/leanness ./../graphs/CAIDA_as_20131101.bcc.edgelist -a 2 -i 2 -s 2"
	User time (seconds): 231.63
	System time (seconds): 2.83
	Percent of CPU this job got: 99%
	Elapsed (wall clock) time (h:mm:ss or m:ss): 3:55.23
	Average shared text size (kbytes): 0
	Average unshared data size (kbytes): 0
	Average stack size (kbytes): 0
	Average total size (kbytes): 0
	Maximum resident set size (kbytes): 2880164
	Average resident set size (kbytes): 0
	Major (requiring I/O) page faults: 0
	Minor (reclaiming a frame) page faults: 722288
	Voluntary context switches: 3
	Involuntary context switches: 909
	Swaps: 0
	File system inputs: 0
	File system outputs: 16
	Socket messages sent: 0
	Socket messages received: 0
	Signals delivered: 0
	Page size (bytes): 4096
	Exit status: 0
