==========================
Graph: #nodes: 90211, #edges: 162152
min/max/avg degree: 2 / 4 / 3.59495
BFS cache capacity: 20
BFSInfo type: 0
Algorithm version: 1
Compute distance matrix... timeout: the monitored command dumped core
Command terminated by signal 11
	Command being timed: "timeout 60h ./../build/leanness ./../graphs/grid300-10.bcc.txt -a 1 -i 2 -s 2"
	User time (seconds): 79.04
	System time (seconds): 15.48
	Percent of CPU this job got: 92%
	Elapsed (wall clock) time (h:mm:ss or m:ss): 1:42.29
	Average shared text size (kbytes): 0
	Average unshared data size (kbytes): 0
	Average stack size (kbytes): 0
	Average total size (kbytes): 0
	Maximum resident set size (kbytes): 30032672
	Average resident set size (kbytes): 0
	Major (requiring I/O) page faults: 0
	Minor (reclaiming a frame) page faults: 7510898
	Voluntary context switches: 12
	Involuntary context switches: 235
	Swaps: 0
	File system inputs: 0
	File system outputs: 8
	Socket messages sent: 0
	Socket messages received: 0
	Signals delivered: 0
	Page size (bytes): 4096
	Exit status: 0
