==========================
Graph: #nodes: 33187, #edges: 188577
min/max/avg degree: 2 / 1073 / 11.3645
BFS cache capacity: 20
BFSInfo type: 0
Algorithm version: 2
Compute hub labeling... load time: 0.00912499 seconds
indexing time: 0.635404 seconds
bit-parallel label size: 50
average normal label size: 15.6959
done	[Time: 667 | 667]
Initialize far apart pairs... done	[Time: 8279 | 8947]
Start search... 
new lower bound: 1	[Time: 2 | 8950]
new lower bound: 2	[Time: 0 | 8950]
new lower bound: 4	[Time: 6 | 8956]
new lower bound: 5	[Time: 9 | 8966]
new lower bound: 6	[Time: 1579 | 10545]
end of search	[Time: 251303 | 261849]
Final time	[Time: 0 | 261849]
Considered FAP:	3412960
Evaluated Intervals:	1918216
Evaluated slices:	1932216
Average size of slices:	13.5754
Time for computation of far apart pairs in computeBorassi: NO DATA
Time for computation of hyperbolicity in computeBorassi: NO DATA
Time for computation of far apart pairs in computeBorassiHubLabeling: NO DATA
Time for computation of hyperbolicity in computeBorassiHubLabeling: NO DATA
Initialization of v2 algorithm: NO DATA
HasNext call of v2 loop to get next far pair: NO DATA
Initial part of v2 main loop: NO DATA
Time for acceptable and valuable computation in v2 main loop: NO DATA
Lower bound update of v2 main loop: NO DATA
COMPLETE TIME FOR BORASSI_HUBLAB: : NO DATA
COMPLETE TIME FOR BORASSI: : NO DATA
COMPLETE TIME FOR OUR APPROACH: : NO DATA
Counts BFS calls in compute_v2: 0

The leanness of the graph is 6
	Command being timed: "timeout 60h ./../build/leanness ./../graphs/loc-brightkite.bcc.edgelist -a 2 -i 2 -s 2"
	User time (seconds): 259.54
	System time (seconds): 1.62
	Percent of CPU this job got: 99%
	Elapsed (wall clock) time (h:mm:ss or m:ss): 4:22.08
	Average shared text size (kbytes): 0
	Average unshared data size (kbytes): 0
	Average stack size (kbytes): 0
	Average total size (kbytes): 0
	Maximum resident set size (kbytes): 2641820
	Average resident set size (kbytes): 0
	Major (requiring I/O) page faults: 0
	Minor (reclaiming a frame) page faults: 663610
	Voluntary context switches: 3
	Involuntary context switches: 865
	Swaps: 0
	File system inputs: 0
	File system outputs: 16
	Socket messages sent: 0
	Socket messages received: 0
	Signals delivered: 0
	Page size (bytes): 4096
	Exit status: 0
