==========================
Graph: #nodes: 7602, #edges: 27870
min/max/avg degree: 2 / 1957 / 7.33228
BFS cache capacity: 20
BFSInfo type: 0
Algorithm version: 1
Compute distance matrix... done	[Time: 1413 | 1413]
Build list of active pairs sorted by distances... done	[Time: 1781 | 3194]
Start search... 
new lower bound: 2	[Time: 0 | 3194]
new lower bound: 3	[Time: 0 | 3194]
new lower bound: 4	[Time: 0 | 3194]
end of search	[Time: 28836 | 32031]
Final time	[Time: 0 | 32031]
Considered FAP:	1671361
Evaluated Intervals:	1671361
Evaluated slices:	90741
Average size of slices:	13.2296
Time for computation of far apart pairs in computeBorassi: NO DATA
Time for computation of hyperbolicity in computeBorassi: NO DATA
Time for computation of far apart pairs in computeBorassiHubLabeling: NO DATA
Time for computation of hyperbolicity in computeBorassiHubLabeling: NO DATA
Initialization of v2 algorithm: NO DATA
HasNext call of v2 loop to get next far pair: NO DATA
Initial part of v2 main loop: NO DATA
Time for acceptable and valuable computation in v2 main loop: NO DATA
Lower bound update of v2 main loop: NO DATA
COMPLETE TIME FOR BORASSI_HUBLAB: : NO DATA
COMPLETE TIME FOR BORASSI: : NO DATA
COMPLETE TIME FOR OUR APPROACH: : NO DATA
Counts BFS calls in compute_v2: 0

The leanness of the graph is 4
	Command being timed: "timeout 60h ./../build/leanness ./../graphs/oregon2_010331.bcc.txt -a 1 -i 1 -s 1"
	User time (seconds): 31.33
	System time (seconds): 0.65
	Percent of CPU this job got: 99%
	Elapsed (wall clock) time (h:mm:ss or m:ss): 0:32.10
	Average shared text size (kbytes): 0
	Average unshared data size (kbytes): 0
	Average stack size (kbytes): 0
	Average total size (kbytes): 0
	Maximum resident set size (kbytes): 793764
	Average resident set size (kbytes): 0
	Major (requiring I/O) page faults: 0
	Minor (reclaiming a frame) page faults: 260854
	Voluntary context switches: 4
	Involuntary context switches: 75
	Swaps: 0
	File system inputs: 472
	File system outputs: 16
	Socket messages sent: 0
	Socket messages received: 0
	Signals delivered: 0
	Page size (bytes): 4096
	Exit status: 0
