==========================
Graph: #nodes: 51528, #edges: 473218
min/max/avg degree: 2 / 2376 / 18.3674
BFS cache capacity: 20
BFSInfo type: 0
Algorithm version: 1
Compute distance matrix... done	[Time: 128565 | 128565]
Build list of active pairs sorted by distances... done	[Time: 123073 | 251639]
Start search... 
new lower bound: 2	[Time: 0 | 251639]
new lower bound: 4	[Time: 0 | 251639]
new lower bound: 5	[Time: 453 | 252092]
end of search	[Time: 292750 | 544842]
Final time	[Time: 0 | 544842]
Considered FAP:	2124249
Evaluated Intervals:	2124249
Evaluated slices:	2157262
Average size of slices:	48.3089
Time for computation of far apart pairs in computeBorassi: NO DATA
Time for computation of hyperbolicity in computeBorassi: NO DATA
Time for computation of far apart pairs in computeBorassiHubLabeling: NO DATA
Time for computation of hyperbolicity in computeBorassiHubLabeling: NO DATA
Initialization of v2 algorithm: NO DATA
HasNext call of v2 loop to get next far pair: NO DATA
Initial part of v2 main loop: NO DATA
Time for acceptable and valuable computation in v2 main loop: NO DATA
Lower bound update of v2 main loop: NO DATA
COMPLETE TIME FOR BORASSI_HUBLAB: : NO DATA
COMPLETE TIME FOR BORASSI: : NO DATA
COMPLETE TIME FOR OUR APPROACH: : NO DATA
Counts BFS calls in compute_v2: 0

The leanness of the graph is 5
	Command being timed: "timeout 60h ./../build/leanness ./../graphs/slashdot0902-d.bcc.txt -a 1 -i 1 -s 1"
	User time (seconds): 517.61
	System time (seconds): 26.77
	Percent of CPU this job got: 99%
	Elapsed (wall clock) time (h:mm:ss or m:ss): 9:06.50
	Average shared text size (kbytes): 0
	Average unshared data size (kbytes): 0
	Average stack size (kbytes): 0
	Average total size (kbytes): 0
	Maximum resident set size (kbytes): 37015008
	Average resident set size (kbytes): 0
	Major (requiring I/O) page faults: 0
	Minor (reclaiming a frame) page faults: 13014559
	Voluntary context switches: 4
	Involuntary context switches: 1506
	Swaps: 0
	File system inputs: 9720
	File system outputs: 32
	Socket messages sent: 0
	Socket messages received: 0
	Signals delivered: 0
	Page size (bytes): 4096
	Exit status: 0
