==========================
Graph: #nodes: 489296, #edges: 5939242
min/max/avg degree: 2 / 80733 / 24.2767
BFS cache capacity: 20
BFSInfo type: 0
Algorithm version: 2
Compute hub labeling... load time: 0.315433 seconds
indexing time: 15.5903 seconds
bit-parallel label size: 50
average normal label size: 19.1713
done	[Time: 16394 | 16394]
Initialize far apart pairs... done	[Time: 14595 | 30990]
Start search... 
new lower bound: 2	[Time: 21 | 31012]
new lower bound: 46	[Time: 0 | 31012]
USAGE: leanness <graph_filename> [-a <algorithm_version>] [-i <interval_version>] [-s <slice_version>] [-th <threshold>] [-hub <hub_labeling_version>] [-c <cache_size>] [-t <number_of_trials>] [-k <considered_vertices>]

The <algorithm_version> should be the number:
1) exact algorithm using distance matrix
2) exact algorithm proposed based on the enumeration of far-apart pairs and the use of hub labeling to store distances (default)
3) heuristic algorithm using distance matrix

Parameters for exact algorithms 1 and 2:
   -i <interval_version>: specify the method to explore an interval.
              1: consider all slices of the interval expect those at distance less than lb/2 from ends
              2: use dichotomy to prune ranges of slices (default)
              Used only wen algorithm is 1.
   -s <slice_version>: specify the algorithm to find the largest distance in a slice.
              1: consider all pairs
              2: use iFUB to find the diameter
              3: use DHV to find the diameter
              0: auto (default), use 1 if the slice has size less than threshold, and 2 otherwise
   -th <threshold>: specify the threshold used when parameter -s is 0 (default: 10)

Extra parameters for exact algorithm 2:
   -c <cache_size>: allow to specify the size of the cache of BFSs (at least 2).
              Used only when algorithm is 2.
   -hub <hub_labeling_version>: specify the hub labeling implementation
              1: .... (default)
              2: .... 

Parameters for heuristic algorithm 3:
   -t <number_of_trials>: number of trials for the heuristic
   -k <considered_vertices>: number of considered vertices per trial of the heuristic

   -h: print this help

Error: std::bad_alloc
Command exited with non-zero status 1
	Command being timed: "timeout 60h ./../build/leanness ./../graphs/y-BerkStan-d.bcc.txt -a 2 -i 2 -s 2"
	User time (seconds): 7214.90
	System time (seconds): 124.80
	Percent of CPU this job got: 99%
	Elapsed (wall clock) time (h:mm:ss or m:ss): 2:02:47
	Average shared text size (kbytes): 0
	Average unshared data size (kbytes): 0
	Average stack size (kbytes): 0
	Average total size (kbytes): 0
	Maximum resident set size (kbytes): 170297816
	Average resident set size (kbytes): 0
	Major (requiring I/O) page faults: 131445
	Minor (reclaiming a frame) page faults: 47698366
	Voluntary context switches: 163
	Involuntary context switches: 31890
	Swaps: 0
	File system inputs: 6584
	File system outputs: 24
	Socket messages sent: 0
	Socket messages received: 0
	Signals delivered: 0
	Page size (bytes): 4096
	Exit status: 1
