Architecture:                    x86_64
CPU op-mode(s):                  32-bit, 64-bit
Byte Order:                      Little Endian
Address sizes:                   46 bits physical, 48 bits virtual
CPU(s):                          72
On-line CPU(s) list:             0-71
Thread(s) per core:              2
Core(s) per socket:              18
Socket(s):                       2
NUMA node(s):                    2
Vendor ID:                       GenuineIntel
CPU family:                      6
Model:                           85
Model name:                      Intel(R) Xeon(R) Gold 6240 CPU @ 2.60GHz
Stepping:                        7
CPU MHz:                         1000.220
CPU max MHz:                     3900.0000
CPU min MHz:                     1000.0000
BogoMIPS:                        5200.00
Virtualization:                  VT-x
L1d cache:                       1.1 MiB
L1i cache:                       1.1 MiB
L2 cache:                        36 MiB
L3 cache:                        49.5 MiB
NUMA node0 CPU(s):               0-17,36-53
NUMA node1 CPU(s):               18-35,54-71
Vulnerability Itlb multihit:     KVM: Mitigation: VMX disabled
Vulnerability L1tf:              Not affected
Vulnerability Mds:               Not affected
Vulnerability Meltdown:          Not affected
Vulnerability Spec store bypass: Mitigation; Speculative Store Bypass disabled via prctl and seccomp
Vulnerability Spectre v1:        Mitigation; usercopy/swapgs barriers and __user pointer sanitization
Vulnerability Spectre v2:        Mitigation; Enhanced IBRS, IBPB conditional, RSB filling
Vulnerability Srbds:             Not affected
Vulnerability Tsx async abort:   Mitigation; TSX disabled
Flags:                           fpu vme de pse tsc msr pae mce cx8 apic sep mtrr pge mca cmov pat pse36 clflush dts acpi mmx fxsr sse sse2 ss ht tm pbe syscall nx pdpe1gb rdtscp lm constant_tsc art arch_perfmon pebs bts rep_good nopl xtopology nonstop_tsc cpuid aperfmperf pni pclmulqdq dtes64 monitor ds_cpl vmx smx est tm2 ssse3 sdbg fma cx16 xtpr pdcm pcid dca sse4_1 sse4_2 x2apic movbe popcnt tsc_deadline_timer aes xsave avx f16c rdrand lahf_lm abm 3dnowprefetch cpuid_fault epb cat_l3 cdp_l3 invpcid_single intel_ppin ssbd mba ibrs ibpb stibp ibrs_enhanced tpr_shadow vnmi flexpriority ept vpid ept_ad fsgsbase tsc_adjust bmi1 avx2 smep bmi2 erms invpcid cqm mpx rdt_a avx512f avx512dq rdseed adx smap clflushopt clwb intel_pt avx512cd avx512bw avx512vl xsaveopt xsavec xgetbv1 xsaves cqm_llc cqm_occup_llc cqm_mbm_total cqm_mbm_local dtherm ida arat pln pts hwp hwp_act_window hwp_epp hwp_pkg_req pku ospke avx512_vnni md_clear flush_l1d arch_capabilities
==========================
RANGE                                  SIZE  STATE REMOVABLE BLOCK
0x0000000000000000-0x000000007fffffff    2G online       yes     0
0x0000000100000000-0x000000307fffffff  190G online       yes  2-96

Memory block size:         2G
Total online memory:     192G
Total offline memory:      0B
==========================
Graph: #nodes: 9971, #edges: 44331
min/max/avg degree: 2 / 444 / 8.89199
BFS cache capacity: 1000
BFSInfo type: 0
Algorithm version: 7
radius = 10
mean eccentricity = 12.6022
diameter = 20
nb_pairs = 1 at dist = 20
nb_pairs = 13 at dist = 19
nb_pairs = 113 at dist = 18
nb_pairs = 406 at dist = 17
nb_pairs = 1572 at dist = 16
nb_pairs = 5841 at dist = 15
nb_pairs = 13842 at dist = 14
nb_pairs = 35533 at dist = 13
nb_pairs = 99980 at dist = 12
nb_pairs = 269903 at dist = 11
nb_pairs = 442718 at dist = 10
nb_pairs = 673197 at dist = 9
nb_pairs = 1118543 at dist = 8
nb_pairs = 2016916 at dist = 7
nb_pairs = 3125174 at dist = 6
nb_pairs = 3789450 at dist = 5
nb_pairs = 3854586 at dist = 4
nb_pairs = 661413 at dist = 3
nb_pairs = 7528 at dist = 2
nb_pairs =87 at dist = 1

Total nb of far appart pairs = 16116816
Time for computation of far apart pairs in computeBorassi: NO DATA
Time for computation of hyperbolicity in computeBorassi: NO DATA
Time for computation of far apart pairs in computeBorassiHubLabeling: NO DATA
Time for computation of hyperbolicity in computeBorassiHubLabeling: NO DATA
Initialization of v2 algorithm: sum = 649.07 ms, mean = 649.07 ms
HasNext call of v2 loop to get next far pair: sum = 18368 ms, mean = 0.0011397 ms
Initial part of v2 main loop: sum = 3530.8 ms, mean = 0.00021908 ms
Time for acceptable and valuable computation in v2 main loop: NO DATA
Lower bound update of v2 main loop: NO DATA
COMPLETE TIME FOR BORASSI_HUBLAB: : NO DATA
COMPLETE TIME FOR BORASSI: : NO DATA
COMPLETE TIME FOR OUR APPROACH: : NO DATA
Counts BFS calls in compute_v2: 1

The hyperbolicity of the graph is 0
	Command being timed: "timeout 6h .//../build/main ../graphs/BIOGRID-SYSTEM-Affinity_Capture-Western-3.4.145.bcc.edgelist -a 7 -c 1000"
	User time (seconds): 22.99
	System time (seconds): 0.22
	Percent of CPU this job got: 99%
	Elapsed (wall clock) time (h:mm:ss or m:ss): 0:23.27
	Average shared text size (kbytes): 0
	Average unshared data size (kbytes): 0
	Average stack size (kbytes): 0
	Average total size (kbytes): 0
	Maximum resident set size (kbytes): 416420
	Average resident set size (kbytes): 0
	Major (requiring I/O) page faults: 0
	Minor (reclaiming a frame) page faults: 103793
	Voluntary context switches: 4
	Involuntary context switches: 62
	Swaps: 0
	File system inputs: 848
	File system outputs: 16
	Socket messages sent: 0
	Socket messages received: 0
	Signals delivered: 0
	Page size (bytes): 4096
	Exit status: 0
