Architecture:                    x86_64
CPU op-mode(s):                  32-bit, 64-bit
Address sizes:                   46 bits physical, 48 bits virtual
Byte Order:                      Little Endian
CPU(s):                          72
On-line CPU(s) list:             0-71
Vendor ID:                       GenuineIntel
Model name:                      Intel(R) Xeon(R) Gold 6240 CPU @ 2.60GHz
CPU family:                      6
Model:                           85
Thread(s) per core:              2
Core(s) per socket:              18
Socket(s):                       2
Stepping:                        7
CPU max MHz:                     3900.0000
CPU min MHz:                     1000.0000
BogoMIPS:                        5200.00
Flags:                           fpu vme de pse tsc msr pae mce cx8 apic sep mtrr pge mca cmov pat pse36 clflush dts acpi mmx fxsr sse sse2 ss ht tm pbe syscall nx pdpe1gb rdtscp lm constant_tsc art arch_perfmon pebs bts rep_good nopl xtopology nonstop_tsc cpuid aperfmperf pni pclmulqdq dtes64 monitor ds_cpl vmx smx est tm2 ssse3 sdbg fma cx16 xtpr pdcm pcid dca sse4_1 sse4_2 x2apic movbe popcnt tsc_deadline_timer aes xsave avx f16c rdrand lahf_lm abm 3dnowprefetch cpuid_fault epb cat_l3 cdp_l3 invpcid_single intel_ppin ssbd mba ibrs ibpb stibp ibrs_enhanced tpr_shadow vnmi flexpriority ept vpid ept_ad fsgsbase tsc_adjust bmi1 avx2 smep bmi2 erms invpcid cqm mpx rdt_a avx512f avx512dq rdseed adx smap clflushopt clwb intel_pt avx512cd avx512bw avx512vl xsaveopt xsavec xgetbv1 xsaves cqm_llc cqm_occup_llc cqm_mbm_total cqm_mbm_local dtherm ida arat pln pts hwp hwp_act_window hwp_epp hwp_pkg_req pku ospke avx512_vnni md_clear flush_l1d arch_capabilities
Virtualization:                  VT-x
L1d cache:                       1.1 MiB (36 instances)
L1i cache:                       1.1 MiB (36 instances)
L2 cache:                        36 MiB (36 instances)
L3 cache:                        49.5 MiB (2 instances)
NUMA node(s):                    2
NUMA node0 CPU(s):               0-17,36-53
NUMA node1 CPU(s):               18-35,54-71
Vulnerability Itlb multihit:     KVM: Mitigation: VMX disabled
Vulnerability L1tf:              Not affected
Vulnerability Mds:               Not affected
Vulnerability Meltdown:          Not affected
Vulnerability Mmio stale data:   Mitigation; Clear CPU buffers; SMT vulnerable
Vulnerability Retbleed:          Mitigation; Enhanced IBRS
Vulnerability Spec store bypass: Mitigation; Speculative Store Bypass disabled via prctl
Vulnerability Spectre v1:        Mitigation; usercopy/swapgs barriers and __user pointer sanitization
Vulnerability Spectre v2:        Mitigation; Enhanced IBRS, IBPB conditional, RSB filling, PBRSB-eIBRS SW sequence
Vulnerability Srbds:             Not affected
Vulnerability Tsx async abort:   Mitigation; TSX disabled
==========================
RANGE                                  SIZE  STATE REMOVABLE BLOCK
0x0000000000000000-0x000000007fffffff    2G online       yes     0
0x0000000100000000-0x000000307fffffff  190G online       yes  2-96

Memory block size:         2G
Total online memory:     192G
Total offline memory:      0B
==========================
Graph: #nodes: 17234, #edges: 84595
min/max/avg degree: 2 / 272 / 9.81722
BFS cache capacity: 2
BFSInfo type: 0
Algorithm version: 3
radius = 6
mean eccentricity = 8.43774
diameter = 12
h_lb = 0	h_ub = 12
h_lb = 0	h_ub = 11
best_h_lb_found = 1 h_lb = 1	h_ub = 11 for 14220 17220 8277 8842
best_h_lb_found = 2 h_lb = 2	h_ub = 11 for 10918 17220 8277 11898
best_h_lb_found = 3 h_lb = 3	h_ub = 11 for 9689 17220 8277 8352
h_lb = 3	h_ub = 10
best_h_lb_found = 4 h_lb = 4	h_ub = 10 for 13837 17033 8277 14220
best_h_lb_found = 5 h_lb = 5	h_ub = 10 for 9976 16772 48 3057
h_lb = 5	h_ub = 9
best_h_lb_found = 6 h_lb = 6	h_ub = 9 for 9359 11044 411 8277
best_h_lb_found = 7 h_lb = 7	h_ub = 9 for 2346 8277 5427 11044
h_lb = 7	h_ub = 8
FarApartIterator (algo = DHV): #BFS initial = 1576	final = 16515

Time for computation of far apart pairs in computeBorassi: NO DATA
Time for computation of hyperbolicity in computeBorassi: NO DATA
Time for computation of far apart pairs in computeBorassiHubLabeling: NO DATA
Time for computation of hyperbolicity in computeBorassiHubLabeling: NO DATA
Initialization of v2 algorithm: sum = 2847.7 ms, mean = 2847.7 ms
HasNext call of v2 loop to get next far pair: sum = 16234 ms, mean = 0.018051 ms
Initial part of v2 main loop: sum = 5.3862e+05 ms, mean = 0.59889 ms
Time for acceptable and valuable computation in v2 main loop: sum = 77077 ms, mean = 0.085702 ms
Lower bound update of v2 main loop: sum = 26766 ms, mean = 0.029761 ms
COMPLETE TIME FOR BORASSI_HUBLAB: : NO DATA
COMPLETE TIME FOR BORASSI: : NO DATA
COMPLETE TIME FOR OUR APPROACH: : sum = 6.6175e+05 ms, mean = 6.6175e+05 ms
Counts BFS calls in compute_v2: 915891

The hyperbolicity of the graph is 3.5
	Command being timed: "timeout 6h .//../build/main ../graphs/ca-CondMat.bcc.edgelist -a 3 -noprune -noheur -k 0 -c 2"
	User time (seconds): 659.49
	System time (seconds): 0.03
	Percent of CPU this job got: 99%
	Elapsed (wall clock) time (h:mm:ss or m:ss): 11:01.80
	Average shared text size (kbytes): 0
	Average unshared data size (kbytes): 0
	Average stack size (kbytes): 0
	Average total size (kbytes): 0
	Maximum resident set size (kbytes): 80728
	Average resident set size (kbytes): 0
	Major (requiring I/O) page faults: 0
	Minor (reclaiming a frame) page faults: 20215
	Voluntary context switches: 3
	Involuntary context switches: 3270
	Swaps: 0
	File system inputs: 0
	File system outputs: 40
	Socket messages sent: 0
	Socket messages received: 0
	Signals delivered: 0
	Page size (bytes): 4096
	Exit status: 0
