Architecture:                    x86_64
CPU op-mode(s):                  32-bit, 64-bit
Address sizes:                   46 bits physical, 48 bits virtual
Byte Order:                      Little Endian
CPU(s):                          72
On-line CPU(s) list:             0-71
Vendor ID:                       GenuineIntel
Model name:                      Intel(R) Xeon(R) Gold 6240 CPU @ 2.60GHz
CPU family:                      6
Model:                           85
Thread(s) per core:              2
Core(s) per socket:              18
Socket(s):                       2
Stepping:                        7
CPU max MHz:                     3900.0000
CPU min MHz:                     1000.0000
BogoMIPS:                        5200.00
Flags:                           fpu vme de pse tsc msr pae mce cx8 apic sep mtrr pge mca cmov pat pse36 clflush dts acpi mmx fxsr sse sse2 ss ht tm pbe syscall nx pdpe1gb rdtscp lm constant_tsc art arch_perfmon pebs bts rep_good nopl xtopology nonstop_tsc cpuid aperfmperf pni pclmulqdq dtes64 monitor ds_cpl vmx smx est tm2 ssse3 sdbg fma cx16 xtpr pdcm pcid dca sse4_1 sse4_2 x2apic movbe popcnt tsc_deadline_timer aes xsave avx f16c rdrand lahf_lm abm 3dnowprefetch cpuid_fault epb cat_l3 cdp_l3 invpcid_single intel_ppin ssbd mba ibrs ibpb stibp ibrs_enhanced tpr_shadow vnmi flexpriority ept vpid ept_ad fsgsbase tsc_adjust bmi1 avx2 smep bmi2 erms invpcid cqm mpx rdt_a avx512f avx512dq rdseed adx smap clflushopt clwb intel_pt avx512cd avx512bw avx512vl xsaveopt xsavec xgetbv1 xsaves cqm_llc cqm_occup_llc cqm_mbm_total cqm_mbm_local dtherm ida arat pln pts hwp hwp_act_window hwp_epp hwp_pkg_req pku ospke avx512_vnni md_clear flush_l1d arch_capabilities
Virtualization:                  VT-x
L1d cache:                       1.1 MiB (36 instances)
L1i cache:                       1.1 MiB (36 instances)
L2 cache:                        36 MiB (36 instances)
L3 cache:                        49.5 MiB (2 instances)
NUMA node(s):                    2
NUMA node0 CPU(s):               0-17,36-53
NUMA node1 CPU(s):               18-35,54-71
Vulnerability Itlb multihit:     KVM: Mitigation: VMX disabled
Vulnerability L1tf:              Not affected
Vulnerability Mds:               Not affected
Vulnerability Meltdown:          Not affected
Vulnerability Mmio stale data:   Mitigation; Clear CPU buffers; SMT vulnerable
Vulnerability Retbleed:          Mitigation; Enhanced IBRS
Vulnerability Spec store bypass: Mitigation; Speculative Store Bypass disabled via prctl
Vulnerability Spectre v1:        Mitigation; usercopy/swapgs barriers and __user pointer sanitization
Vulnerability Spectre v2:        Mitigation; Enhanced IBRS, IBPB conditional, RSB filling, PBRSB-eIBRS SW sequence
Vulnerability Srbds:             Not affected
Vulnerability Tsx async abort:   Mitigation; TSX disabled
==========================
RANGE                                  SIZE  STATE REMOVABLE BLOCK
0x0000000000000000-0x000000007fffffff    2G online       yes     0
0x0000000100000000-0x000000307fffffff  190G online       yes  2-96

Memory block size:         2G
Total online memory:     192G
Total offline memory:      0B
==========================
Graph: #nodes: 12957, #edges: 33541
min/max/avg degree: 2 / 2007 / 5.17728
BFS cache capacity: 2
BFSInfo type: 0
Algorithm version: 3
radius = 5
mean eccentricity = 6.11492
diameter = 8
h_lb = 0	h_ub = 8
best_h_lb_found = 1 h_lb = 1	h_ub = 8 for 5341 6612 9767 12624
best_h_lb_found = 2 h_lb = 2	h_ub = 8 for 1648 3750 6899 10106
best_h_lb_found = 4 h_lb = 4	h_ub = 8 for 897 12055 5341 6612
h_lb = 4	h_ub = 7
best_h_lb_found = 5 h_lb = 5	h_ub = 7 for 3750 11105 6821 9767
h_lb = 5	h_ub = 6
best_h_lb_found = 6 h_lb = 6	h_ub = 6 for 1052 12343 897 12055
FarApartIterator (algo = DHV): #BFS initial = 1052	final = 12825

Time for computation of far apart pairs in computeBorassi: NO DATA
Time for computation of hyperbolicity in computeBorassi: NO DATA
Time for computation of far apart pairs in computeBorassiHubLabeling: NO DATA
Time for computation of hyperbolicity in computeBorassiHubLabeling: NO DATA
Initialization of v2 algorithm: sum = 1193.3 ms, mean = 1193.3 ms
HasNext call of v2 loop to get next far pair: sum = 5649.4 ms, mean = 0.02152 ms
Initial part of v2 main loop: sum = 71418 ms, mean = 0.27204 ms
Time for acceptable and valuable computation in v2 main loop: sum = 12374 ms, mean = 0.047135 ms
Lower bound update of v2 main loop: sum = 1056.1 ms, mean = 0.004023 ms
COMPLETE TIME FOR BORASSI_HUBLAB: : NO DATA
COMPLETE TIME FOR BORASSI: : NO DATA
COMPLETE TIME FOR OUR APPROACH: : sum = 91733 ms, mean = 91733 ms
Counts BFS calls in compute_v2: 269782

The hyperbolicity of the graph is 3
	Command being timed: "timeout 6h .//../build/main ../graphs/CAIDA_as_20050905.bcc.edgelist -a 3 -noprune -noheur -k 0 -c 2"
	User time (seconds): 91.47
	System time (seconds): 0.03
	Percent of CPU this job got: 99%
	Elapsed (wall clock) time (h:mm:ss or m:ss): 1:31.77
	Average shared text size (kbytes): 0
	Average unshared data size (kbytes): 0
	Average stack size (kbytes): 0
	Average total size (kbytes): 0
	Maximum resident set size (kbytes): 52768
	Average resident set size (kbytes): 0
	Major (requiring I/O) page faults: 0
	Minor (reclaiming a frame) page faults: 12781
	Voluntary context switches: 3
	Involuntary context switches: 252
	Swaps: 0
	File system inputs: 0
	File system outputs: 24
	Socket messages sent: 0
	Socket messages received: 0
	Signals delivered: 0
	Page size (bytes): 4096
	Exit status: 0
