Architecture:                    x86_64
CPU op-mode(s):                  32-bit, 64-bit
Address sizes:                   46 bits physical, 48 bits virtual
Byte Order:                      Little Endian
CPU(s):                          72
On-line CPU(s) list:             0-71
Vendor ID:                       GenuineIntel
Model name:                      Intel(R) Xeon(R) Gold 6240 CPU @ 2.60GHz
CPU family:                      6
Model:                           85
Thread(s) per core:              2
Core(s) per socket:              18
Socket(s):                       2
Stepping:                        7
CPU max MHz:                     3900.0000
CPU min MHz:                     1000.0000
BogoMIPS:                        5200.00
Flags:                           fpu vme de pse tsc msr pae mce cx8 apic sep mtrr pge mca cmov pat pse36 clflush dts acpi mmx fxsr sse sse2 ss ht tm pbe syscall nx pdpe1gb rdtscp lm constant_tsc art arch_perfmon pebs bts rep_good nopl xtopology nonstop_tsc cpuid aperfmperf pni pclmulqdq dtes64 monitor ds_cpl vmx smx est tm2 ssse3 sdbg fma cx16 xtpr pdcm pcid dca sse4_1 sse4_2 x2apic movbe popcnt tsc_deadline_timer aes xsave avx f16c rdrand lahf_lm abm 3dnowprefetch cpuid_fault epb cat_l3 cdp_l3 invpcid_single intel_ppin ssbd mba ibrs ibpb stibp ibrs_enhanced tpr_shadow vnmi flexpriority ept vpid ept_ad fsgsbase tsc_adjust bmi1 avx2 smep bmi2 erms invpcid cqm mpx rdt_a avx512f avx512dq rdseed adx smap clflushopt clwb intel_pt avx512cd avx512bw avx512vl xsaveopt xsavec xgetbv1 xsaves cqm_llc cqm_occup_llc cqm_mbm_total cqm_mbm_local dtherm ida arat pln pts hwp hwp_act_window hwp_epp hwp_pkg_req pku ospke avx512_vnni md_clear flush_l1d arch_capabilities
Virtualization:                  VT-x
L1d cache:                       1.1 MiB (36 instances)
L1i cache:                       1.1 MiB (36 instances)
L2 cache:                        36 MiB (36 instances)
L3 cache:                        49.5 MiB (2 instances)
NUMA node(s):                    2
NUMA node0 CPU(s):               0-17,36-53
NUMA node1 CPU(s):               18-35,54-71
Vulnerability Itlb multihit:     KVM: Mitigation: VMX disabled
Vulnerability L1tf:              Not affected
Vulnerability Mds:               Not affected
Vulnerability Meltdown:          Not affected
Vulnerability Mmio stale data:   Mitigation; Clear CPU buffers; SMT vulnerable
Vulnerability Retbleed:          Mitigation; Enhanced IBRS
Vulnerability Spec store bypass: Mitigation; Speculative Store Bypass disabled via prctl
Vulnerability Spectre v1:        Mitigation; usercopy/swapgs barriers and __user pointer sanitization
Vulnerability Spectre v2:        Mitigation; Enhanced IBRS, IBPB conditional, RSB filling, PBRSB-eIBRS SW sequence
Vulnerability Srbds:             Not affected
Vulnerability Tsx async abort:   Mitigation; TSX disabled
==========================
RANGE                                  SIZE  STATE REMOVABLE BLOCK
0x0000000000000000-0x000000007fffffff    2G online       yes     0
0x0000000100000000-0x000000307fffffff  190G online       yes  2-96

Memory block size:         2G
Total online memory:     192G
Total offline memory:      0B
==========================
Graph: #nodes: 29432, #edges: 143000
min/max/avg degree: 2 / 3615 / 9.71731
BFS cache capacity: 2
BFSInfo type: 0
Algorithm version: 3
radius = 5
mean eccentricity = 6.46432
diameter = 9
h_lb = 0	h_ub = 9
best_h_lb_found = 1 h_lb = 1	h_ub = 9 for 1262 29195 202 14039
h_lb = 1	h_ub = 8
best_h_lb_found = 2 h_lb = 2	h_ub = 8 for 23686 29195 196 14039
best_h_lb_found = 3 h_lb = 3	h_ub = 8 for 1292 10744 207 12444
h_lb = 3	h_ub = 7
best_h_lb_found = 4 h_lb = 4	h_ub = 7 for 23765 24300 1292 2785
h_lb = 4	h_ub = 6
h_lb = 4	h_ub = 5
best_h_lb_found = 5 h_lb = 5	h_ub = 5 for 95 2899 87 202
FarApartIterator (algo = DHV): #BFS initial = 862	final = 29432

Time for computation of far apart pairs in computeBorassi: NO DATA
Time for computation of hyperbolicity in computeBorassi: NO DATA
Time for computation of far apart pairs in computeBorassiHubLabeling: NO DATA
Time for computation of hyperbolicity in computeBorassiHubLabeling: NO DATA
Initialization of v2 algorithm: sum = 2493.7 ms, mean = 2493.7 ms
HasNext call of v2 loop to get next far pair: sum = 45985 ms, mean = 0.010333 ms
Initial part of v2 main loop: sum = 3.6705e+06 ms, mean = 0.82478 ms
Time for acceptable and valuable computation in v2 main loop: sum = 8.1485e+05 ms, mean = 0.1831 ms
Lower bound update of v2 main loop: sum = 1.2632e+07 ms, mean = 2.8385 ms
COMPLETE TIME FOR BORASSI_HUBLAB: : NO DATA
COMPLETE TIME FOR BORASSI: : NO DATA
COMPLETE TIME FOR OUR APPROACH: : sum = 1.7167e+07 ms, mean = 1.7167e+07 ms
Counts BFS calls in compute_v2: 4479865

The hyperbolicity of the graph is 2.5
	Command being timed: "timeout 6h .//../build/main ../graphs/CAIDA_as_20131101.bcc.edgelist -a 3 -noprune -noheur -k 0 -c 2"
	User time (seconds): 17101.01
	System time (seconds): 8.42
	Percent of CPU this job got: 99%
	Elapsed (wall clock) time (h:mm:ss or m:ss): 4:46:07
	Average shared text size (kbytes): 0
	Average unshared data size (kbytes): 0
	Average stack size (kbytes): 0
	Average total size (kbytes): 0
	Maximum resident set size (kbytes): 248612
	Average resident set size (kbytes): 0
	Major (requiring I/O) page faults: 0
	Minor (reclaiming a frame) page faults: 559318
	Voluntary context switches: 3
	Involuntary context switches: 67080
	Swaps: 0
	File system inputs: 0
	File system outputs: 56
	Socket messages sent: 0
	Socket messages received: 0
	Signals delivered: 0
	Page size (bytes): 4096
	Exit status: 0
