Architecture:                    x86_64
CPU op-mode(s):                  32-bit, 64-bit
Byte Order:                      Little Endian
Address sizes:                   46 bits physical, 48 bits virtual
CPU(s):                          72
On-line CPU(s) list:             0-71
Thread(s) per core:              2
Core(s) per socket:              18
Socket(s):                       2
NUMA node(s):                    2
Vendor ID:                       GenuineIntel
CPU family:                      6
Model:                           85
Model name:                      Intel(R) Xeon(R) Gold 6240 CPU @ 2.60GHz
Stepping:                        7
CPU MHz:                         1000.436
CPU max MHz:                     3900.0000
CPU min MHz:                     1000.0000
BogoMIPS:                        5200.00
Virtualization:                  VT-x
L1d cache:                       1.1 MiB
L1i cache:                       1.1 MiB
L2 cache:                        36 MiB
L3 cache:                        49.5 MiB
NUMA node0 CPU(s):               0-17,36-53
NUMA node1 CPU(s):               18-35,54-71
Vulnerability Itlb multihit:     KVM: Mitigation: VMX disabled
Vulnerability L1tf:              Not affected
Vulnerability Mds:               Not affected
Vulnerability Meltdown:          Not affected
Vulnerability Spec store bypass: Mitigation; Speculative Store Bypass disabled via prctl and seccomp
Vulnerability Spectre v1:        Mitigation; usercopy/swapgs barriers and __user pointer sanitization
Vulnerability Spectre v2:        Mitigation; Enhanced IBRS, IBPB conditional, RSB filling
Vulnerability Srbds:             Not affected
Vulnerability Tsx async abort:   Mitigation; TSX disabled
Flags:                           fpu vme de pse tsc msr pae mce cx8 apic sep mtrr pge mca cmov pat pse36 clflush dts acpi mmx fxsr sse sse2 ss ht tm pbe syscall nx pdpe1gb rdtscp lm constant_tsc art arch_perfmon pebs bts rep_good nopl xtopology nonstop_tsc cpuid aperfmperf pni pclmulqdq dtes64 monitor ds_cpl vmx smx est tm2 ssse3 sdbg fma cx16 xtpr pdcm pcid dca sse4_1 sse4_2 x2apic movbe popcnt tsc_deadline_timer aes xsave avx f16c rdrand lahf_lm abm 3dnowprefetch cpuid_fault epb cat_l3 cdp_l3 invpcid_single intel_ppin ssbd mba ibrs ibpb stibp ibrs_enhanced tpr_shadow vnmi flexpriority ept vpid ept_ad fsgsbase tsc_adjust bmi1 avx2 smep bmi2 erms invpcid cqm mpx rdt_a avx512f avx512dq rdseed adx smap clflushopt clwb intel_pt avx512cd avx512bw avx512vl xsaveopt xsavec xgetbv1 xsaves cqm_llc cqm_occup_llc cqm_mbm_total cqm_mbm_local dtherm ida arat pln pts hwp hwp_act_window hwp_epp hwp_pkg_req pku ospke avx512_vnni md_clear flush_l1d arch_capabilities
==========================
RANGE                                  SIZE  STATE REMOVABLE BLOCK
0x0000000000000000-0x000000007fffffff    2G online       yes     0
0x0000000100000000-0x000000307fffffff  190G online       yes  2-96

Memory block size:         2G
Total online memory:     192G
Total offline memory:      0B
==========================
Graph: #nodes: 90211, #edges: 162152
min/max/avg degree: 2 / 4 / 3.59495
BFS cache capacity: 1000
BFSInfo type: 0
Algorithm version: 3
radius = 300
mean eccentricity = 450.495
diameter = 600
h_lb = 14 (704, 89891, 0, 1026)
h_lb = 16 (704, 89891, 0, 1030)
h_lb = 50 (704, 89891, 0, 1168)
h_lb = 52 (704, 89891, 0, 1170)
h_lb = 54 (704, 89891, 0, 11122)
h_lb = 56 (704, 89891, 0, 11412)
h_lb = 58 (704, 89891, 0, 11719)
h_lb = 60 (704, 89891, 0, 12019)
h_lb = 62 (704, 89891, 0, 12321)
h_lb = 64 (704, 89891, 0, 12618)
h_lb = 66 (704, 89891, 0, 12927)
h_lb = 68 (704, 89891, 0, 13224)
h_lb = 70 (704, 89891, 0, 13523)
h_lb = 72 (704, 89891, 0, 13827)
h_lb = 74 (704, 89891, 0, 14129)
h_lb = 76 (704, 89891, 0, 14421)
h_lb = 78 (704, 89891, 0, 14723)
h_lb = 80 (704, 89891, 0, 15027)
h_lb = 82 (704, 89891, 0, 15328)
h_lb = 84 (704, 89891, 0, 15636)
h_lb = 86 (704, 89891, 0, 15934)
h_lb = 88 (704, 89891, 0, 16233)
h_lb = 90 (704, 89891, 0, 16524)
h_lb = 92 (704, 89891, 0, 16826)
h_lb = 94 (704, 89891, 0, 17137)
h_lb = 96 (704, 89891, 0, 17431)
h_lb = 98 (704, 89891, 0, 17728)
h_lb = 100 (704, 89891, 0, 18026)
h_lb = 102 (704, 89891, 0, 18338)
h_lb = 104 (704, 89891, 0, 18638)
h_lb = 106 (704, 89891, 0, 18926)
h_lb = 108 (704, 89891, 0, 19242)
h_lb = 110 (704, 89891, 0, 19537)
h_lb = 112 (704, 89891, 0, 19837)
h_lb = 114 (704, 89891, 0, 20140)
h_lb = 116 (704, 89891, 0, 20432)
h_lb = 118 (704, 89891, 0, 20695)
h_lb = 120 (704, 89891, 0, 20922)
h_lb = 122 (704, 89891, 0, 21223)
h_lb = 124 (704, 89891, 0, 21523)
h_lb = 126 (704, 89891, 0, 21835)
h_lb = 128 (704, 89891, 0, 22139)
h_lb = 130 (704, 89891, 0, 22427)
h_lb = 132 (704, 89891, 0, 22733)
h_lb = 134 (704, 89891, 0, 23024)
h_lb = 136 (704, 89891, 0, 23324)
h_lb = 138 (704, 89891, 0, 23929)
h_lb = 140 (704, 89891, 0, 23931)
h_lb = 142 (704, 89891, 0, 24527)
h_lb = 144 (704, 89891, 0, 24530)
h_lb = 146 (704, 89891, 0, 24828)
h_lb = 148 (704, 89891, 0, 25123)
h_lb = 150 (704, 89891, 0, 25427)
h_lb = 152 (704, 89891, 0, 25727)
h_lb = 154 (704, 89891, 0, 26029)
h_lb = 156 (704, 89891, 0, 26328)
h_lb = 158 (704, 89891, 0, 26642)
h_lb = 160 (704, 89891, 0, 26945)
h_lb = 162 (704, 89891, 0, 27250)
h_lb = 164 (704, 89891, 0, 27539)
h_lb = 166 (704, 89891, 0, 27846)
h_lb = 168 (704, 89891, 0, 28154)
h_lb = 170 (704, 89891, 0, 28441)
h_lb = 172 (704, 89891, 0, 28747)
h_lb = 174 (704, 89891, 0, 29051)
h_lb = 176 (704, 89891, 0, 29348)
h_lb = 178 (704, 89891, 0, 29648)
h_lb = 180 (704, 89891, 0, 29953)
h_lb = 182 (704, 89891, 0, 30238)
h_lb = 184 (704, 89891, 0, 30553)
h_lb = 186 (704, 89891, 0, 30844)
h_lb = 188 (704, 89891, 0, 31150)
h_lb = 190 (704, 89891, 0, 31454)
h_lb = 192 (704, 89891, 0, 31747)
h_lb = 194 (704, 89891, 0, 32049)
h_lb = 196 (704, 89891, 0, 32351)
h_lb = 198 (704, 89891, 0, 32652)
h_lb = 200 (704, 89891, 0, 32947)
h_lb = 202 (704, 89891, 0, 33263)
h_lb = 204 (704, 89891, 0, 33558)
h_lb = 206 (704, 89891, 0, 33862)
h_lb = 208 (704, 89891, 0, 34152)
h_lb = 210 (704, 89891, 0, 34761)
h_lb = 212 (704, 89891, 0, 34763)
h_lb = 214 (704, 89891, 0, 35055)
h_lb = 216 (704, 89891, 0, 35362)
h_lb = 218 (704, 89891, 0, 35670)
h_lb = 220 (704, 89891, 0, 35957)
h_lb = 222 (704, 89891, 0, 36275)
h_lb = 224 (704, 89891, 0, 36560)
h_lb = 226 (704, 89891, 0, 36863)
h_lb = 228 (704, 89891, 0, 37468)
h_lb = 230 (704, 89891, 0, 37470)
h_lb = 232 (704, 89891, 0, 38056)
h_lb = 234 (704, 89891, 0, 38058)
h_lb = 236 (704, 89891, 0, 38365)
h_lb = 238 (704, 89891, 0, 38666)
h_lb = 240 (704, 89891, 0, 38967)
h_lb = 242 (704, 89891, 0, 39270)
h_lb = 244 (704, 89891, 0, 39558)
h_lb = 246 (704, 89891, 0, 39864)
h_lb = 248 (704, 89891, 0, 40167)
h_lb = 250 (704, 89891, 0, 40446)
h_lb = 252 (704, 89891, 0, 40758)
h_lb = 254 (704, 89891, 0, 41018)
h_lb = 256 (704, 89891, 0, 41256)
h_lb = 258 (704, 89891, 0, 41560)
h_lb = 260 (704, 89891, 0, 41863)
h_lb = 262 (704, 89891, 0, 42155)
h_lb = 264 (704, 89891, 0, 42459)
h_lb = 266 (704, 89891, 0, 42765)
h_lb = 268 (704, 89891, 0, 43359)
h_lb = 270 (704, 89891, 0, 43362)
h_lb = 272 (704, 89891, 0, 43656)
h_lb = 274 (704, 89891, 0, 43959)
h_lb = 276 (704, 89891, 0, 44259)
h_lb = 280 (704, 89891, 0, 44868)
h_lb = 282 (704, 89891, 0, 45167)
h_lb = 284 (704, 89891, 0, 45467)
h_lb = 286 (704, 89891, 0, 45766)
h_lb = 288 (704, 89891, 0, 46075)
h_lb = 290 (704, 89891, 0, 46361)
h_lb = 292 (704, 89891, 0, 46678)
h_lb = 294 (704, 89891, 0, 46979)
h_lb = 296 (704, 89891, 0, 47258)
h_lb = 298 (704, 89891, 0, 47578)
h_lb = 300 (704, 89891, 0, 47884)
h_lb = 302 (704, 89891, 0, 48179)
h_lb = 304 (704, 89891, 0, 48473)
h_lb = 306 (704, 89891, 0, 48780)
h_lb = 308 (704, 89891, 0, 49073)
h_lb = 310 (704, 89891, 0, 49385)
h_lb = 314 (704, 89891, 0, 49977)
h_lb = 316 (704, 89891, 0, 50283)
h_lb = 318 (704, 89891, 0, 50879)
h_lb = 320 (704, 89891, 0, 50882)
h_lb = 322 (704, 89891, 0, 51176)
h_lb = 324 (704, 89891, 0, 51474)
h_lb = 326 (704, 89891, 0, 52081)
h_lb = 328 (704, 89891, 0, 52083)
h_lb = 330 (704, 89891, 0, 52388)
h_lb = 332 (704, 89891, 0, 52682)
h_lb = 334 (704, 89891, 0, 52987)
h_lb = 336 (704, 89891, 0, 53290)
h_lb = 338 (704, 89891, 0, 53587)
h_lb = 340 (704, 89891, 0, 53891)
h_lb = 342 (704, 89891, 0, 54196)
h_lb = 344 (704, 89891, 0, 54487)
h_lb = 346 (704, 89891, 0, 54791)
h_lb = 348 (704, 89891, 0, 55095)
h_lb = 350 (704, 89891, 0, 55399)
h_lb = 354 (704, 89891, 0, 56005)
h_lb = 356 (704, 89891, 0, 56293)
h_lb = 358 (704, 89891, 0, 56591)
h_lb = 360 (704, 89891, 0, 56898)
h_lb = 362 (704, 89891, 0, 57208)
h_lb = 364 (704, 89891, 0, 57502)
h_lb = 366 (704, 89891, 0, 58101)
h_lb = 368 (704, 89891, 0, 58105)
h_lb = 370 (704, 89891, 0, 58408)
h_lb = 372 (704, 89891, 0, 58703)
h_lb = 374 (704, 89891, 0, 59009)
h_lb = 376 (704, 89891, 0, 59297)
h_lb = 378 (704, 89891, 0, 59606)
h_lb = 380 (704, 89891, 0, 59915)
h_lb = 382 (704, 89891, 0, 60501)
h_lb = 386 (704, 89891, 0, 60801)
h_lb = 388 (704, 89891, 0, 61109)
h_lb = 390 (704, 89891, 0, 61403)
h_lb = 392 (704, 89891, 0, 61692)
h_lb = 394 (704, 89891, 0, 62011)
h_lb = 396 (704, 89891, 0, 62321)
h_lb = 398 (704, 89891, 0, 62619)
h_lb = 400 (704, 89891, 0, 62921)
h_lb = 402 (704, 89891, 0, 63208)
h_lb = 404 (704, 89891, 0, 63508)
h_lb = 406 (704, 89891, 0, 63810)
h_lb = 408 (704, 89891, 0, 64111)
h_lb = 410 (704, 89891, 0, 64707)
h_lb = 412 (704, 89891, 0, 64709)
h_lb = 414 (704, 89891, 0, 65011)
h_lb = 418 (704, 89891, 0, 65611)
h_lb = 420 (704, 89891, 0, 65908)
h_lb = 422 (704, 89891, 0, 66226)
h_lb = 424 (704, 89891, 0, 66510)
h_lb = 426 (704, 89891, 0, 66816)
h_lb = 428 (704, 89891, 0, 67114)
h_lb = 430 (704, 89891, 0, 67423)
h_lb = 432 (704, 89891, 0, 67718)
h_lb = 434 (704, 89891, 0, 68026)
h_lb = 436 (704, 89891, 0, 68335)
h_lb = 438 (704, 89891, 0, 68626)
h_lb = 440 (704, 89891, 0, 68918)
h_lb = 442 (704, 89891, 0, 69227)
h_lb = 444 (704, 89891, 0, 69532)
h_lb = 446 (704, 89891, 0, 69837)
h_lb = 448 (704, 89891, 0, 70123)
h_lb = 450 (704, 89891, 0, 70442)
h_lb = 452 (704, 89891, 0, 70734)
h_lb = 454 (704, 89891, 0, 71035)
h_lb = 456 (704, 89891, 0, 71335)
h_lb = 458 (704, 89891, 0, 71640)
h_lb = 460 (704, 89891, 0, 71942)
h_lb = 462 (704, 89891, 0, 72546)
h_lb = 464 (704, 89891, 0, 72839)
h_lb = 466 (704, 89891, 0, 72841)
h_lb = 468 (704, 89891, 0, 73143)
h_lb = 470 (704, 89891, 0, 73449)
h_lb = 472 (704, 89891, 0, 73735)
h_lb = 474 (704, 89891, 0, 74050)
h_lb = 476 (704, 89891, 0, 74347)
h_lb = 478 (704, 89891, 0, 74647)
h_lb = 480 (704, 89891, 0, 74960)
h_lb = 482 (704, 89891, 0, 75260)
h_lb = 484 (704, 89891, 0, 75841)
h_lb = 486 (704, 89891, 0, 75843)
h_lb = 488 (704, 89891, 0, 76158)
h_lb = 490 (704, 89891, 0, 76453)
h_lb = 492 (704, 89891, 0, 76747)
h_lb = 494 (704, 89891, 0, 77349)
h_lb = 496 (704, 89891, 0, 77649)
h_lb = 498 (704, 89891, 0, 77651)
h_lb = 500 (704, 89891, 0, 77950)
h_lb = 504 (704, 89891, 0, 78546)
h_lb = 506 (704, 89891, 0, 78854)
h_lb = 508 (704, 89891, 0, 79152)
h_lb = 510 (704, 89891, 0, 79743)
h_lb = 512 (704, 89891, 0, 80056)
h_lb = 514 (704, 89891, 0, 80349)
h_lb = 516 (704, 89891, 0, 80657)
h_lb = 518 (704, 89891, 0, 80954)
h_lb = 520 (704, 89891, 0, 81563)
h_lb = 522 (704, 89891, 0, 81809)
h_lb = 524 (704, 89891, 0, 82075)
h_lb = 526 (704, 89891, 0, 82372)
h_lb = 528 (704, 89891, 0, 82671)
h_lb = 530 (704, 89891, 0, 83276)
h_lb = 534 (704, 89891, 0, 83579)
h_lb = 536 (704, 89891, 0, 83869)
h_lb = 538 (704, 89891, 0, 84180)
h_lb = 540 (704, 89891, 0, 84484)
h_lb = 542 (704, 89891, 0, 84775)
h_lb = 544 (704, 89891, 0, 85379)
h_lb = 546 (704, 89891, 0, 85680)
h_lb = 548 (704, 89891, 0, 85975)
h_lb = 550 (704, 89891, 0, 86579)
h_lb = 552 (704, 89891, 0, 86871)
h_lb = 554 (704, 89891, 0, 87777)
h_lb = 556 (704, 89891, 0, 88672)
h_lb = 558 (704, 89891, 0, 88992)
h_lb = 560 (704, 89891, 0, 89280)
h_lb = 560	h_ub = 600
best_h_lb_found = 560 h_lb = 560	h_ub = 600 for 704 89891 1557 90189
h_lb = 560	h_ub = 597
h_lb = 560	h_ub = 595
h_lb = 560	h_ub = 593
h_lb = 560	h_ub = 592
h_lb = 560	h_ub = 591
h_lb = 560	h_ub = 590
h_lb = 560	h_ub = 588
h_lb = 560	h_ub = 587
h_lb = 560	h_ub = 586
h_lb = 560	h_ub = 585
h_lb = 560	h_ub = 584
h_lb = 560	h_ub = 583
h_lb = 560	h_ub = 582
h_lb = 560	h_ub = 581
h_lb = 560	h_ub = 580
h_lb = 560	h_ub = 579
h_lb = 560	h_ub = 578
h_lb = 560	h_ub = 577
h_lb = 560	h_ub = 576
h_lb = 560	h_ub = 575
h_lb = 560	h_ub = 574
h_lb = 560	h_ub = 573
h_lb = 560	h_ub = 572
h_lb = 560	h_ub = 571
h_lb = 560	h_ub = 570
h_lb = 560	h_ub = 569
h_lb = 560	h_ub = 568
h_lb = 560	h_ub = 567
h_lb = 560	h_ub = 566
h_lb = 560	h_ub = 565
h_lb = 560	h_ub = 564
h_lb = 560	h_ub = 563
h_lb = 560	h_ub = 562
h_lb = 560	h_ub = 561
FarApartIterator (algo = DHV): #BFS initial = 83	final = 3347

Time for computation of far apart pairs in computeBorassi: NO DATA
Time for computation of hyperbolicity in computeBorassi: NO DATA
Time for computation of far apart pairs in computeBorassiHubLabeling: NO DATA
Time for computation of hyperbolicity in computeBorassiHubLabeling: NO DATA
Initialization of v2 algorithm: sum = 492.18 ms, mean = 492.18 ms
HasNext call of v2 loop to get next far pair: sum = 9701.2 ms, mean = 45.76 ms
Initial part of v2 main loop: sum = 18.972 ms, mean = 0.089913 ms
Time for acceptable and valuable computation in v2 main loop: sum = 20.81 ms, mean = 0.098627 ms
Lower bound update of v2 main loop: sum = 2.8492 ms, mean = 0.013504 ms
COMPLETE TIME FOR BORASSI_HUBLAB: : NO DATA
COMPLETE TIME FOR BORASSI: : NO DATA
COMPLETE TIME FOR OUR APPROACH: : sum = 10236 ms, mean = 10236 ms
Counts BFS calls in compute_v2: 10

The hyperbolicity of the graph is 280
	Command being timed: "timeout 6h .//../build/main ../graphs/more/massive/grid300-10.bcc.txt -a 3 -c 1000"
	User time (seconds): 9.84
	System time (seconds): 0.49
	Percent of CPU this job got: 99%
	Elapsed (wall clock) time (h:mm:ss or m:ss): 0:10.36
	Average shared text size (kbytes): 0
	Average unshared data size (kbytes): 0
	Average stack size (kbytes): 0
	Average total size (kbytes): 0
	Maximum resident set size (kbytes): 1079516
	Average resident set size (kbytes): 0
	Major (requiring I/O) page faults: 0
	Minor (reclaiming a frame) page faults: 270606
	Voluntary context switches: 4
	Involuntary context switches: 18
	Swaps: 0
	File system inputs: 3728
	File system outputs: 40
	Socket messages sent: 0
	Socket messages received: 0
	Signals delivered: 0
	Page size (bytes): 4096
	Exit status: 0
