Architecture:                    x86_64
CPU op-mode(s):                  32-bit, 64-bit
Address sizes:                   46 bits physical, 48 bits virtual
Byte Order:                      Little Endian
CPU(s):                          72
On-line CPU(s) list:             0-71
Vendor ID:                       GenuineIntel
Model name:                      Intel(R) Xeon(R) Gold 6240 CPU @ 2.60GHz
CPU family:                      6
Model:                           85
Thread(s) per core:              2
Core(s) per socket:              18
Socket(s):                       2
Stepping:                        7
CPU max MHz:                     3900.0000
CPU min MHz:                     1000.0000
BogoMIPS:                        5200.00
Flags:                           fpu vme de pse tsc msr pae mce cx8 apic sep mtrr pge mca cmov pat pse36 clflush dts acpi mmx fxsr sse sse2 ss ht tm pbe syscall nx pdpe1gb rdtscp lm constant_tsc art arch_perfmon pebs bts rep_good nopl xtopology nonstop_tsc cpuid aperfmperf pni pclmulqdq dtes64 monitor ds_cpl vmx smx est tm2 ssse3 sdbg fma cx16 xtpr pdcm pcid dca sse4_1 sse4_2 x2apic movbe popcnt tsc_deadline_timer aes xsave avx f16c rdrand lahf_lm abm 3dnowprefetch cpuid_fault epb cat_l3 cdp_l3 invpcid_single intel_ppin ssbd mba ibrs ibpb stibp ibrs_enhanced tpr_shadow vnmi flexpriority ept vpid ept_ad fsgsbase tsc_adjust bmi1 avx2 smep bmi2 erms invpcid cqm mpx rdt_a avx512f avx512dq rdseed adx smap clflushopt clwb intel_pt avx512cd avx512bw avx512vl xsaveopt xsavec xgetbv1 xsaves cqm_llc cqm_occup_llc cqm_mbm_total cqm_mbm_local dtherm ida arat pln pts hwp hwp_act_window hwp_epp hwp_pkg_req pku ospke avx512_vnni md_clear flush_l1d arch_capabilities
Virtualization:                  VT-x
L1d cache:                       1.1 MiB (36 instances)
L1i cache:                       1.1 MiB (36 instances)
L2 cache:                        36 MiB (36 instances)
L3 cache:                        49.5 MiB (2 instances)
NUMA node(s):                    2
NUMA node0 CPU(s):               0-17,36-53
NUMA node1 CPU(s):               18-35,54-71
Vulnerability Itlb multihit:     KVM: Mitigation: VMX disabled
Vulnerability L1tf:              Not affected
Vulnerability Mds:               Not affected
Vulnerability Meltdown:          Not affected
Vulnerability Mmio stale data:   Mitigation; Clear CPU buffers; SMT vulnerable
Vulnerability Retbleed:          Mitigation; Enhanced IBRS
Vulnerability Spec store bypass: Mitigation; Speculative Store Bypass disabled via prctl
Vulnerability Spectre v1:        Mitigation; usercopy/swapgs barriers and __user pointer sanitization
Vulnerability Spectre v2:        Mitigation; Enhanced IBRS, IBPB conditional, RSB filling, PBRSB-eIBRS SW sequence
Vulnerability Srbds:             Not affected
Vulnerability Tsx async abort:   Mitigation; TSX disabled
==========================
RANGE                                  SIZE  STATE REMOVABLE BLOCK
0x0000000000000000-0x000000007fffffff    2G online       yes     0
0x0000000100000000-0x000000307fffffff  190G online       yes  2-96

Memory block size:         2G
Total online memory:     192G
Total offline memory:      0B
==========================
Graph: #nodes: 250041, #edges: 449831
min/max/avg degree: 2 / 4 / 3.59806
BFS cache capacity: 2
BFSInfo type: 0
Algorithm version: 3
radius = 500
mean eccentricity = 750.486
diameter = 1000
h_lb = 38 (249996, 2714, 1231, 1959)
h_lb = 40 (249996, 2714, 1231, 1960)
h_lb = 124 (249996, 2714, 1231, 2212)
h_lb = 126 (249996, 2714, 1231, 2213)
h_lb = 286 (249996, 2714, 1231, 2435)
h_lb = 288 (249996, 2714, 1231, 81967)
h_lb = 290 (249996, 2714, 1231, 82341)
h_lb = 292 (249996, 2714, 1231, 83352)
h_lb = 294 (249996, 2714, 1231, 83353)
h_lb = 296 (249996, 2714, 1231, 84340)
h_lb = 298 (249996, 2714, 1231, 84341)
h_lb = 300 (249996, 2714, 1231, 84832)
h_lb = 302 (249996, 2714, 1231, 85328)
h_lb = 304 (249996, 2714, 1231, 85838)
h_lb = 306 (249996, 2714, 1231, 86331)
h_lb = 308 (249996, 2714, 1231, 86824)
h_lb = 310 (249996, 2714, 1231, 87331)
h_lb = 312 (249996, 2714, 1231, 87824)
h_lb = 314 (249996, 2714, 1231, 88330)
h_lb = 316 (249996, 2714, 1231, 89323)
h_lb = 318 (249996, 2714, 1231, 89325)
h_lb = 320 (249996, 2714, 1231, 89807)
h_lb = 322 (249996, 2714, 1231, 90302)
h_lb = 324 (249996, 2714, 1231, 90804)
h_lb = 326 (249996, 2714, 1231, 91324)
h_lb = 328 (249996, 2714, 1231, 91816)
h_lb = 330 (249996, 2714, 1231, 92311)
h_lb = 332 (249996, 2714, 1231, 92818)
h_lb = 336 (249996, 2714, 1231, 93815)
h_lb = 338 (249996, 2714, 1231, 94306)
h_lb = 340 (249996, 2714, 1231, 94808)
h_lb = 342 (249996, 2714, 1231, 95303)
h_lb = 344 (249996, 2714, 1231, 95788)
h_lb = 346 (249996, 2714, 1231, 96790)
h_lb = 348 (249996, 2714, 1231, 96791)
h_lb = 350 (249996, 2714, 1231, 97288)
h_lb = 352 (249996, 2714, 1231, 97783)
h_lb = 356 (249996, 2714, 1231, 98790)
h_lb = 358 (249996, 2714, 1231, 99282)
h_lb = 360 (249996, 2714, 1231, 99785)
h_lb = 362 (249996, 2714, 1231, 100784)
h_lb = 364 (249996, 2714, 1231, 100785)
h_lb = 366 (249996, 2714, 1231, 101275)
h_lb = 368 (249996, 2714, 1231, 101770)
h_lb = 372 (249996, 2714, 1231, 102771)
h_lb = 374 (249996, 2714, 1231, 103266)
h_lb = 376 (249996, 2714, 1231, 103773)
h_lb = 378 (249996, 2714, 1231, 104266)
h_lb = 380 (249996, 2714, 1231, 104769)
h_lb = 382 (249996, 2714, 1231, 105253)
h_lb = 384 (249996, 2714, 1231, 105771)
h_lb = 386 (249996, 2714, 1231, 106264)
h_lb = 388 (249996, 2714, 1231, 106761)
h_lb = 390 (249996, 2714, 1231, 107255)
h_lb = 392 (249996, 2714, 1231, 107744)
h_lb = 394 (249996, 2714, 1231, 108258)
h_lb = 396 (249996, 2714, 1231, 108750)
h_lb = 398 (249996, 2714, 1231, 109247)
h_lb = 400 (249996, 2714, 1231, 109748)
h_lb = 402 (249996, 2714, 1231, 110751)
h_lb = 404 (249996, 2714, 1231, 110752)
h_lb = 406 (249996, 2714, 1231, 111239)
h_lb = 408 (249996, 2714, 1231, 111751)
h_lb = 410 (249996, 2714, 1231, 112240)
h_lb = 412 (249996, 2714, 1231, 112748)
h_lb = 414 (249996, 2714, 1231, 113237)
h_lb = 416 (249996, 2714, 1231, 113744)
h_lb = 418 (249996, 2714, 1231, 114240)
h_lb = 420 (249996, 2714, 1231, 114717)
h_lb = 422 (249996, 2714, 1231, 115237)
h_lb = 424 (249996, 2714, 1231, 115736)
h_lb = 426 (249996, 2714, 1231, 116733)
h_lb = 428 (249996, 2714, 1231, 116734)
h_lb = 432 (249996, 2714, 1231, 117719)
h_lb = 434 (249996, 2714, 1231, 118218)
h_lb = 436 (249996, 2714, 1231, 118709)
h_lb = 438 (249996, 2714, 1231, 119206)
h_lb = 440 (249996, 2714, 1231, 119704)
h_lb = 442 (249996, 2714, 1231, 120203)
h_lb = 444 (249996, 2714, 1231, 120711)
h_lb = 446 (249996, 2714, 1231, 121204)
h_lb = 448 (249996, 2714, 1231, 122210)
h_lb = 450 (249996, 2714, 1231, 122211)
h_lb = 452 (249996, 2714, 1231, 122700)
h_lb = 456 (249996, 2714, 1231, 123697)
h_lb = 458 (249996, 2714, 1231, 124179)
h_lb = 460 (249996, 2714, 1231, 124696)
h_lb = 462 (249996, 2714, 1231, 125702)
h_lb = 466 (249996, 2714, 1231, 126194)
h_lb = 468 (249996, 2714, 1231, 126696)
h_lb = 470 (249996, 2714, 1231, 127169)
h_lb = 472 (249996, 2714, 1231, 127688)
h_lb = 474 (249996, 2714, 1231, 128172)
h_lb = 476 (249996, 2714, 1231, 128683)
h_lb = 478 (249996, 2714, 1231, 129182)
h_lb = 480 (249996, 2714, 1231, 130154)
h_lb = 482 (249996, 2714, 1231, 130155)
h_lb = 484 (249996, 2714, 1231, 130675)
h_lb = 486 (249996, 2714, 1231, 131173)
h_lb = 488 (249996, 2714, 1231, 131672)
h_lb = 490 (249996, 2714, 1231, 132166)
h_lb = 492 (249996, 2714, 1231, 132672)
h_lb = 494 (249996, 2714, 1231, 133160)
h_lb = 496 (249996, 2714, 1231, 133652)
h_lb = 498 (249996, 2714, 1231, 134154)
h_lb = 500 (249996, 2714, 1231, 134654)
h_lb = 502 (249996, 2714, 1231, 135661)
h_lb = 504 (249996, 2714, 1231, 136156)
h_lb = 506 (249996, 2714, 1231, 136157)
h_lb = 508 (249996, 2714, 1231, 136660)
h_lb = 510 (249996, 2714, 1231, 137156)
h_lb = 512 (249996, 2714, 1231, 137663)
h_lb = 514 (249996, 2714, 1231, 138137)
h_lb = 516 (249996, 2714, 1231, 138648)
h_lb = 518 (249996, 2714, 1231, 139136)
h_lb = 520 (249996, 2714, 1231, 139639)
h_lb = 522 (249996, 2714, 1231, 140137)
h_lb = 524 (249996, 2714, 1231, 140640)
h_lb = 526 (249996, 2714, 1231, 141140)
h_lb = 528 (249996, 2714, 1231, 141625)
h_lb = 530 (249996, 2714, 1231, 142131)
h_lb = 532 (249996, 2714, 1231, 142615)
h_lb = 536 (249996, 2714, 1231, 143627)
h_lb = 538 (249996, 2714, 1231, 144121)
h_lb = 540 (249996, 2714, 1231, 144620)
h_lb = 542 (249996, 2714, 1231, 145134)
h_lb = 544 (249996, 2714, 1231, 145623)
h_lb = 546 (249996, 2714, 1231, 146126)
h_lb = 548 (249996, 2714, 1231, 146615)
h_lb = 550 (249996, 2714, 1231, 147111)
h_lb = 552 (249996, 2714, 1231, 147611)
h_lb = 554 (249996, 2714, 1231, 148108)
h_lb = 556 (249996, 2714, 1231, 148597)
h_lb = 558 (249996, 2714, 1231, 149100)
h_lb = 560 (249996, 2714, 1231, 149598)
h_lb = 562 (249996, 2714, 1231, 150086)
h_lb = 564 (249996, 2714, 1231, 150592)
h_lb = 566 (249996, 2714, 1231, 151086)
h_lb = 568 (249996, 2714, 1231, 151593)
h_lb = 570 (249996, 2714, 1231, 152096)
h_lb = 572 (249996, 2714, 1231, 152594)
h_lb = 574 (249996, 2714, 1231, 153098)
h_lb = 576 (249996, 2714, 1231, 153597)
h_lb = 578 (249996, 2714, 1231, 154582)
h_lb = 580 (249996, 2714, 1231, 154583)
h_lb = 582 (249996, 2714, 1231, 155085)
h_lb = 584 (249996, 2714, 1231, 155571)
h_lb = 588 (249996, 2714, 1231, 156576)
h_lb = 590 (249996, 2714, 1231, 157063)
h_lb = 592 (249996, 2714, 1231, 158072)
h_lb = 594 (249996, 2714, 1231, 158073)
h_lb = 596 (249996, 2714, 1231, 158575)
h_lb = 598 (249996, 2714, 1231, 159069)
h_lb = 600 (249996, 2714, 1231, 159557)
h_lb = 602 (249996, 2714, 1231, 160057)
h_lb = 604 (249996, 2714, 1231, 160555)
h_lb = 608 (249996, 2714, 1231, 161570)
h_lb = 610 (249996, 2714, 1231, 162057)
h_lb = 612 (249996, 2714, 1231, 162568)
h_lb = 614 (249996, 2714, 1231, 163049)
h_lb = 616 (249996, 2714, 1231, 163464)
h_lb = 618 (249996, 2714, 1231, 163845)
h_lb = 620 (249996, 2714, 1231, 164342)
h_lb = 622 (249996, 2714, 1231, 164825)
h_lb = 624 (249996, 2714, 1231, 165335)
h_lb = 626 (249996, 2714, 1231, 165835)
h_lb = 628 (249996, 2714, 1231, 166330)
h_lb = 630 (249996, 2714, 1231, 166830)
h_lb = 632 (249996, 2714, 1231, 167326)
h_lb = 634 (249996, 2714, 1231, 167827)
h_lb = 636 (249996, 2714, 1231, 168322)
h_lb = 640 (249996, 2714, 1231, 169312)
h_lb = 642 (249996, 2714, 1231, 169811)
h_lb = 644 (249996, 2714, 1231, 170320)
h_lb = 646 (249996, 2714, 1231, 170816)
h_lb = 648 (249996, 2714, 1231, 171321)
h_lb = 650 (249996, 2714, 1231, 171819)
h_lb = 652 (249996, 2714, 1231, 172300)
h_lb = 654 (249996, 2714, 1231, 172814)
h_lb = 656 (249996, 2714, 1231, 173290)
h_lb = 658 (249996, 2714, 1231, 173804)
h_lb = 660 (249996, 2714, 1231, 174287)
h_lb = 662 (249996, 2714, 1231, 174792)
h_lb = 664 (249996, 2714, 1231, 175303)
h_lb = 666 (249996, 2714, 1231, 175784)
h_lb = 668 (249996, 2714, 1231, 176789)
h_lb = 672 (249996, 2714, 1231, 177288)
h_lb = 674 (249996, 2714, 1231, 177772)
h_lb = 676 (249996, 2714, 1231, 178287)
h_lb = 678 (249996, 2714, 1231, 178781)
h_lb = 680 (249996, 2714, 1231, 179276)
h_lb = 682 (249996, 2714, 1231, 179784)
h_lb = 684 (249996, 2714, 1231, 180276)
h_lb = 686 (249996, 2714, 1231, 180777)
h_lb = 688 (249996, 2714, 1231, 181283)
h_lb = 690 (249996, 2714, 1231, 181772)
h_lb = 692 (249996, 2714, 1231, 182265)
h_lb = 694 (249996, 2714, 1231, 182763)
h_lb = 696 (249996, 2714, 1231, 183283)
h_lb = 700 (249996, 2714, 1231, 184271)
h_lb = 702 (249996, 2714, 1231, 184783)
h_lb = 704 (249996, 2714, 1231, 185279)
h_lb = 708 (249996, 2714, 1231, 186253)
h_lb = 710 (249996, 2714, 1231, 186746)
h_lb = 712 (249996, 2714, 1231, 187244)
h_lb = 714 (249996, 2714, 1231, 187760)
h_lb = 716 (249996, 2714, 1231, 188743)
h_lb = 718 (249996, 2714, 1231, 188744)
h_lb = 720 (249996, 2714, 1231, 189246)
h_lb = 722 (249996, 2714, 1231, 189739)
h_lb = 724 (249996, 2714, 1231, 190729)
h_lb = 726 (249996, 2714, 1231, 190730)
h_lb = 728 (249996, 2714, 1231, 191245)
h_lb = 730 (249996, 2714, 1231, 191733)
h_lb = 732 (249996, 2714, 1231, 192220)
h_lb = 734 (249996, 2714, 1231, 192737)
h_lb = 736 (249996, 2714, 1231, 193230)
h_lb = 738 (249996, 2714, 1231, 193728)
h_lb = 740 (249996, 2714, 1231, 194234)
h_lb = 742 (249996, 2714, 1231, 194724)
h_lb = 744 (249996, 2714, 1231, 195732)
h_lb = 746 (249996, 2714, 1231, 195733)
h_lb = 748 (249996, 2714, 1231, 196219)
h_lb = 750 (249996, 2714, 1231, 196724)
h_lb = 752 (249996, 2714, 1231, 197221)
h_lb = 754 (249996, 2714, 1231, 197716)
h_lb = 756 (249996, 2714, 1231, 198214)
h_lb = 762 (249996, 2714, 1231, 199704)
h_lb = 764 (249996, 2714, 1231, 200201)
h_lb = 766 (249996, 2714, 1231, 200707)
h_lb = 768 (249996, 2714, 1231, 201211)
h_lb = 770 (249996, 2714, 1231, 201701)
h_lb = 772 (249996, 2714, 1231, 202208)
h_lb = 774 (249996, 2714, 1231, 202697)
h_lb = 776 (249996, 2714, 1231, 203187)
h_lb = 778 (249996, 2714, 1231, 203699)
h_lb = 780 (249996, 2714, 1231, 204701)
h_lb = 782 (249996, 2714, 1231, 204702)
h_lb = 784 (249996, 2714, 1231, 205689)
h_lb = 786 (249996, 2714, 1231, 205690)
h_lb = 788 (249996, 2714, 1231, 206200)
h_lb = 790 (249996, 2714, 1231, 206691)
h_lb = 792 (249996, 2714, 1231, 207187)
h_lb = 794 (249996, 2714, 1231, 207670)
h_lb = 796 (249996, 2714, 1231, 208179)
h_lb = 798 (249996, 2714, 1231, 208657)
h_lb = 800 (249996, 2714, 1231, 209177)
h_lb = 802 (249996, 2714, 1231, 209659)
h_lb = 804 (249996, 2714, 1231, 210174)
h_lb = 806 (249996, 2714, 1231, 210663)
h_lb = 808 (249996, 2714, 1231, 211167)
h_lb = 810 (249996, 2714, 1231, 211661)
h_lb = 812 (249996, 2714, 1231, 212159)
h_lb = 814 (249996, 2714, 1231, 212655)
h_lb = 816 (249996, 2714, 1231, 213157)
h_lb = 818 (249996, 2714, 1231, 213661)
h_lb = 820 (249996, 2714, 1231, 214161)
h_lb = 822 (249996, 2714, 1231, 214658)
h_lb = 824 (249996, 2714, 1231, 215156)
h_lb = 826 (249996, 2714, 1231, 215647)
h_lb = 828 (249996, 2714, 1231, 216144)
h_lb = 830 (249996, 2714, 1231, 216645)
h_lb = 832 (249996, 2714, 1231, 217157)
h_lb = 834 (249996, 2714, 1231, 217659)
h_lb = 836 (249996, 2714, 1231, 218145)
h_lb = 838 (249996, 2714, 1231, 218639)
h_lb = 840 (249996, 2714, 1231, 219135)
h_lb = 842 (249996, 2714, 1231, 219631)
h_lb = 844 (249996, 2714, 1231, 220133)
h_lb = 846 (249996, 2714, 1231, 220626)
h_lb = 848 (249996, 2714, 1231, 221141)
h_lb = 850 (249996, 2714, 1231, 221623)
h_lb = 852 (249996, 2714, 1231, 222138)
h_lb = 854 (249996, 2714, 1231, 222622)
h_lb = 856 (249996, 2714, 1231, 223120)
h_lb = 858 (249996, 2714, 1231, 223622)
h_lb = 860 (249996, 2714, 1231, 224119)
h_lb = 862 (249996, 2714, 1231, 224613)
h_lb = 864 (249996, 2714, 1231, 225121)
h_lb = 866 (249996, 2714, 1231, 226120)
h_lb = 868 (249996, 2714, 1231, 226610)
h_lb = 870 (249996, 2714, 1231, 227112)
h_lb = 872 (249996, 2714, 1231, 227599)
h_lb = 874 (249996, 2714, 1231, 228086)
h_lb = 876 (249996, 2714, 1231, 228598)
h_lb = 878 (249996, 2714, 1231, 229098)
h_lb = 880 (249996, 2714, 1231, 229588)
h_lb = 882 (249996, 2714, 1231, 230096)
h_lb = 884 (249996, 2714, 1231, 232079)
h_lb = 886 (249996, 2714, 1231, 232080)
h_lb = 888 (249996, 2714, 1231, 233079)
h_lb = 890 (249996, 2714, 1231, 234081)
h_lb = 892 (249996, 2714, 1231, 234573)
h_lb = 894 (249996, 2714, 1231, 234574)
h_lb = 896 (249996, 2714, 1231, 235563)
h_lb = 900 (249996, 2714, 1231, 237055)
h_lb = 902 (249996, 2714, 1231, 237564)
h_lb = 904 (249996, 2714, 1231, 238563)
h_lb = 906 (249996, 2714, 1231, 239057)
h_lb = 908 (249996, 2714, 1231, 239549)
h_lb = 910 (249996, 2714, 1231, 240554)
h_lb = 912 (249996, 2714, 1231, 242542)
h_lb = 914 (249996, 2714, 1231, 243536)
h_lb = 916 (249996, 2714, 1231, 244032)
h_lb = 918 (249996, 2714, 1231, 244517)
h_lb = 920 (249996, 2714, 1231, 245540)
h_lb = 922 (249996, 2714, 1231, 246029)
h_lb = 924 (249996, 2714, 1231, 246531)
h_lb = 924	h_ub = 1000
best_h_lb_found = 924 h_lb = 924	h_ub = 1000 for 1238 249516 2714 249996
h_lb = 924	h_ub = 998
h_lb = 924	h_ub = 997
best_h_lb_found = 926 h_lb = 926	h_ub = 997 for 3758 249516 249994 2714
h_lb = 926	h_ub = 996
h_lb = 926	h_ub = 995
h_lb = 926	h_ub = 994
h_lb = 926	h_ub = 993
h_lb = 926	h_ub = 992
h_lb = 926	h_ub = 991
h_lb = 926	h_ub = 990
h_lb = 926	h_ub = 989
h_lb = 926	h_ub = 988
h_lb = 926	h_ub = 987
h_lb = 926	h_ub = 986
h_lb = 926	h_ub = 985
h_lb = 926	h_ub = 984
h_lb = 926	h_ub = 983
h_lb = 926	h_ub = 982
h_lb = 926	h_ub = 981
h_lb = 926	h_ub = 980
h_lb = 926	h_ub = 979
h_lb = 926	h_ub = 978
h_lb = 926	h_ub = 977
h_lb = 926	h_ub = 976
h_lb = 926	h_ub = 975
h_lb = 926	h_ub = 974
h_lb = 926	h_ub = 973
h_lb = 926	h_ub = 972
h_lb = 926	h_ub = 971
h_lb = 926	h_ub = 970
h_lb = 926	h_ub = 969
h_lb = 926	h_ub = 968
h_lb = 926	h_ub = 967
h_lb = 926	h_ub = 966
h_lb = 926	h_ub = 965
h_lb = 926	h_ub = 964
h_lb = 926	h_ub = 963
h_lb = 926	h_ub = 962
h_lb = 926	h_ub = 961
h_lb = 926	h_ub = 960
h_lb = 926	h_ub = 959
h_lb = 926	h_ub = 958
h_lb = 926	h_ub = 957
h_lb = 926	h_ub = 956
h_lb = 926	h_ub = 955
h_lb = 926	h_ub = 954
h_lb = 926	h_ub = 953
h_lb = 926	h_ub = 952
h_lb = 926	h_ub = 951
h_lb = 926	h_ub = 950
h_lb = 926	h_ub = 949
h_lb = 926	h_ub = 948
h_lb = 926	h_ub = 947
h_lb = 926	h_ub = 946
h_lb = 926	h_ub = 945
h_lb = 926	h_ub = 944
h_lb = 926	h_ub = 943
h_lb = 926	h_ub = 942
h_lb = 926	h_ub = 941
h_lb = 926	h_ub = 940
h_lb = 926	h_ub = 939
h_lb = 926	h_ub = 938
h_lb = 926	h_ub = 937
h_lb = 926	h_ub = 936
h_lb = 926	h_ub = 935
h_lb = 926	h_ub = 934
h_lb = 926	h_ub = 933
h_lb = 926	h_ub = 932
h_lb = 926	h_ub = 931
h_lb = 926	h_ub = 930
h_lb = 926	h_ub = 929
h_lb = 926	h_ub = 928
h_lb = 926	h_ub = 927
FarApartIterator (algo = DHV): #BFS initial = 112	final = 11161

Time for computation of far apart pairs in computeBorassi: NO DATA
Time for computation of hyperbolicity in computeBorassi: NO DATA
Time for computation of far apart pairs in computeBorassiHubLabeling: NO DATA
Time for computation of hyperbolicity in computeBorassiHubLabeling: NO DATA
Initialization of v2 algorithm: sum = 1968.5 ms, mean = 1968.5 ms
HasNext call of v2 loop to get next far pair: sum = 82991 ms, mean = 41.767 ms
Initial part of v2 main loop: sum = 5165.5 ms, mean = 2.6009 ms
Time for acceptable and valuable computation in v2 main loop: sum = 228.48 ms, mean = 0.11505 ms
Lower bound update of v2 main loop: sum = 180.36 ms, mean = 0.090815 ms
COMPLETE TIME FOR BORASSI_HUBLAB: : NO DATA
COMPLETE TIME FOR BORASSI: : NO DATA
COMPLETE TIME FOR OUR APPROACH: : sum = 90534 ms, mean = 90534 ms
Counts BFS calls in compute_v2: 3408

The hyperbolicity of the graph is 463
	Command being timed: "timeout 6h .//../build/main ../graphs/grid500-10.bcc.txt -a 3 -c 2"
	User time (seconds): 90.44
	System time (seconds): 0.03
	Percent of CPU this job got: 99%
	Elapsed (wall clock) time (h:mm:ss or m:ss): 1:30.74
	Average shared text size (kbytes): 0
	Average unshared data size (kbytes): 0
	Average stack size (kbytes): 0
	Average total size (kbytes): 0
	Maximum resident set size (kbytes): 69636
	Average resident set size (kbytes): 0
	Major (requiring I/O) page faults: 0
	Minor (reclaiming a frame) page faults: 20311
	Voluntary context switches: 3
	Involuntary context switches: 55
	Swaps: 0
	File system inputs: 0
	File system outputs: 152
	Socket messages sent: 0
	Socket messages received: 0
	Signals delivered: 0
	Page size (bytes): 4096
	Exit status: 0
