Architecture:                    x86_64
CPU op-mode(s):                  32-bit, 64-bit
Byte Order:                      Little Endian
Address sizes:                   46 bits physical, 48 bits virtual
CPU(s):                          72
On-line CPU(s) list:             0-71
Thread(s) per core:              2
Core(s) per socket:              18
Socket(s):                       2
NUMA node(s):                    2
Vendor ID:                       GenuineIntel
CPU family:                      6
Model:                           85
Model name:                      Intel(R) Xeon(R) Gold 6240 CPU @ 2.60GHz
Stepping:                        7
CPU MHz:                         1000.139
CPU max MHz:                     3900.0000
CPU min MHz:                     1000.0000
BogoMIPS:                        5200.00
Virtualization:                  VT-x
L1d cache:                       1.1 MiB
L1i cache:                       1.1 MiB
L2 cache:                        36 MiB
L3 cache:                        49.5 MiB
NUMA node0 CPU(s):               0-17,36-53
NUMA node1 CPU(s):               18-35,54-71
Vulnerability Itlb multihit:     KVM: Mitigation: VMX disabled
Vulnerability L1tf:              Not affected
Vulnerability Mds:               Not affected
Vulnerability Meltdown:          Not affected
Vulnerability Spec store bypass: Mitigation; Speculative Store Bypass disabled via prctl and seccomp
Vulnerability Spectre v1:        Mitigation; usercopy/swapgs barriers and __user pointer sanitization
Vulnerability Spectre v2:        Mitigation; Enhanced IBRS, IBPB conditional, RSB filling
Vulnerability Srbds:             Not affected
Vulnerability Tsx async abort:   Mitigation; TSX disabled
Flags:                           fpu vme de pse tsc msr pae mce cx8 apic sep mtrr pge mca cmov pat pse36 clflush dts acpi mmx fxsr sse sse2 ss ht tm pbe syscall nx pdpe1gb rdtscp lm constant_tsc art arch_perfmon pebs bts rep_good nopl xtopology nonstop_tsc cpuid aperfmperf pni pclmulqdq dtes64 monitor ds_cpl vmx smx est tm2 ssse3 sdbg fma cx16 xtpr pdcm pcid dca sse4_1 sse4_2 x2apic movbe popcnt tsc_deadline_timer aes xsave avx f16c rdrand lahf_lm abm 3dnowprefetch cpuid_fault epb cat_l3 cdp_l3 invpcid_single intel_ppin ssbd mba ibrs ibpb stibp ibrs_enhanced tpr_shadow vnmi flexpriority ept vpid ept_ad fsgsbase tsc_adjust bmi1 avx2 smep bmi2 erms invpcid cqm mpx rdt_a avx512f avx512dq rdseed adx smap clflushopt clwb intel_pt avx512cd avx512bw avx512vl xsaveopt xsavec xgetbv1 xsaves cqm_llc cqm_occup_llc cqm_mbm_total cqm_mbm_local dtherm ida arat pln pts hwp hwp_act_window hwp_epp hwp_pkg_req pku ospke avx512_vnni md_clear flush_l1d arch_capabilities
==========================
RANGE                                  SIZE  STATE REMOVABLE BLOCK
0x0000000000000000-0x000000007fffffff    2G online       yes     0
0x0000000100000000-0x000000307fffffff  190G online       yes  2-96

Memory block size:         2G
Total online memory:     192G
Total offline memory:      0B
==========================
Graph: #nodes: 33187, #edges: 188577
min/max/avg degree: 2 / 1073 / 11.3645
BFS cache capacity: 2
BFSInfo type: 0
Algorithm version: 3
radius = 6
mean eccentricity = 7.94691
diameter = 11
h_lb = 1 (33186, 33185, 0, 2)
h_lb = 2 (33186, 33185, 0, 14957)
h_lb = 3 (33186, 33185, 34, 23307)
h_lb = 3	h_ub = 11
best_h_lb_found = 2 h_lb = 3	h_ub = 11 for 33120 33186 33182 32991
h_lb = 3	h_ub = 10
best_h_lb_found = 3 h_lb = 3	h_ub = 10 for 32845 33164 33182 33179
best_h_lb_found = 4 h_lb = 4	h_ub = 10 for 33170 33179 33171 29572
h_lb = 4	h_ub = 9
h_lb = 4	h_ub = 8
best_h_lb_found = 5 h_lb = 5	h_ub = 8 for 32496 32557 33161 33129
best_h_lb_found = 6 h_lb = 6	h_ub = 8 for 30157 32766 2025 3030
h_lb = 6	h_ub = 7
FarApartIterator (algo = DHV): #BFS initial = 2558	final = 33187

Time for computation of far apart pairs in computeBorassi: NO DATA
Time for computation of hyperbolicity in computeBorassi: NO DATA
Time for computation of far apart pairs in computeBorassiHubLabeling: NO DATA
Time for computation of hyperbolicity in computeBorassiHubLabeling: NO DATA
Initialization of v2 algorithm: sum = 10993 ms, mean = 10993 ms
HasNext call of v2 loop to get next far pair: sum = 62961 ms, mean = 0.018448 ms
Initial part of v2 main loop: sum = 6.2032e+05 ms, mean = 0.18175 ms
Time for acceptable and valuable computation in v2 main loop: sum = 1.2099e+05 ms, mean = 0.03545 ms
Lower bound update of v2 main loop: sum = 2.9263e+05 ms, mean = 0.08574 ms
COMPLETE TIME FOR BORASSI_HUBLAB: : NO DATA
COMPLETE TIME FOR BORASSI: : NO DATA
COMPLETE TIME FOR OUR APPROACH: : sum = 1.1084e+06 ms, mean = 1.1084e+06 ms
Counts BFS calls in compute_v2: 3465004

The hyperbolicity of the graph is 3
	Command being timed: "timeout 6h .//../build/main ../graphs/loc-brightkite.bcc.edgelist -a 3 -prune -c 2"
	User time (seconds): 1103.33
	System time (seconds): 2.09
	Percent of CPU this job got: 99%
	Elapsed (wall clock) time (h:mm:ss or m:ss): 18:28.55
	Average shared text size (kbytes): 0
	Average unshared data size (kbytes): 0
	Average stack size (kbytes): 0
	Average total size (kbytes): 0
	Maximum resident set size (kbytes): 424288
	Average resident set size (kbytes): 0
	Major (requiring I/O) page faults: 0
	Minor (reclaiming a frame) page faults: 106995
	Voluntary context switches: 3
	Involuntary context switches: 2577
	Swaps: 0
	File system inputs: 0
	File system outputs: 40
	Socket messages sent: 0
	Socket messages received: 0
	Signals delivered: 0
	Page size (bytes): 4096
	Exit status: 0
