Architecture:                    x86_64
CPU op-mode(s):                  32-bit, 64-bit
Byte Order:                      Little Endian
Address sizes:                   46 bits physical, 48 bits virtual
CPU(s):                          72
On-line CPU(s) list:             0-71
Thread(s) per core:              2
Core(s) per socket:              18
Socket(s):                       2
NUMA node(s):                    2
Vendor ID:                       GenuineIntel
CPU family:                      6
Model:                           85
Model name:                      Intel(R) Xeon(R) Gold 6240 CPU @ 2.60GHz
Stepping:                        7
CPU MHz:                         1000.228
CPU max MHz:                     3900.0000
CPU min MHz:                     1000.0000
BogoMIPS:                        5200.00
Virtualization:                  VT-x
L1d cache:                       1.1 MiB
L1i cache:                       1.1 MiB
L2 cache:                        36 MiB
L3 cache:                        49.5 MiB
NUMA node0 CPU(s):               0-17,36-53
NUMA node1 CPU(s):               18-35,54-71
Vulnerability Itlb multihit:     KVM: Mitigation: VMX disabled
Vulnerability L1tf:              Not affected
Vulnerability Mds:               Not affected
Vulnerability Meltdown:          Not affected
Vulnerability Spec store bypass: Mitigation; Speculative Store Bypass disabled via prctl and seccomp
Vulnerability Spectre v1:        Mitigation; usercopy/swapgs barriers and __user pointer sanitization
Vulnerability Spectre v2:        Mitigation; Enhanced IBRS, IBPB conditional, RSB filling
Vulnerability Srbds:             Not affected
Vulnerability Tsx async abort:   Mitigation; TSX disabled
Flags:                           fpu vme de pse tsc msr pae mce cx8 apic sep mtrr pge mca cmov pat pse36 clflush dts acpi mmx fxsr sse sse2 ss ht tm pbe syscall nx pdpe1gb rdtscp lm constant_tsc art arch_perfmon pebs bts rep_good nopl xtopology nonstop_tsc cpuid aperfmperf pni pclmulqdq dtes64 monitor ds_cpl vmx smx est tm2 ssse3 sdbg fma cx16 xtpr pdcm pcid dca sse4_1 sse4_2 x2apic movbe popcnt tsc_deadline_timer aes xsave avx f16c rdrand lahf_lm abm 3dnowprefetch cpuid_fault epb cat_l3 cdp_l3 invpcid_single intel_ppin ssbd mba ibrs ibpb stibp ibrs_enhanced tpr_shadow vnmi flexpriority ept vpid ept_ad fsgsbase tsc_adjust bmi1 avx2 smep bmi2 erms invpcid cqm mpx rdt_a avx512f avx512dq rdseed adx smap clflushopt clwb intel_pt avx512cd avx512bw avx512vl xsaveopt xsavec xgetbv1 xsaves cqm_llc cqm_occup_llc cqm_mbm_total cqm_mbm_local dtherm ida arat pln pts hwp hwp_act_window hwp_epp hwp_pkg_req pku ospke avx512_vnni md_clear flush_l1d arch_capabilities
==========================
RANGE                                  SIZE  STATE REMOVABLE BLOCK
0x0000000000000000-0x000000007fffffff    2G online       yes     0
0x0000000100000000-0x000000307fffffff  190G online       yes  2-96

Memory block size:         2G
Total online memory:     192G
Total offline memory:      0B
==========================
Graph: #nodes: 34040, #edges: 54835
min/max/avg degree: 2 / 4 / 3.2218
BFS cache capacity: 1000
BFSInfo type: 0
Algorithm version: 3
radius = 213
mean eccentricity = 319.429
diameter = 426
h_lb = 2 (0, 33965, 494, 495)
h_lb = 6 (0, 33965, 494, 887)
h_lb = 164 (0, 33965, 494, 1425)
h_lb = 168 (0, 33965, 494, 20915)
h_lb = 170 (0, 33965, 494, 21439)
h_lb = 172 (0, 33965, 494, 21440)
h_lb = 176 (0, 33965, 494, 21944)
h_lb = 180 (0, 33965, 494, 22447)
h_lb = 182 (0, 33965, 494, 22686)
h_lb = 184 (0, 33965, 494, 22931)
h_lb = 186 (0, 33965, 494, 23169)
h_lb = 190 (0, 33965, 494, 23646)
h_lb = 192 (0, 33965, 494, 24121)
h_lb = 194 (0, 33965, 494, 24122)
h_lb = 198 (0, 33965, 494, 24605)
h_lb = 200 (0, 33965, 494, 24847)
h_lb = 202 (0, 33965, 494, 25076)
h_lb = 204 (0, 33965, 494, 25330)
h_lb = 208 (0, 33965, 494, 25785)
h_lb = 210 (0, 33965, 494, 26010)
h_lb = 214 (0, 33965, 494, 26489)
h_lb = 216 (0, 33965, 494, 26742)
h_lb = 220 (0, 33965, 494, 27215)
h_lb = 222 (0, 33965, 494, 27443)
h_lb = 224 (0, 33965, 494, 27951)
h_lb = 226 (0, 33965, 494, 27952)
h_lb = 228 (0, 33965, 494, 28185)
h_lb = 230 (0, 33965, 494, 28419)
h_lb = 232 (0, 33965, 494, 28672)
h_lb = 234 (0, 33965, 494, 28926)
h_lb = 236 (0, 33965, 494, 29160)
h_lb = 238 (0, 33965, 494, 29664)
h_lb = 240 (0, 33965, 494, 29917)
h_lb = 242 (0, 33965, 494, 30170)
h_lb = 246 (0, 33965, 494, 30409)
h_lb = 248 (0, 33965, 494, 30637)
h_lb = 250 (0, 33965, 494, 30868)
h_lb = 252 (0, 33965, 494, 31128)
h_lb = 256 (0, 33965, 494, 31616)
h_lb = 258 (0, 33965, 494, 32103)
h_lb = 260 (0, 33965, 494, 32104)
h_lb = 264 (0, 33965, 494, 32584)
h_lb = 268 (0, 33965, 494, 33077)
h_lb = 270 (0, 33965, 494, 33299)
h_lb = 274 (0, 33965, 494, 33765)
h_lb = 276 (0, 33965, 495, 33765)
h_lb = 276	h_ub = 426
best_h_lb_found = 276 h_lb = 276	h_ub = 426 for 0 33965 614 33693
h_lb = 276	h_ub = 416
h_lb = 276	h_ub = 414
h_lb = 276	h_ub = 412
h_lb = 276	h_ub = 406
h_lb = 276	h_ub = 396
h_lb = 276	h_ub = 388
h_lb = 276	h_ub = 386
h_lb = 276	h_ub = 379
h_lb = 276	h_ub = 378
h_lb = 276	h_ub = 373
h_lb = 276	h_ub = 371
h_lb = 276	h_ub = 369
h_lb = 276	h_ub = 366
h_lb = 276	h_ub = 364
h_lb = 276	h_ub = 363
h_lb = 276	h_ub = 361
h_lb = 276	h_ub = 359
h_lb = 276	h_ub = 357
h_lb = 276	h_ub = 354
h_lb = 276	h_ub = 351
h_lb = 276	h_ub = 349
h_lb = 276	h_ub = 348
h_lb = 276	h_ub = 347
h_lb = 276	h_ub = 345
h_lb = 276	h_ub = 343
h_lb = 276	h_ub = 341
h_lb = 276	h_ub = 340
h_lb = 276	h_ub = 339
h_lb = 276	h_ub = 338
h_lb = 276	h_ub = 337
h_lb = 276	h_ub = 336
h_lb = 276	h_ub = 335
h_lb = 276	h_ub = 334
h_lb = 276	h_ub = 333
h_lb = 276	h_ub = 332
h_lb = 276	h_ub = 331
h_lb = 276	h_ub = 330
h_lb = 276	h_ub = 329
h_lb = 276	h_ub = 328
h_lb = 276	h_ub = 327
h_lb = 276	h_ub = 326
h_lb = 276	h_ub = 325
h_lb = 276	h_ub = 324
h_lb = 276	h_ub = 323
h_lb = 276	h_ub = 322
h_lb = 276	h_ub = 321
h_lb = 276	h_ub = 320
h_lb = 276	h_ub = 319
h_lb = 276	h_ub = 318
h_lb = 276	h_ub = 317
h_lb = 276	h_ub = 316
h_lb = 276	h_ub = 315
h_lb = 276	h_ub = 314
h_lb = 276	h_ub = 313
h_lb = 276	h_ub = 312
h_lb = 276	h_ub = 311
h_lb = 276	h_ub = 310
h_lb = 276	h_ub = 309
h_lb = 276	h_ub = 308
h_lb = 276	h_ub = 307
h_lb = 276	h_ub = 306
h_lb = 276	h_ub = 305
h_lb = 276	h_ub = 304
h_lb = 276	h_ub = 303
h_lb = 276	h_ub = 302
h_lb = 276	h_ub = 301
h_lb = 276	h_ub = 300
h_lb = 276	h_ub = 299
h_lb = 276	h_ub = 298
h_lb = 276	h_ub = 297
h_lb = 276	h_ub = 296
h_lb = 276	h_ub = 295
h_lb = 276	h_ub = 294
h_lb = 276	h_ub = 293
h_lb = 276	h_ub = 292
h_lb = 276	h_ub = 291
h_lb = 276	h_ub = 290
h_lb = 276	h_ub = 289
h_lb = 276	h_ub = 288
h_lb = 276	h_ub = 287
h_lb = 276	h_ub = 286
h_lb = 276	h_ub = 285
h_lb = 276	h_ub = 284
h_lb = 276	h_ub = 283
h_lb = 276	h_ub = 282
h_lb = 276	h_ub = 281
h_lb = 276	h_ub = 280
h_lb = 276	h_ub = 279
h_lb = 276	h_ub = 278
h_lb = 276	h_ub = 277
FarApartIterator (algo = DHV): #BFS initial = 60	final = 27124

Time for computation of far apart pairs in computeBorassi: NO DATA
Time for computation of hyperbolicity in computeBorassi: NO DATA
Time for computation of far apart pairs in computeBorassiHubLabeling: NO DATA
Time for computation of hyperbolicity in computeBorassiHubLabeling: NO DATA
Initialization of v2 algorithm: sum = 147.15 ms, mean = 147.15 ms
HasNext call of v2 loop to get next far pair: sum = 31293 ms, mean = 3.6729 ms
Initial part of v2 main loop: sum = 5068.8 ms, mean = 0.595 ms
Time for acceptable and valuable computation in v2 main loop: sum = 469.12 ms, mean = 0.055067 ms
Lower bound update of v2 main loop: sum = 0.32345 ms, mean = 3.7968e-05 ms
COMPLETE TIME FOR BORASSI_HUBLAB: : NO DATA
COMPLETE TIME FOR BORASSI: : NO DATA
COMPLETE TIME FOR OUR APPROACH: : sum = 36982 ms, mean = 36982 ms
Counts BFS calls in compute_v2: 6410

The hyperbolicity of the graph is 138
	Command being timed: "timeout 6h .//../build/main ../graphs/more/massive/z-alue7065.bcc.txt -a 3 -c 1000"
	User time (seconds): 36.48
	System time (seconds): 0.47
	Percent of CPU this job got: 99%
	Elapsed (wall clock) time (h:mm:ss or m:ss): 0:37.04
	Average shared text size (kbytes): 0
	Average unshared data size (kbytes): 0
	Average stack size (kbytes): 0
	Average total size (kbytes): 0
	Maximum resident set size (kbytes): 430912
	Average resident set size (kbytes): 0
	Major (requiring I/O) page faults: 0
	Minor (reclaiming a frame) page faults: 209540
	Voluntary context switches: 4
	Involuntary context switches: 90
	Swaps: 0
	File system inputs: 1216
	File system outputs: 64
	Socket messages sent: 0
	Socket messages received: 0
	Signals delivered: 0
	Page size (bytes): 4096
	Exit status: 0
